한줄 추가
22
288
291
321
292
369
289
290
293
294
347
1447
1448
1449
1450
1451
351
311
298
297
313
312
317
362
366
25
1798
1794
1749
1744
1745
1729
1730
1743
1783
2883
1662
1661
1647
2879
1779
1726
1725
1722
1721
1801
1724
1753
1723
1720



입꼬리 부분 추가
1447
1448
1449
1450
1451
351
311

347
309
336
352
359
343
350
316

298
297
315
314

293
294
346
308
337
353
358
342
349

////////왼쪽 입꼬리
1779
2879
1647
1661
1662
2883
1783
1743
1730
1729
1745

1725
1726
1778
1741
2880
2881
2882
1747
1746
1744

1768
1784
1791
1775
1782
1748
1740
1769
1785
1790
1774
1781











