^D:\LIB\OPENCV_420\OPENCV\SOURCES\APPS\INTERACTIVE-CALIBRATION\CALIBCONTROLLER.CPP|D:\LIB\OPENCV_420\OPENCV\SOURCES\APPS\INTERACTIVE-CALIBRATION\CALIBPIPELINE.CPP|D:\LIB\OPENCV_420\OPENCV\SOURCES\APPS\INTERACTIVE-CALIBRATION\FRAMEPROCESSOR.CPP|D:\LIB\OPENCV_420\OPENCV\SOURCES\APPS\INTERACTIVE-CALIBRATION\MAIN.CPP|D:\LIB\OPENCV_420\OPENCV\SOURCES\APPS\INTERACTIVE-CALIBRATION\PARAMETERSCONTROLLER.CPP|D:\LIB\OPENCV_420\OPENCV\SOURCES\APPS\INTERACTIVE-CALIBRATION\ROTATIONCONVERTERS.CPP
D:\LIB\OPENCV_420\BUILDR001\APPS\INTERACTIVE-CALIBRATION\OPENCV_INTERACTIVE-CALIBRATION.DIR\RELEASE\ROTATIONCONVERTERS.OBJ
D:\LIB\OPENCV_420\BUILDR001\APPS\INTERACTIVE-CALIBRATION\OPENCV_INTERACTIVE-CALIBRATION.DIR\RELEASE\CALIBPIPELINE.OBJ
D:\LIB\OPENCV_420\BUILDR001\APPS\INTERACTIVE-CALIBRATION\OPENCV_INTERACTIVE-CALIBRATION.DIR\RELEASE\FRAMEPROCESSOR.OBJ
D:\LIB\OPENCV_420\BUILDR001\APPS\INTERACTIVE-CALIBRATION\OPENCV_INTERACTIVE-CALIBRATION.DIR\RELEASE\MAIN.OBJ
D:\LIB\OPENCV_420\BUILDR001\APPS\INTERACTIVE-CALIBRATION\OPENCV_INTERACTIVE-CALIBRATION.DIR\RELEASE\CALIBCONTROLLER.OBJ
D:\LIB\OPENCV_420\BUILDR001\APPS\INTERACTIVE-CALIBRATION\OPENCV_INTERACTIVE-CALIBRATION.DIR\RELEASE\PARAMETERSCONTROLLER.OBJ
