^D:\LIB\OPENCV_420\BUILDR001\MODULES\WORLD\LAYERS\LAYERS_COMMON.AVX512_SKX.CPP|D:\LIB\OPENCV_420\BUILDR001\MODULES\WORLD\MATMUL.AVX512_SKX.CPP|D:\LIB\OPENCV_420\OPENCV\SOURCES\MODULES\IMGPROC\SRC\SUMPIXELS.AVX512_SKX.CPP
D:\LIB\OPENCV_420\BUILDR001\MODULES\WORLD\OPENCV_WORLD_AVX512_SKX.DIR\DEBUG\LAYERS_COMMON.AVX512_SKX.OBJ
D:\LIB\OPENCV_420\BUILDR001\MODULES\WORLD\OPENCV_WORLD_AVX512_SKX.DIR\DEBUG\SUMPIXELS.AVX512_SKX.OBJ
D:\LIB\OPENCV_420\BUILDR001\MODULES\WORLD\OPENCV_WORLD_AVX512_SKX.DIR\DEBUG\MATMUL.AVX512_SKX.OBJ
^D:\LIB\OPENCV_420\BUILDR001\MODULES\WORLD\MATMUL.AVX512_SKX.CPP
D:\LIB\OPENCV_420\BUILDR001\MODULES\WORLD\OPENCV_WORLD_AVX512_SKX.DIR\DEBUG\OPENCV_WORLD_AVX512_SKX.PDB
^D:\LIB\OPENCV_420\OPENCV\SOURCES\MODULES\IMGPROC\SRC\SUMPIXELS.AVX512_SKX.CPP
D:\LIB\OPENCV_420\BUILDR001\MODULES\WORLD\OPENCV_WORLD_AVX512_SKX.DIR\DEBUG\OPENCV_WORLD_AVX512_SKX.PDB
^D:\LIB\OPENCV_420\BUILDR001\MODULES\WORLD\LAYERS\LAYERS_COMMON.AVX512_SKX.CPP
D:\LIB\OPENCV_420\BUILDR001\MODULES\WORLD\OPENCV_WORLD_AVX512_SKX.DIR\DEBUG\OPENCV_WORLD_AVX512_SKX.PDB
