^D:\LIB\OPENCV_420\BUILDR001\MODULES\WORLD\STAT.SSE4_2.CPP
D:\LIB\OPENCV_420\BUILDR001\MODULES\WORLD\OPENCV_WORLD_SSE4_2.DIR\DEBUG\OPENCV_WORLD_SSE4_2.PDB
D:\LIB\OPENCV_420\BUILDR001\MODULES\WORLD\OPENCV_WORLD_SSE4_2.DIR\DEBUG\STAT.SSE4_2.OBJ
