^D:\LIB\OPENCV_420\BUILDR001\CMAKEFILES\B7C0216BFE89A002CA2C6FB404DEB58D\OPENCL_KERNELS_CORE.CPP.RULE
D:\LIB\OPENCV_420\OPENCV\SOURCES\MODULES\CORE\SRC\OPENCL\ARITHM.CL
D:\LIB\OPENCV_420\OPENCV\SOURCES\MODULES\CORE\SRC\OPENCL\CONVERT.CL
D:\LIB\OPENCV_420\OPENCV\SOURCES\MODULES\CORE\SRC\OPENCL\COPYMAKEBORDER.CL
D:\LIB\OPENCV_420\OPENCV\SOURCES\MODULES\CORE\SRC\OPENCL\COPYSET.CL
D:\LIB\OPENCV_420\OPENCV\SOURCES\MODULES\CORE\SRC\OPENCL\CVTCLR_DX.CL
D:\LIB\OPENCV_420\OPENCV\SOURCES\MODULES\CORE\SRC\OPENCL\FFT.CL
D:\LIB\OPENCV_420\OPENCV\SOURCES\MODULES\CORE\SRC\OPENCL\FLIP.CL
D:\LIB\OPENCV_420\OPENCV\SOURCES\MODULES\CORE\SRC\OPENCL\GEMM.CL
D:\LIB\OPENCV_420\OPENCV\SOURCES\MODULES\CORE\SRC\OPENCL\HALFCONVERT.CL
D:\LIB\OPENCV_420\OPENCV\SOURCES\MODULES\CORE\SRC\OPENCL\INRANGE.CL
D:\LIB\OPENCV_420\OPENCV\SOURCES\MODULES\CORE\SRC\OPENCL\INTEL_GEMM.CL
D:\LIB\OPENCV_420\OPENCV\SOURCES\MODULES\CORE\SRC\OPENCL\LUT.CL
D:\LIB\OPENCV_420\OPENCV\SOURCES\MODULES\CORE\SRC\OPENCL\MEANSTDDEV.CL
D:\LIB\OPENCV_420\OPENCV\SOURCES\MODULES\CORE\SRC\OPENCL\MINMAXLOC.CL
D:\LIB\OPENCV_420\OPENCV\SOURCES\MODULES\CORE\SRC\OPENCL\MIXCHANNELS.CL
D:\LIB\OPENCV_420\OPENCV\SOURCES\MODULES\CORE\SRC\OPENCL\MULSPECTRUMS.CL
D:\LIB\OPENCV_420\OPENCV\SOURCES\MODULES\CORE\SRC\OPENCL\NORMALIZE.CL
D:\LIB\OPENCV_420\OPENCV\SOURCES\MODULES\CORE\SRC\OPENCL\REDUCE.CL
D:\LIB\OPENCV_420\OPENCV\SOURCES\MODULES\CORE\SRC\OPENCL\REDUCE2.CL
D:\LIB\OPENCV_420\OPENCV\SOURCES\MODULES\CORE\SRC\OPENCL\REPEAT.CL
D:\LIB\OPENCV_420\OPENCV\SOURCES\MODULES\CORE\SRC\OPENCL\SET_IDENTITY.CL
D:\LIB\OPENCV_420\OPENCV\SOURCES\MODULES\CORE\SRC\OPENCL\SPLIT_MERGE.CL
D:\LIB\OPENCV_420\OPENCV\SOURCES\MODULES\CORE\SRC\OPENCL\TRANSPOSE.CL
D:\LIB\OPENCV_420\OPENCV\SOURCES\CMAKE\CL2CPP.CMAKE
^D:\LIB\OPENCV_420\BUILDR001\CMAKEFILES\B7C0216BFE89A002CA2C6FB404DEB58D\OPENCL_KERNELS_IMGPROC.CPP.RULE
D:\LIB\OPENCV_420\OPENCV\SOURCES\MODULES\IMGPROC\SRC\OPENCL\ACCUMULATE.CL
D:\LIB\OPENCV_420\OPENCV\SOURCES\MODULES\IMGPROC\SRC\OPENCL\BILATERAL.CL
D:\LIB\OPENCV_420\OPENCV\SOURCES\MODULES\IMGPROC\SRC\OPENCL\BLEND_LINEAR.CL
D:\LIB\OPENCV_420\OPENCV\SOURCES\MODULES\IMGPROC\SRC\OPENCL\BOXFILTER.CL
D:\LIB\OPENCV_420\OPENCV\SOURCES\MODULES\IMGPROC\SRC\OPENCL\BOXFILTER3X3.CL
D:\LIB\OPENCV_420\OPENCV\SOURCES\MODULES\IMGPROC\SRC\OPENCL\CALC_BACK_PROJECT.CL
D:\LIB\OPENCV_420\OPENCV\SOURCES\MODULES\IMGPROC\SRC\OPENCL\CANNY.CL
D:\LIB\OPENCV_420\OPENCV\SOURCES\MODULES\IMGPROC\SRC\OPENCL\CLAHE.CL
D:\LIB\OPENCV_420\OPENCV\SOURCES\MODULES\IMGPROC\SRC\OPENCL\COLOR_HSV.CL
D:\LIB\OPENCV_420\OPENCV\SOURCES\MODULES\IMGPROC\SRC\OPENCL\COLOR_LAB.CL
D:\LIB\OPENCV_420\OPENCV\SOURCES\MODULES\IMGPROC\SRC\OPENCL\COLOR_RGB.CL
D:\LIB\OPENCV_420\OPENCV\SOURCES\MODULES\IMGPROC\SRC\OPENCL\COLOR_YUV.CL
D:\LIB\OPENCV_420\OPENCV\SOURCES\MODULES\IMGPROC\SRC\OPENCL\CORNER.CL
D:\LIB\OPENCV_420\OPENCV\SOURCES\MODULES\IMGPROC\SRC\OPENCL\COVARDATA.CL
D:\LIB\OPENCV_420\OPENCV\SOURCES\MODULES\IMGPROC\SRC\OPENCL\FILTER2D.CL
D:\LIB\OPENCV_420\OPENCV\SOURCES\MODULES\IMGPROC\SRC\OPENCL\FILTER2DSMALL.CL
D:\LIB\OPENCV_420\OPENCV\SOURCES\MODULES\IMGPROC\SRC\OPENCL\FILTERSEPCOL.CL
D:\LIB\OPENCV_420\OPENCV\SOURCES\MODULES\IMGPROC\SRC\OPENCL\FILTERSEPROW.CL
D:\LIB\OPENCV_420\OPENCV\SOURCES\MODULES\IMGPROC\SRC\OPENCL\FILTERSEP_SINGLEPASS.CL
D:\LIB\OPENCV_420\OPENCV\SOURCES\MODULES\IMGPROC\SRC\OPENCL\FILTERSMALL.CL
D:\LIB\OPENCV_420\OPENCV\SOURCES\MODULES\IMGPROC\SRC\OPENCL\GAUSSIANBLUR3X3.CL
D:\LIB\OPENCV_420\OPENCV\SOURCES\MODULES\IMGPROC\SRC\OPENCL\GAUSSIANBLUR5X5.CL
D:\LIB\OPENCV_420\OPENCV\SOURCES\MODULES\IMGPROC\SRC\OPENCL\GFTT.CL
D:\LIB\OPENCV_420\OPENCV\SOURCES\MODULES\IMGPROC\SRC\OPENCL\HISTOGRAM.CL
D:\LIB\OPENCV_420\OPENCV\SOURCES\MODULES\IMGPROC\SRC\OPENCL\HOUGH_LINES.CL
D:\LIB\OPENCV_420\OPENCV\SOURCES\MODULES\IMGPROC\SRC\OPENCL\INTEGRAL_SUM.CL
D:\LIB\OPENCV_420\OPENCV\SOURCES\MODULES\IMGPROC\SRC\OPENCL\LAPLACIAN3.CL
D:\LIB\OPENCV_420\OPENCV\SOURCES\MODULES\IMGPROC\SRC\OPENCL\LAPLACIAN5.CL
D:\LIB\OPENCV_420\OPENCV\SOURCES\MODULES\IMGPROC\SRC\OPENCL\LINEARPOLAR.CL
D:\LIB\OPENCV_420\OPENCV\SOURCES\MODULES\IMGPROC\SRC\OPENCL\LOGPOLAR.CL
D:\LIB\OPENCV_420\OPENCV\SOURCES\MODULES\IMGPROC\SRC\OPENCL\MATCH_TEMPLATE.CL
D:\LIB\OPENCV_420\OPENCV\SOURCES\MODULES\IMGPROC\SRC\OPENCL\MEDIANFILTER.CL
D:\LIB\OPENCV_420\OPENCV\SOURCES\MODULES\IMGPROC\SRC\OPENCL\MOMENTS.CL
D:\LIB\OPENCV_420\OPENCV\SOURCES\MODULES\IMGPROC\SRC\OPENCL\MORPH.CL
D:\LIB\OPENCV_420\OPENCV\SOURCES\MODULES\IMGPROC\SRC\OPENCL\MORPH3X3.CL
D:\LIB\OPENCV_420\OPENCV\SOURCES\MODULES\IMGPROC\SRC\OPENCL\PRECORNERDETECT.CL
D:\LIB\OPENCV_420\OPENCV\SOURCES\MODULES\IMGPROC\SRC\OPENCL\PYR_DOWN.CL
D:\LIB\OPENCV_420\OPENCV\SOURCES\MODULES\IMGPROC\SRC\OPENCL\PYR_UP.CL
D:\LIB\OPENCV_420\OPENCV\SOURCES\MODULES\IMGPROC\SRC\OPENCL\PYRAMID_UP.CL
D:\LIB\OPENCV_420\OPENCV\SOURCES\MODULES\IMGPROC\SRC\OPENCL\REMAP.CL
D:\LIB\OPENCV_420\OPENCV\SOURCES\MODULES\IMGPROC\SRC\OPENCL\RESIZE.CL
D:\LIB\OPENCV_420\OPENCV\SOURCES\MODULES\IMGPROC\SRC\OPENCL\SEPFILTER3X3.CL
D:\LIB\OPENCV_420\OPENCV\SOURCES\MODULES\IMGPROC\SRC\OPENCL\THRESHOLD.CL
D:\LIB\OPENCV_420\OPENCV\SOURCES\MODULES\IMGPROC\SRC\OPENCL\WARP_AFFINE.CL
D:\LIB\OPENCV_420\OPENCV\SOURCES\MODULES\IMGPROC\SRC\OPENCL\WARP_PERSPECTIVE.CL
D:\LIB\OPENCV_420\OPENCV\SOURCES\MODULES\IMGPROC\SRC\OPENCL\WARP_TRANSFORM.CL
D:\LIB\OPENCV_420\OPENCV\SOURCES\CMAKE\CL2CPP.CMAKE
^D:\LIB\OPENCV_420\BUILDR001\CMAKEFILES\B7C0216BFE89A002CA2C6FB404DEB58D\OPENCL_KERNELS_PHOTO.CPP.RULE
D:\LIB\OPENCV_420\OPENCV\SOURCES\MODULES\PHOTO\SRC\OPENCL\NLMEANS.CL
D:\LIB\OPENCV_420\OPENCV\SOURCES\CMAKE\CL2CPP.CMAKE
^D:\LIB\OPENCV_420\BUILDR001\CMAKEFILES\B7C0216BFE89A002CA2C6FB404DEB58D\OPENCL_KERNELS_DNN.CPP.RULE
D:\LIB\OPENCV_420\OPENCV\SOURCES\MODULES\DNN\SRC\OPENCL\ACTIVATIONS.CL
D:\LIB\OPENCV_420\OPENCV\SOURCES\MODULES\DNN\SRC\OPENCL\BATCHNORM.CL
D:\LIB\OPENCV_420\OPENCV\SOURCES\MODULES\DNN\SRC\OPENCL\COL2IM.CL
D:\LIB\OPENCV_420\OPENCV\SOURCES\MODULES\DNN\SRC\OPENCL\CONCAT.CL
D:\LIB\OPENCV_420\OPENCV\SOURCES\MODULES\DNN\SRC\OPENCL\CONV_LAYER_SPATIAL.CL
D:\LIB\OPENCV_420\OPENCV\SOURCES\MODULES\DNN\SRC\OPENCL\CONV_SPATIAL_HELPER.CL
D:\LIB\OPENCV_420\OPENCV\SOURCES\MODULES\DNN\SRC\OPENCL\DETECTION_OUTPUT.CL
D:\LIB\OPENCV_420\OPENCV\SOURCES\MODULES\DNN\SRC\OPENCL\DUMMY.CL
D:\LIB\OPENCV_420\OPENCV\SOURCES\MODULES\DNN\SRC\OPENCL\ELTWISE.CL
D:\LIB\OPENCV_420\OPENCV\SOURCES\MODULES\DNN\SRC\OPENCL\GEMM_BUFFER.CL
D:\LIB\OPENCV_420\OPENCV\SOURCES\MODULES\DNN\SRC\OPENCL\GEMM_IMAGE.CL
D:\LIB\OPENCV_420\OPENCV\SOURCES\MODULES\DNN\SRC\OPENCL\IM2COL.CL
D:\LIB\OPENCV_420\OPENCV\SOURCES\MODULES\DNN\SRC\OPENCL\LRN.CL
D:\LIB\OPENCV_420\OPENCV\SOURCES\MODULES\DNN\SRC\OPENCL\MATH.CL
D:\LIB\OPENCV_420\OPENCV\SOURCES\MODULES\DNN\SRC\OPENCL\MATVEC_MUL.CL
D:\LIB\OPENCV_420\OPENCV\SOURCES\MODULES\DNN\SRC\OPENCL\MVN.CL
D:\LIB\OPENCV_420\OPENCV\SOURCES\MODULES\DNN\SRC\OPENCL\OCL4DNN_LRN.CL
D:\LIB\OPENCV_420\OPENCV\SOURCES\MODULES\DNN\SRC\OPENCL\OCL4DNN_POOLING.CL
D:\LIB\OPENCV_420\OPENCV\SOURCES\MODULES\DNN\SRC\OPENCL\PERMUTE.CL
D:\LIB\OPENCV_420\OPENCV\SOURCES\MODULES\DNN\SRC\OPENCL\POOLING.CL
D:\LIB\OPENCV_420\OPENCV\SOURCES\MODULES\DNN\SRC\OPENCL\PRIOR_BOX.CL
D:\LIB\OPENCV_420\OPENCV\SOURCES\MODULES\DNN\SRC\OPENCL\REGION.CL
D:\LIB\OPENCV_420\OPENCV\SOURCES\MODULES\DNN\SRC\OPENCL\SLICE.CL
D:\LIB\OPENCV_420\OPENCV\SOURCES\MODULES\DNN\SRC\OPENCL\SOFTMAX.CL
D:\LIB\OPENCV_420\OPENCV\SOURCES\MODULES\DNN\SRC\OPENCL\SOFTMAX_LOSS.CL
D:\LIB\OPENCV_420\OPENCV\SOURCES\CMAKE\CL2CPP.CMAKE
^D:\LIB\OPENCV_420\BUILDR001\CMAKEFILES\B7C0216BFE89A002CA2C6FB404DEB58D\OPENCL_KERNELS_FEATURES2D.CPP.RULE
D:\LIB\OPENCV_420\OPENCV\SOURCES\MODULES\FEATURES2D\SRC\OPENCL\AKAZE.CL
D:\LIB\OPENCV_420\OPENCV\SOURCES\MODULES\FEATURES2D\SRC\OPENCL\BRUTE_FORCE_MATCH.CL
D:\LIB\OPENCV_420\OPENCV\SOURCES\MODULES\FEATURES2D\SRC\OPENCL\FAST.CL
D:\LIB\OPENCV_420\OPENCV\SOURCES\MODULES\FEATURES2D\SRC\OPENCL\ORB.CL
D:\LIB\OPENCV_420\OPENCV\SOURCES\CMAKE\CL2CPP.CMAKE
^D:\LIB\OPENCV_420\BUILDR001\CMAKEFILES\B7C0216BFE89A002CA2C6FB404DEB58D\OPENCL_KERNELS_CALIB3D.CPP.RULE
D:\LIB\OPENCV_420\OPENCV\SOURCES\MODULES\CALIB3D\SRC\OPENCL\STEREOBM.CL
D:\LIB\OPENCV_420\OPENCV\SOURCES\CMAKE\CL2CPP.CMAKE
^D:\LIB\OPENCV_420\BUILDR001\CMAKEFILES\B7C0216BFE89A002CA2C6FB404DEB58D\OPENCL_KERNELS_OBJDETECT.CPP.RULE
D:\LIB\OPENCV_420\OPENCV\SOURCES\MODULES\OBJDETECT\SRC\OPENCL\CASCADEDETECT.CL
D:\LIB\OPENCV_420\OPENCV\SOURCES\MODULES\OBJDETECT\SRC\OPENCL\OBJDETECT_HOG.CL
D:\LIB\OPENCV_420\OPENCV\SOURCES\CMAKE\CL2CPP.CMAKE
^D:\LIB\OPENCV_420\BUILDR001\CMAKEFILES\B7C0216BFE89A002CA2C6FB404DEB58D\OPENCL_KERNELS_RGBD.CPP.RULE
D:\LIB\OPENCV_420\OPENCV_CONTRIB-4.2.0\MODULES\RGBD\SRC\OPENCL\ICP.CL
D:\LIB\OPENCV_420\OPENCV_CONTRIB-4.2.0\MODULES\RGBD\SRC\OPENCL\KINFU_FRAME.CL
D:\LIB\OPENCV_420\OPENCV_CONTRIB-4.2.0\MODULES\RGBD\SRC\OPENCL\TSDF.CL
D:\LIB\OPENCV_420\OPENCV\SOURCES\CMAKE\CL2CPP.CMAKE
^D:\LIB\OPENCV_420\BUILDR001\CMAKEFILES\B7C0216BFE89A002CA2C6FB404DEB58D\OPENCL_KERNELS_VIDEO.CPP.RULE
D:\LIB\OPENCV_420\OPENCV\SOURCES\MODULES\VIDEO\SRC\OPENCL\BGFG_KNN.CL
D:\LIB\OPENCV_420\OPENCV\SOURCES\MODULES\VIDEO\SRC\OPENCL\BGFG_MOG2.CL
D:\LIB\OPENCV_420\OPENCV\SOURCES\MODULES\VIDEO\SRC\OPENCL\DIS_FLOW.CL
D:\LIB\OPENCV_420\OPENCV\SOURCES\MODULES\VIDEO\SRC\OPENCL\OPTICAL_FLOW_FARNEBACK.CL
D:\LIB\OPENCV_420\OPENCV\SOURCES\MODULES\VIDEO\SRC\OPENCL\PYRLK.CL
D:\LIB\OPENCV_420\OPENCV\SOURCES\CMAKE\CL2CPP.CMAKE
^D:\LIB\OPENCV_420\BUILDR001\CMAKEFILES\B7C0216BFE89A002CA2C6FB404DEB58D\OPENCL_KERNELS_XFEATURES2D.CPP.RULE
D:\LIB\OPENCV_420\OPENCV_CONTRIB-4.2.0\MODULES\XFEATURES2D\SRC\OPENCL\SURF.CL
D:\LIB\OPENCV_420\OPENCV\SOURCES\CMAKE\CL2CPP.CMAKE
^D:\LIB\OPENCV_420\BUILDR001\CMAKEFILES\B7C0216BFE89A002CA2C6FB404DEB58D\OPENCL_KERNELS_XIMGPROC.CPP.RULE
D:\LIB\OPENCV_420\OPENCV_CONTRIB-4.2.0\MODULES\XIMGPROC\SRC\OPENCL\ANISODIFF.CL
D:\LIB\OPENCV_420\OPENCV\SOURCES\CMAKE\CL2CPP.CMAKE
^D:\LIB\OPENCV_420\BUILDR001\CMAKEFILES\B7C0216BFE89A002CA2C6FB404DEB58D\OPENCL_KERNELS_BIOINSPIRED.CPP.RULE
D:\LIB\OPENCV_420\OPENCV_CONTRIB-4.2.0\MODULES\BIOINSPIRED\SRC\OPENCL\RETINA_KERNEL.CL
D:\LIB\OPENCV_420\OPENCV\SOURCES\CMAKE\CL2CPP.CMAKE
^D:\LIB\OPENCV_420\BUILDR001\CMAKEFILES\B7C0216BFE89A002CA2C6FB404DEB58D\OPENCL_KERNELS_OPTFLOW.CPP.RULE
D:\LIB\OPENCV_420\OPENCV_CONTRIB-4.2.0\MODULES\OPTFLOW\SRC\OPENCL\OPTICAL_FLOW_TVL1.CL
D:\LIB\OPENCV_420\OPENCV_CONTRIB-4.2.0\MODULES\OPTFLOW\SRC\OPENCL\SPARSE_MATCHING_GPC.CL
D:\LIB\OPENCV_420\OPENCV_CONTRIB-4.2.0\MODULES\OPTFLOW\SRC\OPENCL\UPDATEMOTIONHISTORY.CL
D:\LIB\OPENCV_420\OPENCV\SOURCES\CMAKE\CL2CPP.CMAKE
^D:\LIB\OPENCV_420\BUILDR001\CMAKEFILES\B7C0216BFE89A002CA2C6FB404DEB58D\OPENCL_KERNELS_STITCHING.CPP.RULE
D:\LIB\OPENCV_420\OPENCV\SOURCES\MODULES\STITCHING\SRC\OPENCL\MULTIBANDBLEND.CL
D:\LIB\OPENCV_420\OPENCV\SOURCES\MODULES\STITCHING\SRC\OPENCL\WARPERS.CL
D:\LIB\OPENCV_420\OPENCV\SOURCES\CMAKE\CL2CPP.CMAKE
^D:\LIB\OPENCV_420\BUILDR001\CMAKEFILES\B7C0216BFE89A002CA2C6FB404DEB58D\OPENCL_KERNELS_SUPERRES.CPP.RULE
D:\LIB\OPENCV_420\OPENCV_CONTRIB-4.2.0\MODULES\SUPERRES\SRC\OPENCL\SUPERRES_BTVL1.CL
D:\LIB\OPENCV_420\OPENCV\SOURCES\CMAKE\CL2CPP.CMAKE
^D:\LIB\OPENCV_420\BUILDR001\CMAKEFILES\B7C0216BFE89A002CA2C6FB404DEB58D\OPENCL_KERNELS_TRACKING.CPP.RULE
D:\LIB\OPENCV_420\OPENCV_CONTRIB-4.2.0\MODULES\TRACKING\SRC\OPENCL\TLDDETECTOR.CL
D:\LIB\OPENCV_420\OPENCV_CONTRIB-4.2.0\MODULES\TRACKING\SRC\OPENCL\TMM.CL
D:\LIB\OPENCV_420\OPENCV\SOURCES\CMAKE\CL2CPP.CMAKE
^D:\LIB\OPENCV_420\OPENCV\SOURCES\MODULES\WORLD\CMAKELISTS.TXT
D:\LIB\OPENCV_420\OPENCV\SOURCES\CMAKE\TEMPLATES\VS_VERSION.RC.IN
D:\LIB\OPENCV_420\OPENCV\SOURCES\MODULES\CALIB3D\CMAKELISTS.TXT
D:\LIB\OPENCV_420\OPENCV\SOURCES\MODULES\CORE\CMAKELISTS.TXT
D:\LIB\OPENCV_420\OPENCV\SOURCES\MODULES\DNN\CMAKELISTS.TXT
D:\LIB\OPENCV_420\OPENCV\SOURCES\MODULES\DNN\CMAKE\HOOKS\INIT_MODULE_SOURCES_OPENCV_DNN.CMAKE
D:\LIB\OPENCV_420\OPENCV\SOURCES\MODULES\FEATURES2D\CMAKELISTS.TXT
D:\LIB\OPENCV_420\OPENCV\SOURCES\MODULES\FLANN\CMAKELISTS.TXT
D:\LIB\OPENCV_420\OPENCV\SOURCES\MODULES\GAPI\CMAKELISTS.TXT
D:\LIB\OPENCV_420\OPENCV\SOURCES\MODULES\HIGHGUI\CMAKELISTS.TXT
D:\LIB\OPENCV_420\OPENCV\SOURCES\MODULES\IMGCODECS\CMAKELISTS.TXT
D:\LIB\OPENCV_420\OPENCV\SOURCES\MODULES\IMGPROC\CMAKELISTS.TXT
D:\LIB\OPENCV_420\OPENCV\SOURCES\MODULES\ML\CMAKELISTS.TXT
D:\LIB\OPENCV_420\OPENCV\SOURCES\MODULES\OBJDETECT\CMAKELISTS.TXT
D:\LIB\OPENCV_420\OPENCV\SOURCES\MODULES\PHOTO\CMAKELISTS.TXT
D:\LIB\OPENCV_420\OPENCV\SOURCES\MODULES\STITCHING\CMAKELISTS.TXT
D:\LIB\OPENCV_420\OPENCV\SOURCES\MODULES\VIDEO\CMAKELISTS.TXT
D:\LIB\OPENCV_420\OPENCV\SOURCES\MODULES\VIDEOIO\CMAKELISTS.TXT
D:\LIB\OPENCV_420\OPENCV\SOURCES\MODULES\VIDEOIO\CMAKE\PLUGIN.CMAKE
D:\LIB\OPENCV_420\OPENCV_CONTRIB-4.2.0\MODULES\ARUCO\CMAKELISTS.TXT
D:\LIB\OPENCV_420\OPENCV_CONTRIB-4.2.0\MODULES\BGSEGM\CMAKELISTS.TXT
D:\LIB\OPENCV_420\OPENCV_CONTRIB-4.2.0\MODULES\BIOINSPIRED\CMAKELISTS.TXT
D:\LIB\OPENCV_420\OPENCV_CONTRIB-4.2.0\MODULES\CCALIB\CMAKELISTS.TXT
D:\LIB\OPENCV_420\OPENCV_CONTRIB-4.2.0\MODULES\DATASETS\CMAKELISTS.TXT
D:\LIB\OPENCV_420\OPENCV_CONTRIB-4.2.0\MODULES\DNN_OBJDETECT\CMAKELISTS.TXT
D:\LIB\OPENCV_420\OPENCV_CONTRIB-4.2.0\MODULES\DNN_SUPERRES\CMAKELISTS.TXT
D:\LIB\OPENCV_420\OPENCV_CONTRIB-4.2.0\MODULES\DPM\CMAKELISTS.TXT
D:\LIB\OPENCV_420\OPENCV_CONTRIB-4.2.0\MODULES\FACE\CMAKELISTS.TXT
D:\LIB\OPENCV_420\OPENCV_CONTRIB-4.2.0\MODULES\FUZZY\CMAKELISTS.TXT
D:\LIB\OPENCV_420\OPENCV_CONTRIB-4.2.0\MODULES\HFS\CMAKELISTS.TXT
D:\LIB\OPENCV_420\OPENCV_CONTRIB-4.2.0\MODULES\LINE_DESCRIPTOR\CMAKELISTS.TXT
D:\LIB\OPENCV_420\OPENCV_CONTRIB-4.2.0\MODULES\OPTFLOW\CMAKELISTS.TXT
D:\LIB\OPENCV_420\OPENCV_CONTRIB-4.2.0\MODULES\PHASE_UNWRAPPING\CMAKELISTS.TXT
D:\LIB\OPENCV_420\OPENCV_CONTRIB-4.2.0\MODULES\PLOT\CMAKELISTS.TXT
D:\LIB\OPENCV_420\OPENCV_CONTRIB-4.2.0\MODULES\QUALITY\CMAKELISTS.TXT
D:\LIB\OPENCV_420\OPENCV_CONTRIB-4.2.0\MODULES\REG\CMAKELISTS.TXT
D:\LIB\OPENCV_420\OPENCV_CONTRIB-4.2.0\MODULES\RGBD\CMAKELISTS.TXT
D:\LIB\OPENCV_420\OPENCV_CONTRIB-4.2.0\MODULES\SALIENCY\CMAKELISTS.TXT
D:\LIB\OPENCV_420\OPENCV_CONTRIB-4.2.0\MODULES\SHAPE\CMAKELISTS.TXT
D:\LIB\OPENCV_420\OPENCV_CONTRIB-4.2.0\MODULES\STEREO\CMAKELISTS.TXT
D:\LIB\OPENCV_420\OPENCV_CONTRIB-4.2.0\MODULES\STRUCTURED_LIGHT\CMAKELISTS.TXT
D:\LIB\OPENCV_420\OPENCV_CONTRIB-4.2.0\MODULES\SUPERRES\CMAKELISTS.TXT
D:\LIB\OPENCV_420\OPENCV_CONTRIB-4.2.0\MODULES\SURFACE_MATCHING\CMAKELISTS.TXT
D:\LIB\OPENCV_420\OPENCV_CONTRIB-4.2.0\MODULES\TEXT\CMAKELISTS.TXT
D:\LIB\OPENCV_420\OPENCV_CONTRIB-4.2.0\MODULES\TEXT\TEXT_CONFIG.HPP.IN
D:\LIB\OPENCV_420\OPENCV_CONTRIB-4.2.0\MODULES\TRACKING\CMAKELISTS.TXT
D:\LIB\OPENCV_420\OPENCV_CONTRIB-4.2.0\MODULES\VIDEOSTAB\CMAKELISTS.TXT
D:\LIB\OPENCV_420\OPENCV_CONTRIB-4.2.0\MODULES\XFEATURES2D\CMAKELISTS.TXT
D:\LIB\OPENCV_420\OPENCV_CONTRIB-4.2.0\MODULES\XFEATURES2D\CMAKE\DOWNLOAD_BOOSTDESC.CMAKE
D:\LIB\OPENCV_420\OPENCV_CONTRIB-4.2.0\MODULES\XFEATURES2D\CMAKE\DOWNLOAD_VGG.CMAKE
D:\LIB\OPENCV_420\OPENCV_CONTRIB-4.2.0\MODULES\XIMGPROC\CMAKELISTS.TXT
D:\LIB\OPENCV_420\OPENCV_CONTRIB-4.2.0\MODULES\XOBJDETECT\CMAKELISTS.TXT
D:\LIB\OPENCV_420\OPENCV_CONTRIB-4.2.0\MODULES\XPHOTO\CMAKELISTS.TXT
