^D:\LIB\OPENCV_420\BUILDR001\3RDPARTY\ADE\ADE-0.1.1F\SOURCES\ADE\SOURCE\ALLOC.CPP|D:\LIB\OPENCV_420\BUILDR001\3RDPARTY\ADE\ADE-0.1.1F\SOURCES\ADE\SOURCE\ASSERT.CPP|D:\LIB\OPENCV_420\BUILDR001\3RDPARTY\ADE\ADE-0.1.1F\SOURCES\ADE\SOURCE\CHECK_CYCLES.CPP|D:\LIB\OPENCV_420\BUILDR001\3RDPARTY\ADE\ADE-0.1.1F\SOURCES\ADE\SOURCE\EDGE.CPP|D:\LIB\OPENCV_420\BUILDR001\3RDPARTY\ADE\ADE-0.1.1F\SOURCES\ADE\SOURCE\EXECUTION_ENGINE.CPP|D:\LIB\OPENCV_420\BUILDR001\3RDPARTY\ADE\ADE-0.1.1F\SOURCES\ADE\SOURCE\GRAPH.CPP|D:\LIB\OPENCV_420\BUILDR001\3RDPARTY\ADE\ADE-0.1.1F\SOURCES\ADE\SOURCE\MEMORY_ACCESSOR.CPP|D:\LIB\OPENCV_420\BUILDR001\3RDPARTY\ADE\ADE-0.1.1F\SOURCES\ADE\SOURCE\MEMORY_DESCRIPTOR.CPP|D:\LIB\OPENCV_420\BUILDR001\3RDPARTY\ADE\ADE-0.1.1F\SOURCES\ADE\SOURCE\MEMORY_DESCRIPTOR_REF.CPP|D:\LIB\OPENCV_420\BUILDR001\3RDPARTY\ADE\ADE-0.1.1F\SOURCES\ADE\SOURCE\MEMORY_DESCRIPTOR_VIEW.CPP|D:\LIB\OPENCV_420\BUILDR001\3RDPARTY\ADE\ADE-0.1.1F\SOURCES\ADE\SOURCE\METADATA.CPP|D:\LIB\OPENCV_420\BUILDR001\3RDPARTY\ADE\ADE-0.1.1F\SOURCES\ADE\SOURCE\METATYPES.CPP|D:\LIB\OPENCV_420\BUILDR001\3RDPARTY\ADE\ADE-0.1.1F\SOURCES\ADE\SOURCE\NODE.CPP|D:\LIB\OPENCV_420\BUILDR001\3RDPARTY\ADE\ADE-0.1.1F\SOURCES\ADE\SOURCE\PASSES\COMMUNICATIONS.CPP|D:\LIB\OPENCV_420\BUILDR001\3RDPARTY\ADE\ADE-0.1.1F\SOURCES\ADE\SOURCE\SEARCH.CPP|D:\LIB\OPENCV_420\BUILDR001\3RDPARTY\ADE\ADE-0.1.1F\SOURCES\ADE\SOURCE\SUBGRAPHS.CPP|D:\LIB\OPENCV_420\BUILDR001\3RDPARTY\ADE\ADE-0.1.1F\SOURCES\ADE\SOURCE\TOPOLOGICAL_SORT.CPP
D:\LIB\OPENCV_420\BUILDR001\MODULES\ADE.DIR\DEBUG\EDGE.OBJ
D:\LIB\OPENCV_420\BUILDR001\MODULES\ADE.DIR\DEBUG\MEMORY_DESCRIPTOR_VIEW.OBJ
D:\LIB\OPENCV_420\BUILDR001\MODULES\ADE.DIR\DEBUG\TOPOLOGICAL_SORT.OBJ
D:\LIB\OPENCV_420\BUILDR001\MODULES\ADE.DIR\DEBUG\ASSERT.OBJ
D:\LIB\OPENCV_420\BUILDR001\MODULES\ADE.DIR\DEBUG\MEMORY_ACCESSOR.OBJ
D:\LIB\OPENCV_420\BUILDR001\MODULES\ADE.DIR\DEBUG\SEARCH.OBJ
D:\LIB\OPENCV_420\BUILDR001\MODULES\ADE.DIR\DEBUG\EXECUTION_ENGINE.OBJ
D:\LIB\OPENCV_420\BUILDR001\MODULES\ADE.DIR\DEBUG\METATYPES.OBJ
D:\LIB\OPENCV_420\BUILDR001\MODULES\ADE.DIR\DEBUG\CHECK_CYCLES.OBJ
D:\LIB\OPENCV_420\BUILDR001\MODULES\ADE.DIR\DEBUG\MEMORY_DESCRIPTOR_REF.OBJ
D:\LIB\OPENCV_420\BUILDR001\MODULES\ADE.DIR\DEBUG\COMMUNICATIONS.OBJ
D:\LIB\OPENCV_420\BUILDR001\MODULES\ADE.DIR\DEBUG\ALLOC.OBJ
D:\LIB\OPENCV_420\BUILDR001\MODULES\ADE.DIR\DEBUG\MEMORY_DESCRIPTOR.OBJ
D:\LIB\OPENCV_420\BUILDR001\MODULES\ADE.DIR\DEBUG\NODE.OBJ
D:\LIB\OPENCV_420\BUILDR001\MODULES\ADE.DIR\DEBUG\GRAPH.OBJ
D:\LIB\OPENCV_420\BUILDR001\MODULES\ADE.DIR\DEBUG\METADATA.OBJ
D:\LIB\OPENCV_420\BUILDR001\MODULES\ADE.DIR\DEBUG\SUBGRAPHS.OBJ
^D:\LIB\OPENCV_420\BUILDR001\3RDPARTY\ADE\ADE-0.1.1F\SOURCES\ADE\SOURCE\ALLOC.CPP
D:\LIB\OPENCV_420\BUILDR001\MODULES\ADE.DIR\DEBUG\ADE.PDB
^D:\LIB\OPENCV_420\BUILDR001\3RDPARTY\ADE\ADE-0.1.1F\SOURCES\ADE\SOURCE\ASSERT.CPP
D:\LIB\OPENCV_420\BUILDR001\MODULES\ADE.DIR\DEBUG\ADE.PDB
^D:\LIB\OPENCV_420\BUILDR001\3RDPARTY\ADE\ADE-0.1.1F\SOURCES\ADE\SOURCE\CHECK_CYCLES.CPP
D:\LIB\OPENCV_420\BUILDR001\MODULES\ADE.DIR\DEBUG\ADE.PDB
^D:\LIB\OPENCV_420\BUILDR001\3RDPARTY\ADE\ADE-0.1.1F\SOURCES\ADE\SOURCE\EDGE.CPP
D:\LIB\OPENCV_420\BUILDR001\MODULES\ADE.DIR\DEBUG\ADE.PDB
^D:\LIB\OPENCV_420\BUILDR001\3RDPARTY\ADE\ADE-0.1.1F\SOURCES\ADE\SOURCE\EXECUTION_ENGINE.CPP
D:\LIB\OPENCV_420\BUILDR001\MODULES\ADE.DIR\DEBUG\ADE.PDB
^D:\LIB\OPENCV_420\BUILDR001\3RDPARTY\ADE\ADE-0.1.1F\SOURCES\ADE\SOURCE\GRAPH.CPP
D:\LIB\OPENCV_420\BUILDR001\MODULES\ADE.DIR\DEBUG\ADE.PDB
^D:\LIB\OPENCV_420\BUILDR001\3RDPARTY\ADE\ADE-0.1.1F\SOURCES\ADE\SOURCE\MEMORY_ACCESSOR.CPP
D:\LIB\OPENCV_420\BUILDR001\MODULES\ADE.DIR\DEBUG\ADE.PDB
^D:\LIB\OPENCV_420\BUILDR001\3RDPARTY\ADE\ADE-0.1.1F\SOURCES\ADE\SOURCE\MEMORY_DESCRIPTOR.CPP
D:\LIB\OPENCV_420\BUILDR001\MODULES\ADE.DIR\DEBUG\ADE.PDB
^D:\LIB\OPENCV_420\BUILDR001\3RDPARTY\ADE\ADE-0.1.1F\SOURCES\ADE\SOURCE\MEMORY_DESCRIPTOR_REF.CPP
D:\LIB\OPENCV_420\BUILDR001\MODULES\ADE.DIR\DEBUG\ADE.PDB
^D:\LIB\OPENCV_420\BUILDR001\3RDPARTY\ADE\ADE-0.1.1F\SOURCES\ADE\SOURCE\MEMORY_DESCRIPTOR_VIEW.CPP
D:\LIB\OPENCV_420\BUILDR001\MODULES\ADE.DIR\DEBUG\ADE.PDB
^D:\LIB\OPENCV_420\BUILDR001\3RDPARTY\ADE\ADE-0.1.1F\SOURCES\ADE\SOURCE\METADATA.CPP
D:\LIB\OPENCV_420\BUILDR001\MODULES\ADE.DIR\DEBUG\ADE.PDB
^D:\LIB\OPENCV_420\BUILDR001\3RDPARTY\ADE\ADE-0.1.1F\SOURCES\ADE\SOURCE\METATYPES.CPP
D:\LIB\OPENCV_420\BUILDR001\MODULES\ADE.DIR\DEBUG\ADE.PDB
^D:\LIB\OPENCV_420\BUILDR001\3RDPARTY\ADE\ADE-0.1.1F\SOURCES\ADE\SOURCE\NODE.CPP
D:\LIB\OPENCV_420\BUILDR001\MODULES\ADE.DIR\DEBUG\ADE.PDB
^D:\LIB\OPENCV_420\BUILDR001\3RDPARTY\ADE\ADE-0.1.1F\SOURCES\ADE\SOURCE\PASSES\COMMUNICATIONS.CPP
D:\LIB\OPENCV_420\BUILDR001\MODULES\ADE.DIR\DEBUG\ADE.PDB
^D:\LIB\OPENCV_420\BUILDR001\3RDPARTY\ADE\ADE-0.1.1F\SOURCES\ADE\SOURCE\SEARCH.CPP
D:\LIB\OPENCV_420\BUILDR001\MODULES\ADE.DIR\DEBUG\ADE.PDB
^D:\LIB\OPENCV_420\BUILDR001\3RDPARTY\ADE\ADE-0.1.1F\SOURCES\ADE\SOURCE\SUBGRAPHS.CPP
D:\LIB\OPENCV_420\BUILDR001\MODULES\ADE.DIR\DEBUG\ADE.PDB
^D:\LIB\OPENCV_420\BUILDR001\3RDPARTY\ADE\ADE-0.1.1F\SOURCES\ADE\SOURCE\TOPOLOGICAL_SORT.CPP
D:\LIB\OPENCV_420\BUILDR001\MODULES\ADE.DIR\DEBUG\ADE.PDB
