^D:\LIB\OPENCV_420\OPENCV\SOURCES\MODULES\IMGPROC\SRC\CORNER.AVX.CPP
D:\LIB\OPENCV_420\OPENCV\SOURCES\MODULES\IMGPROC\SRC\PRECOMP.HPP
D:\LIB\OPENCV_420\OPENCV\SOURCES\MODULES\IMGPROC\INCLUDE\OPENCV2\IMGPROC.HPP
D:\LIB\OPENCV_420\OPENCV\SOURCES\MODULES\CORE\INCLUDE\OPENCV2\CORE.HPP
D:\LIB\OPENCV_420\OPENCV\SOURCES\MODULES\CORE\INCLUDE\OPENCV2\CORE\CVDEF.H
D:\LIB\OPENCV_420\BUILDR001\CVCONFIG.H
C:\PROGRAM FILES (X86)\MICROSOFT VISUAL STUDIO\2017\COMMUNITY\VC\TOOLS\MSVC\14.16.27023\INCLUDE\LIMITS.H
C:\PROGRAM FILES (X86)\MICROSOFT VISUAL STUDIO\2017\COMMUNITY\VC\TOOLS\MSVC\14.16.27023\INCLUDE\VCRUNTIME.H
C:\PROGRAM FILES (X86)\MICROSOFT VISUAL STUDIO\2017\COMMUNITY\VC\TOOLS\MSVC\14.16.27023\INCLUDE\SAL.H
C:\PROGRAM FILES (X86)\MICROSOFT VISUAL STUDIO\2017\COMMUNITY\VC\TOOLS\MSVC\14.16.27023\INCLUDE\CONCURRENCYSAL.H
C:\PROGRAM FILES (X86)\MICROSOFT VISUAL STUDIO\2017\COMMUNITY\VC\TOOLS\MSVC\14.16.27023\INCLUDE\VADEFS.H
D:\LIB\OPENCV_420\OPENCV\SOURCES\MODULES\CORE\INCLUDE\OPENCV2\CORE\HAL\INTERFACE.H
C:\PROGRAM FILES (X86)\MICROSOFT VISUAL STUDIO\2017\COMMUNITY\VC\TOOLS\MSVC\14.16.27023\INCLUDE\CSTDDEF
C:\PROGRAM FILES (X86)\WINDOWS KITS\10\INCLUDE\10.0.17763.0\UCRT\STDDEF.H
C:\PROGRAM FILES (X86)\WINDOWS KITS\10\INCLUDE\10.0.17763.0\UCRT\CORECRT.H
C:\PROGRAM FILES (X86)\MICROSOFT VISUAL STUDIO\2017\COMMUNITY\VC\TOOLS\MSVC\14.16.27023\INCLUDE\XTR1COMMON
C:\PROGRAM FILES (X86)\MICROSOFT VISUAL STUDIO\2017\COMMUNITY\VC\TOOLS\MSVC\14.16.27023\INCLUDE\YVALS_CORE.H
C:\PROGRAM FILES (X86)\MICROSOFT VISUAL STUDIO\2017\COMMUNITY\VC\TOOLS\MSVC\14.16.27023\INCLUDE\XKEYCHECK.H
C:\PROGRAM FILES (X86)\MICROSOFT VISUAL STUDIO\2017\COMMUNITY\VC\TOOLS\MSVC\14.16.27023\INCLUDE\CRTDEFS.H
D:\LIB\OPENCV_420\OPENCV\SOURCES\MODULES\CORE\INCLUDE\OPENCV2\CORE\CV_CPU_DISPATCH.H
D:\LIB\OPENCV_420\BUILDR001\CV_CPU_CONFIG.H
D:\LIB\OPENCV_420\OPENCV\SOURCES\MODULES\CORE\INCLUDE\OPENCV2\CORE\CV_CPU_HELPER.H
C:\PROGRAM FILES (X86)\MICROSOFT VISUAL STUDIO\2017\COMMUNITY\VC\TOOLS\MSVC\14.16.27023\INCLUDE\EMMINTRIN.H
C:\PROGRAM FILES (X86)\MICROSOFT VISUAL STUDIO\2017\COMMUNITY\VC\TOOLS\MSVC\14.16.27023\INCLUDE\XMMINTRIN.H
C:\PROGRAM FILES (X86)\MICROSOFT VISUAL STUDIO\2017\COMMUNITY\VC\TOOLS\MSVC\14.16.27023\INCLUDE\MMINTRIN.H
C:\PROGRAM FILES (X86)\WINDOWS KITS\10\INCLUDE\10.0.17763.0\UCRT\MALLOC.H
C:\PROGRAM FILES (X86)\WINDOWS KITS\10\INCLUDE\10.0.17763.0\UCRT\CORECRT_MALLOC.H
C:\PROGRAM FILES (X86)\MICROSOFT VISUAL STUDIO\2017\COMMUNITY\VC\TOOLS\MSVC\14.16.27023\INCLUDE\PMMINTRIN.H
C:\PROGRAM FILES (X86)\MICROSOFT VISUAL STUDIO\2017\COMMUNITY\VC\TOOLS\MSVC\14.16.27023\INCLUDE\TMMINTRIN.H
C:\PROGRAM FILES (X86)\MICROSOFT VISUAL STUDIO\2017\COMMUNITY\VC\TOOLS\MSVC\14.16.27023\INCLUDE\SMMINTRIN.H
C:\PROGRAM FILES (X86)\MICROSOFT VISUAL STUDIO\2017\COMMUNITY\VC\TOOLS\MSVC\14.16.27023\INCLUDE\NMMINTRIN.H
C:\PROGRAM FILES (X86)\MICROSOFT VISUAL STUDIO\2017\COMMUNITY\VC\TOOLS\MSVC\14.16.27023\INCLUDE\IMMINTRIN.H
C:\PROGRAM FILES (X86)\MICROSOFT VISUAL STUDIO\2017\COMMUNITY\VC\TOOLS\MSVC\14.16.27023\INCLUDE\WMMINTRIN.H
C:\PROGRAM FILES (X86)\MICROSOFT VISUAL STUDIO\2017\COMMUNITY\VC\TOOLS\MSVC\14.16.27023\INCLUDE\ZMMINTRIN.H
C:\PROGRAM FILES (X86)\MICROSOFT VISUAL STUDIO\2017\COMMUNITY\VC\TOOLS\MSVC\14.16.27023\INCLUDE\INTRIN.H
C:\PROGRAM FILES (X86)\MICROSOFT VISUAL STUDIO\2017\COMMUNITY\VC\TOOLS\MSVC\14.16.27023\INCLUDE\INTRIN0.H
C:\PROGRAM FILES (X86)\MICROSOFT VISUAL STUDIO\2017\COMMUNITY\VC\TOOLS\MSVC\14.16.27023\INCLUDE\SETJMP.H
C:\PROGRAM FILES (X86)\MICROSOFT VISUAL STUDIO\2017\COMMUNITY\VC\TOOLS\MSVC\14.16.27023\INCLUDE\AMMINTRIN.H
C:\PROGRAM FILES (X86)\MICROSOFT VISUAL STUDIO\2017\COMMUNITY\VC\TOOLS\MSVC\14.16.27023\INCLUDE\ARRAY
C:\PROGRAM FILES (X86)\MICROSOFT VISUAL STUDIO\2017\COMMUNITY\VC\TOOLS\MSVC\14.16.27023\INCLUDE\ALGORITHM
C:\PROGRAM FILES (X86)\MICROSOFT VISUAL STUDIO\2017\COMMUNITY\VC\TOOLS\MSVC\14.16.27023\INCLUDE\XMEMORY
C:\PROGRAM FILES (X86)\MICROSOFT VISUAL STUDIO\2017\COMMUNITY\VC\TOOLS\MSVC\14.16.27023\INCLUDE\XMEMORY0
C:\PROGRAM FILES (X86)\MICROSOFT VISUAL STUDIO\2017\COMMUNITY\VC\TOOLS\MSVC\14.16.27023\INCLUDE\CSTDINT
C:\PROGRAM FILES (X86)\MICROSOFT VISUAL STUDIO\2017\COMMUNITY\VC\TOOLS\MSVC\14.16.27023\INCLUDE\YVALS.H
C:\PROGRAM FILES (X86)\WINDOWS KITS\10\INCLUDE\10.0.17763.0\UCRT\CRTDBG.H
C:\PROGRAM FILES (X86)\MICROSOFT VISUAL STUDIO\2017\COMMUNITY\VC\TOOLS\MSVC\14.16.27023\INCLUDE\VCRUNTIME_NEW_DEBUG.H
C:\PROGRAM FILES (X86)\MICROSOFT VISUAL STUDIO\2017\COMMUNITY\VC\TOOLS\MSVC\14.16.27023\INCLUDE\VCRUNTIME_NEW.H
C:\PROGRAM FILES (X86)\MICROSOFT VISUAL STUDIO\2017\COMMUNITY\VC\TOOLS\MSVC\14.16.27023\INCLUDE\USE_ANSI.H
C:\PROGRAM FILES (X86)\MICROSOFT VISUAL STUDIO\2017\COMMUNITY\VC\TOOLS\MSVC\14.16.27023\INCLUDE\STDINT.H
C:\PROGRAM FILES (X86)\MICROSOFT VISUAL STUDIO\2017\COMMUNITY\VC\TOOLS\MSVC\14.16.27023\INCLUDE\CSTDLIB
C:\PROGRAM FILES (X86)\WINDOWS KITS\10\INCLUDE\10.0.17763.0\UCRT\STDLIB.H
C:\PROGRAM FILES (X86)\WINDOWS KITS\10\INCLUDE\10.0.17763.0\UCRT\CORECRT_SEARCH.H
C:\PROGRAM FILES (X86)\WINDOWS KITS\10\INCLUDE\10.0.17763.0\UCRT\CORECRT_WSTDLIB.H
C:\PROGRAM FILES (X86)\WINDOWS KITS\10\INCLUDE\10.0.17763.0\UCRT\MATH.H
C:\PROGRAM FILES (X86)\WINDOWS KITS\10\INCLUDE\10.0.17763.0\UCRT\CORECRT_MATH.H
C:\PROGRAM FILES (X86)\WINDOWS KITS\10\INCLUDE\10.0.17763.0\UCRT\CORECRT_MATH_DEFINES.H
C:\PROGRAM FILES (X86)\MICROSOFT VISUAL STUDIO\2017\COMMUNITY\VC\TOOLS\MSVC\14.16.27023\INCLUDE\LIMITS
C:\PROGRAM FILES (X86)\MICROSOFT VISUAL STUDIO\2017\COMMUNITY\VC\TOOLS\MSVC\14.16.27023\INCLUDE\YMATH.H
C:\PROGRAM FILES (X86)\MICROSOFT VISUAL STUDIO\2017\COMMUNITY\VC\TOOLS\MSVC\14.16.27023\INCLUDE\CFLOAT
C:\PROGRAM FILES (X86)\WINDOWS KITS\10\INCLUDE\10.0.17763.0\UCRT\FLOAT.H
C:\PROGRAM FILES (X86)\MICROSOFT VISUAL STUDIO\2017\COMMUNITY\VC\TOOLS\MSVC\14.16.27023\INCLUDE\CLIMITS
C:\PROGRAM FILES (X86)\MICROSOFT VISUAL STUDIO\2017\COMMUNITY\VC\TOOLS\MSVC\14.16.27023\INCLUDE\CMATH
C:\PROGRAM FILES (X86)\MICROSOFT VISUAL STUDIO\2017\COMMUNITY\VC\TOOLS\MSVC\14.16.27023\INCLUDE\XTGMATH.H
C:\PROGRAM FILES (X86)\MICROSOFT VISUAL STUDIO\2017\COMMUNITY\VC\TOOLS\MSVC\14.16.27023\INCLUDE\CWCHAR
C:\PROGRAM FILES (X86)\WINDOWS KITS\10\INCLUDE\10.0.17763.0\UCRT\WCHAR.H
C:\PROGRAM FILES (X86)\WINDOWS KITS\10\INCLUDE\10.0.17763.0\UCRT\CORECRT_MEMCPY_S.H
C:\PROGRAM FILES (X86)\WINDOWS KITS\10\INCLUDE\10.0.17763.0\UCRT\ERRNO.H
C:\PROGRAM FILES (X86)\MICROSOFT VISUAL STUDIO\2017\COMMUNITY\VC\TOOLS\MSVC\14.16.27023\INCLUDE\VCRUNTIME_STRING.H
C:\PROGRAM FILES (X86)\WINDOWS KITS\10\INCLUDE\10.0.17763.0\UCRT\CORECRT_WCONIO.H
C:\PROGRAM FILES (X86)\WINDOWS KITS\10\INCLUDE\10.0.17763.0\UCRT\CORECRT_STDIO_CONFIG.H
C:\PROGRAM FILES (X86)\WINDOWS KITS\10\INCLUDE\10.0.17763.0\UCRT\CORECRT_WCTYPE.H
C:\PROGRAM FILES (X86)\WINDOWS KITS\10\INCLUDE\10.0.17763.0\UCRT\CORECRT_WDIRECT.H
C:\PROGRAM FILES (X86)\WINDOWS KITS\10\INCLUDE\10.0.17763.0\UCRT\CORECRT_WIO.H
C:\PROGRAM FILES (X86)\WINDOWS KITS\10\INCLUDE\10.0.17763.0\UCRT\CORECRT_SHARE.H
C:\PROGRAM FILES (X86)\WINDOWS KITS\10\INCLUDE\10.0.17763.0\UCRT\CORECRT_WPROCESS.H
C:\PROGRAM FILES (X86)\WINDOWS KITS\10\INCLUDE\10.0.17763.0\UCRT\CORECRT_WSTDIO.H
C:\PROGRAM FILES (X86)\WINDOWS KITS\10\INCLUDE\10.0.17763.0\UCRT\CORECRT_WSTRING.H
C:\PROGRAM FILES (X86)\WINDOWS KITS\10\INCLUDE\10.0.17763.0\UCRT\CORECRT_WTIME.H
C:\PROGRAM FILES (X86)\WINDOWS KITS\10\INCLUDE\10.0.17763.0\UCRT\SYS\STAT.H
C:\PROGRAM FILES (X86)\WINDOWS KITS\10\INCLUDE\10.0.17763.0\UCRT\SYS\TYPES.H
C:\PROGRAM FILES (X86)\MICROSOFT VISUAL STUDIO\2017\COMMUNITY\VC\TOOLS\MSVC\14.16.27023\INCLUDE\XSTDDEF
C:\PROGRAM FILES (X86)\MICROSOFT VISUAL STUDIO\2017\COMMUNITY\VC\TOOLS\MSVC\14.16.27023\INCLUDE\INITIALIZER_LIST
C:\PROGRAM FILES (X86)\MICROSOFT VISUAL STUDIO\2017\COMMUNITY\VC\TOOLS\MSVC\14.16.27023\INCLUDE\NEW
C:\PROGRAM FILES (X86)\MICROSOFT VISUAL STUDIO\2017\COMMUNITY\VC\TOOLS\MSVC\14.16.27023\INCLUDE\EXCEPTION
C:\PROGRAM FILES (X86)\MICROSOFT VISUAL STUDIO\2017\COMMUNITY\VC\TOOLS\MSVC\14.16.27023\INCLUDE\TYPE_TRAITS
C:\PROGRAM FILES (X86)\MICROSOFT VISUAL STUDIO\2017\COMMUNITY\VC\TOOLS\MSVC\14.16.27023\INCLUDE\VCRUNTIME_EXCEPTION.H
C:\PROGRAM FILES (X86)\MICROSOFT VISUAL STUDIO\2017\COMMUNITY\VC\TOOLS\MSVC\14.16.27023\INCLUDE\EH.H
C:\PROGRAM FILES (X86)\WINDOWS KITS\10\INCLUDE\10.0.17763.0\UCRT\CORECRT_TERMINATE.H
C:\PROGRAM FILES (X86)\MICROSOFT VISUAL STUDIO\2017\COMMUNITY\VC\TOOLS\MSVC\14.16.27023\INCLUDE\XUTILITY
C:\PROGRAM FILES (X86)\MICROSOFT VISUAL STUDIO\2017\COMMUNITY\VC\TOOLS\MSVC\14.16.27023\INCLUDE\UTILITY
C:\PROGRAM FILES (X86)\MICROSOFT VISUAL STUDIO\2017\COMMUNITY\VC\TOOLS\MSVC\14.16.27023\INCLUDE\IOSFWD
C:\PROGRAM FILES (X86)\MICROSOFT VISUAL STUDIO\2017\COMMUNITY\VC\TOOLS\MSVC\14.16.27023\INCLUDE\CSTDIO
C:\PROGRAM FILES (X86)\WINDOWS KITS\10\INCLUDE\10.0.17763.0\UCRT\STDIO.H
C:\PROGRAM FILES (X86)\MICROSOFT VISUAL STUDIO\2017\COMMUNITY\VC\TOOLS\MSVC\14.16.27023\INCLUDE\CSTRING
C:\PROGRAM FILES (X86)\WINDOWS KITS\10\INCLUDE\10.0.17763.0\UCRT\STRING.H
C:\PROGRAM FILES (X86)\WINDOWS KITS\10\INCLUDE\10.0.17763.0\UCRT\CORECRT_MEMORY.H
C:\PROGRAM FILES (X86)\MICROSOFT VISUAL STUDIO\2017\COMMUNITY\VC\TOOLS\MSVC\14.16.27023\INCLUDE\XATOMIC0.H
C:\PROGRAM FILES (X86)\MICROSOFT VISUAL STUDIO\2017\COMMUNITY\VC\TOOLS\MSVC\14.16.27023\INCLUDE\ITERATOR
C:\PROGRAM FILES (X86)\MICROSOFT VISUAL STUDIO\2017\COMMUNITY\VC\TOOLS\MSVC\14.16.27023\INCLUDE\ISTREAM
C:\PROGRAM FILES (X86)\MICROSOFT VISUAL STUDIO\2017\COMMUNITY\VC\TOOLS\MSVC\14.16.27023\INCLUDE\OSTREAM
C:\PROGRAM FILES (X86)\MICROSOFT VISUAL STUDIO\2017\COMMUNITY\VC\TOOLS\MSVC\14.16.27023\INCLUDE\IOS
C:\PROGRAM FILES (X86)\MICROSOFT VISUAL STUDIO\2017\COMMUNITY\VC\TOOLS\MSVC\14.16.27023\INCLUDE\XLOCNUM
C:\PROGRAM FILES (X86)\MICROSOFT VISUAL STUDIO\2017\COMMUNITY\VC\TOOLS\MSVC\14.16.27023\INCLUDE\STREAMBUF
C:\PROGRAM FILES (X86)\MICROSOFT VISUAL STUDIO\2017\COMMUNITY\VC\TOOLS\MSVC\14.16.27023\INCLUDE\XIOSBASE
C:\PROGRAM FILES (X86)\MICROSOFT VISUAL STUDIO\2017\COMMUNITY\VC\TOOLS\MSVC\14.16.27023\INCLUDE\XLOCALE
C:\PROGRAM FILES (X86)\MICROSOFT VISUAL STUDIO\2017\COMMUNITY\VC\TOOLS\MSVC\14.16.27023\INCLUDE\STDEXCEPT
C:\PROGRAM FILES (X86)\MICROSOFT VISUAL STUDIO\2017\COMMUNITY\VC\TOOLS\MSVC\14.16.27023\INCLUDE\XSTRING
C:\PROGRAM FILES (X86)\MICROSOFT VISUAL STUDIO\2017\COMMUNITY\VC\TOOLS\MSVC\14.16.27023\INCLUDE\TYPEINFO
C:\PROGRAM FILES (X86)\MICROSOFT VISUAL STUDIO\2017\COMMUNITY\VC\TOOLS\MSVC\14.16.27023\INCLUDE\VCRUNTIME_TYPEINFO.H
C:\PROGRAM FILES (X86)\MICROSOFT VISUAL STUDIO\2017\COMMUNITY\VC\TOOLS\MSVC\14.16.27023\INCLUDE\XLOCINFO
C:\PROGRAM FILES (X86)\MICROSOFT VISUAL STUDIO\2017\COMMUNITY\VC\TOOLS\MSVC\14.16.27023\INCLUDE\XLOCINFO.H
C:\PROGRAM FILES (X86)\WINDOWS KITS\10\INCLUDE\10.0.17763.0\UCRT\CTYPE.H
C:\PROGRAM FILES (X86)\WINDOWS KITS\10\INCLUDE\10.0.17763.0\UCRT\LOCALE.H
C:\PROGRAM FILES (X86)\MICROSOFT VISUAL STUDIO\2017\COMMUNITY\VC\TOOLS\MSVC\14.16.27023\INCLUDE\MEMORY
C:\PROGRAM FILES (X86)\MICROSOFT VISUAL STUDIO\2017\COMMUNITY\VC\TOOLS\MSVC\14.16.27023\INCLUDE\XFACET
C:\PROGRAM FILES (X86)\MICROSOFT VISUAL STUDIO\2017\COMMUNITY\VC\TOOLS\MSVC\14.16.27023\INCLUDE\SYSTEM_ERROR
C:\PROGRAM FILES (X86)\MICROSOFT VISUAL STUDIO\2017\COMMUNITY\VC\TOOLS\MSVC\14.16.27023\INCLUDE\CERRNO
C:\PROGRAM FILES (X86)\MICROSOFT VISUAL STUDIO\2017\COMMUNITY\VC\TOOLS\MSVC\14.16.27023\INCLUDE\XCALL_ONCE.H
C:\PROGRAM FILES (X86)\MICROSOFT VISUAL STUDIO\2017\COMMUNITY\VC\TOOLS\MSVC\14.16.27023\INCLUDE\XERRC.H
C:\PROGRAM FILES (X86)\WINDOWS KITS\10\INCLUDE\10.0.17763.0\UCRT\SHARE.H
C:\PROGRAM FILES (X86)\MICROSOFT VISUAL STUDIO\2017\COMMUNITY\VC\TOOLS\MSVC\14.16.27023\INCLUDE\TUPLE
D:\LIB\OPENCV_420\OPENCV\SOURCES\MODULES\CORE\INCLUDE\OPENCV2\CORE\VERSION.HPP
D:\LIB\OPENCV_420\OPENCV\SOURCES\MODULES\CORE\INCLUDE\OPENCV2\CORE\BASE.HPP
D:\LIB\OPENCV_420\BUILDR001\OPENCV2\OPENCV_MODULES.HPP
D:\LIB\OPENCV_420\OPENCV\SOURCES\MODULES\CORE\INCLUDE\OPENCV2\CORE\CVSTD.HPP
C:\PROGRAM FILES (X86)\MICROSOFT VISUAL STUDIO\2017\COMMUNITY\VC\TOOLS\MSVC\14.16.27023\INCLUDE\CCTYPE
C:\PROGRAM FILES (X86)\MICROSOFT VISUAL STUDIO\2017\COMMUNITY\VC\TOOLS\MSVC\14.16.27023\INCLUDE\STRING
C:\PROGRAM FILES (X86)\MICROSOFT VISUAL STUDIO\2017\COMMUNITY\VC\TOOLS\MSVC\14.16.27023\INCLUDE\XSTRING_INSERT.H
D:\LIB\OPENCV_420\OPENCV\SOURCES\MODULES\CORE\INCLUDE\OPENCV2\CORE\CVSTD_WRAPPER.HPP
D:\LIB\OPENCV_420\OPENCV\SOURCES\MODULES\CORE\INCLUDE\OPENCV2\CORE\NEON_UTILS.HPP
D:\LIB\OPENCV_420\OPENCV\SOURCES\MODULES\CORE\INCLUDE\OPENCV2\CORE\VSX_UTILS.HPP
C:\PROGRAM FILES (X86)\WINDOWS KITS\10\INCLUDE\10.0.17763.0\UCRT\ASSERT.H
D:\LIB\OPENCV_420\OPENCV\SOURCES\MODULES\CORE\INCLUDE\OPENCV2\CORE\CHECK.HPP
D:\LIB\OPENCV_420\OPENCV\SOURCES\MODULES\CORE\INCLUDE\OPENCV2\CORE\TRAITS.HPP
D:\LIB\OPENCV_420\OPENCV\SOURCES\MODULES\CORE\INCLUDE\OPENCV2\CORE\MATX.HPP
D:\LIB\OPENCV_420\OPENCV\SOURCES\MODULES\CORE\INCLUDE\OPENCV2\CORE\SATURATE.HPP
D:\LIB\OPENCV_420\OPENCV\SOURCES\MODULES\CORE\INCLUDE\OPENCV2\CORE\FAST_MATH.HPP
D:\LIB\OPENCV_420\OPENCV\SOURCES\MODULES\CORE\INCLUDE\OPENCV2\CORE\TYPES.HPP
C:\PROGRAM FILES (X86)\MICROSOFT VISUAL STUDIO\2017\COMMUNITY\VC\TOOLS\MSVC\14.16.27023\INCLUDE\VECTOR
D:\LIB\OPENCV_420\OPENCV\SOURCES\MODULES\CORE\INCLUDE\OPENCV2\CORE\MAT.HPP
D:\LIB\OPENCV_420\OPENCV\SOURCES\MODULES\CORE\INCLUDE\OPENCV2\CORE\BUFFERPOOL.HPP
D:\LIB\OPENCV_420\OPENCV\SOURCES\MODULES\CORE\INCLUDE\OPENCV2\CORE\MAT.INL.HPP
D:\LIB\OPENCV_420\OPENCV\SOURCES\MODULES\CORE\INCLUDE\OPENCV2\CORE\PERSISTENCE.HPP
D:\LIB\OPENCV_420\OPENCV\SOURCES\MODULES\CORE\INCLUDE\OPENCV2\CORE\OPERATIONS.HPP
D:\LIB\OPENCV_420\OPENCV\SOURCES\MODULES\CORE\INCLUDE\OPENCV2\CORE\CVSTD.INL.HPP
C:\PROGRAM FILES (X86)\MICROSOFT VISUAL STUDIO\2017\COMMUNITY\VC\TOOLS\MSVC\14.16.27023\INCLUDE\COMPLEX
C:\PROGRAM FILES (X86)\MICROSOFT VISUAL STUDIO\2017\COMMUNITY\VC\TOOLS\MSVC\14.16.27023\INCLUDE\SSTREAM
D:\LIB\OPENCV_420\OPENCV\SOURCES\MODULES\CORE\INCLUDE\OPENCV2\CORE\UTILITY.HPP
C:\PROGRAM FILES (X86)\MICROSOFT VISUAL STUDIO\2017\COMMUNITY\VC\TOOLS\MSVC\14.16.27023\INCLUDE\FUNCTIONAL
C:\PROGRAM FILES (X86)\MICROSOFT VISUAL STUDIO\2017\COMMUNITY\VC\TOOLS\MSVC\14.16.27023\INCLUDE\MUTEX
C:\PROGRAM FILES (X86)\MICROSOFT VISUAL STUDIO\2017\COMMUNITY\VC\TOOLS\MSVC\14.16.27023\INCLUDE\CHRONO
C:\PROGRAM FILES (X86)\MICROSOFT VISUAL STUDIO\2017\COMMUNITY\VC\TOOLS\MSVC\14.16.27023\INCLUDE\RATIO
C:\PROGRAM FILES (X86)\WINDOWS KITS\10\INCLUDE\10.0.17763.0\UCRT\TIME.H
C:\PROGRAM FILES (X86)\MICROSOFT VISUAL STUDIO\2017\COMMUNITY\VC\TOOLS\MSVC\14.16.27023\INCLUDE\THR\XTIMEC.H
C:\PROGRAM FILES (X86)\MICROSOFT VISUAL STUDIO\2017\COMMUNITY\VC\TOOLS\MSVC\14.16.27023\INCLUDE\THR\XTHRCOMMON.H
C:\PROGRAM FILES (X86)\MICROSOFT VISUAL STUDIO\2017\COMMUNITY\VC\TOOLS\MSVC\14.16.27023\INCLUDE\THREAD
C:\PROGRAM FILES (X86)\MICROSOFT VISUAL STUDIO\2017\COMMUNITY\VC\TOOLS\MSVC\14.16.27023\INCLUDE\THR\XTHREAD
C:\PROGRAM FILES (X86)\MICROSOFT VISUAL STUDIO\2017\COMMUNITY\VC\TOOLS\MSVC\14.16.27023\INCLUDE\THR\XTIME
C:\PROGRAM FILES (X86)\MICROSOFT VISUAL STUDIO\2017\COMMUNITY\VC\TOOLS\MSVC\14.16.27023\INCLUDE\THR\XTHREADS.H
D:\LIB\OPENCV_420\OPENCV\SOURCES\MODULES\CORE\INCLUDE\OPENCV2\CORE\OPTIM.HPP
D:\LIB\OPENCV_420\OPENCV\SOURCES\MODULES\CORE\INCLUDE\OPENCV2\CORE\OVX.HPP
D:\LIB\OPENCV_420\OPENCV\SOURCES\MODULES\IMGPROC\INCLUDE\OPENCV2\IMGPROC\IMGPROC_C.H
D:\LIB\OPENCV_420\OPENCV\SOURCES\MODULES\IMGPROC\INCLUDE\OPENCV2\IMGPROC\TYPES_C.H
D:\LIB\OPENCV_420\OPENCV\SOURCES\MODULES\CORE\INCLUDE\OPENCV2\CORE\CORE_C.H
D:\LIB\OPENCV_420\OPENCV\SOURCES\MODULES\CORE\INCLUDE\OPENCV2\CORE\TYPES_C.H
D:\LIB\OPENCV_420\OPENCV\SOURCES\MODULES\CORE\INCLUDE\OPENCV2\CORE\PRIVATE.HPP
D:\LIB\OPENCV_420\OPENCV\SOURCES\MODULES\CORE\INCLUDE\OPENCV2\CORE\UTILS\TRACE.HPP
D:\LIB\EIGEN_LIB\EIGEN\EIGEN\CORE
D:\LIB\EIGEN_LIB\EIGEN\EIGEN\SRC\CORE\UTIL\DISABLESTUPIDWARNINGS.H
D:\LIB\EIGEN_LIB\EIGEN\EIGEN\SRC\CORE\UTIL\MACROS.H
D:\LIB\EIGEN_LIB\EIGEN\EIGEN\SRC\CORE\UTIL\MKL_SUPPORT.H
C:\PROGRAM FILES (X86)\MICROSOFT VISUAL STUDIO\2017\COMMUNITY\VC\TOOLS\MSVC\14.16.27023\INCLUDE\CASSERT
D:\LIB\EIGEN_LIB\EIGEN\EIGEN\SRC\CORE\UTIL\CONSTANTS.H
D:\LIB\EIGEN_LIB\EIGEN\EIGEN\SRC\CORE\UTIL\META.H
D:\LIB\EIGEN_LIB\EIGEN\EIGEN\SRC\CORE\UTIL\FORWARDDECLARATIONS.H
D:\LIB\EIGEN_LIB\EIGEN\EIGEN\SRC\CORE\UTIL\STATICASSERT.H
D:\LIB\EIGEN_LIB\EIGEN\EIGEN\SRC\CORE\UTIL\XPRHELPER.H
D:\LIB\EIGEN_LIB\EIGEN\EIGEN\SRC\CORE\UTIL\MEMORY.H
D:\LIB\EIGEN_LIB\EIGEN\EIGEN\SRC\CORE\NUMTRAITS.H
D:\LIB\EIGEN_LIB\EIGEN\EIGEN\SRC\CORE\MATHFUNCTIONS.H
D:\LIB\EIGEN_LIB\EIGEN\EIGEN\SRC\CORE\GENERICPACKETMATH.H
D:\LIB\EIGEN_LIB\EIGEN\EIGEN\SRC\CORE\MATHFUNCTIONSIMPL.H
D:\LIB\EIGEN_LIB\EIGEN\EIGEN\SRC\CORE\ARCH\SSE\PACKETMATH.H
D:\LIB\EIGEN_LIB\EIGEN\EIGEN\SRC\CORE\ARCH\SSE\COMPLEX.H
D:\LIB\EIGEN_LIB\EIGEN\EIGEN\SRC\CORE\ARCH\SSE\MATHFUNCTIONS.H
D:\LIB\EIGEN_LIB\EIGEN\EIGEN\SRC\CORE\ARCH\AVX\PACKETMATH.H
D:\LIB\EIGEN_LIB\EIGEN\EIGEN\SRC\CORE\ARCH\AVX\MATHFUNCTIONS.H
D:\LIB\EIGEN_LIB\EIGEN\EIGEN\SRC\CORE\ARCH\AVX\COMPLEX.H
D:\LIB\EIGEN_LIB\EIGEN\EIGEN\SRC\CORE\ARCH\AVX\TYPECASTING.H
D:\LIB\EIGEN_LIB\EIGEN\EIGEN\SRC\CORE\ARCH\CUDA\HALF.H
D:\LIB\EIGEN_LIB\EIGEN\EIGEN\SRC\CORE\ARCH\CUDA\PACKETMATHHALF.H
D:\LIB\EIGEN_LIB\EIGEN\EIGEN\SRC\CORE\ARCH\CUDA\TYPECASTING.H
D:\LIB\EIGEN_LIB\EIGEN\EIGEN\SRC\CORE\ARCH\DEFAULT\SETTINGS.H
D:\LIB\EIGEN_LIB\EIGEN\EIGEN\SRC\CORE\FUNCTORS\TERNARYFUNCTORS.H
D:\LIB\EIGEN_LIB\EIGEN\EIGEN\SRC\CORE\FUNCTORS\BINARYFUNCTORS.H
D:\LIB\EIGEN_LIB\EIGEN\EIGEN\SRC\CORE\FUNCTORS\UNARYFUNCTORS.H
D:\LIB\EIGEN_LIB\EIGEN\EIGEN\SRC\CORE\FUNCTORS\NULLARYFUNCTORS.H
D:\LIB\EIGEN_LIB\EIGEN\EIGEN\SRC\CORE\FUNCTORS\STLFUNCTORS.H
D:\LIB\EIGEN_LIB\EIGEN\EIGEN\SRC\CORE\FUNCTORS\ASSIGNMENTFUNCTORS.H
D:\LIB\EIGEN_LIB\EIGEN\EIGEN\SRC\CORE\ARCH\CUDA\COMPLEX.H
D:\LIB\EIGEN_LIB\EIGEN\EIGEN\SRC\CORE\IO.H
D:\LIB\EIGEN_LIB\EIGEN\EIGEN\SRC\CORE\DENSECOEFFSBASE.H
D:\LIB\EIGEN_LIB\EIGEN\EIGEN\SRC\CORE\DENSEBASE.H
D:\LIB\EIGEN_LIB\EIGEN\EIGEN\SRC\PLUGINS\BLOCKMETHODS.H
D:\LIB\EIGEN_LIB\EIGEN\EIGEN\SRC\CORE\MATRIXBASE.H
D:\LIB\EIGEN_LIB\EIGEN\EIGEN\SRC\PLUGINS\COMMONCWISEUNARYOPS.H
D:\LIB\EIGEN_LIB\EIGEN\EIGEN\SRC\PLUGINS\COMMONCWISEBINARYOPS.H
D:\LIB\EIGEN_LIB\EIGEN\EIGEN\SRC\PLUGINS\MATRIXCWISEUNARYOPS.H
D:\LIB\EIGEN_LIB\EIGEN\EIGEN\SRC\PLUGINS\MATRIXCWISEBINARYOPS.H
D:\LIB\EIGEN_LIB\EIGEN\EIGEN\SRC\CORE\EIGENBASE.H
D:\LIB\EIGEN_LIB\EIGEN\EIGEN\SRC\CORE\PRODUCT.H
D:\LIB\EIGEN_LIB\EIGEN\EIGEN\SRC\CORE\COREEVALUATORS.H
D:\LIB\EIGEN_LIB\EIGEN\EIGEN\SRC\CORE\ASSIGNEVALUATOR.H
D:\LIB\EIGEN_LIB\EIGEN\EIGEN\SRC\CORE\ASSIGN.H
D:\LIB\EIGEN_LIB\EIGEN\EIGEN\SRC\CORE\ARRAYBASE.H
D:\LIB\EIGEN_LIB\EIGEN\EIGEN\SRC\PLUGINS\ARRAYCWISEUNARYOPS.H
D:\LIB\EIGEN_LIB\EIGEN\EIGEN\SRC\PLUGINS\ARRAYCWISEBINARYOPS.H
D:\LIB\EIGEN_LIB\EIGEN\EIGEN\SRC\CORE\UTIL\BLASUTIL.H
D:\LIB\EIGEN_LIB\EIGEN\EIGEN\SRC\CORE\DENSESTORAGE.H
D:\LIB\EIGEN_LIB\EIGEN\EIGEN\SRC\CORE\NESTBYVALUE.H
D:\LIB\EIGEN_LIB\EIGEN\EIGEN\SRC\CORE\RETURNBYVALUE.H
D:\LIB\EIGEN_LIB\EIGEN\EIGEN\SRC\CORE\NOALIAS.H
D:\LIB\EIGEN_LIB\EIGEN\EIGEN\SRC\CORE\PLAINOBJECTBASE.H
D:\LIB\EIGEN_LIB\EIGEN\EIGEN\SRC\CORE\MATRIX.H
D:\LIB\EIGEN_LIB\EIGEN\EIGEN\SRC\CORE\ARRAY.H
D:\LIB\EIGEN_LIB\EIGEN\EIGEN\SRC\CORE\CWISETERNARYOP.H
D:\LIB\EIGEN_LIB\EIGEN\EIGEN\SRC\CORE\CWISEBINARYOP.H
D:\LIB\EIGEN_LIB\EIGEN\EIGEN\SRC\CORE\CWISEUNARYOP.H
D:\LIB\EIGEN_LIB\EIGEN\EIGEN\SRC\CORE\CWISENULLARYOP.H
D:\LIB\EIGEN_LIB\EIGEN\EIGEN\SRC\CORE\CWISEUNARYVIEW.H
D:\LIB\EIGEN_LIB\EIGEN\EIGEN\SRC\CORE\SELFCWISEBINARYOP.H
D:\LIB\EIGEN_LIB\EIGEN\EIGEN\SRC\CORE\DOT.H
D:\LIB\EIGEN_LIB\EIGEN\EIGEN\SRC\CORE\STABLENORM.H
D:\LIB\EIGEN_LIB\EIGEN\EIGEN\SRC\CORE\STRIDE.H
D:\LIB\EIGEN_LIB\EIGEN\EIGEN\SRC\CORE\MAPBASE.H
D:\LIB\EIGEN_LIB\EIGEN\EIGEN\SRC\CORE\MAP.H
D:\LIB\EIGEN_LIB\EIGEN\EIGEN\SRC\CORE\REF.H
D:\LIB\EIGEN_LIB\EIGEN\EIGEN\SRC\CORE\BLOCK.H
D:\LIB\EIGEN_LIB\EIGEN\EIGEN\SRC\CORE\VECTORBLOCK.H
D:\LIB\EIGEN_LIB\EIGEN\EIGEN\SRC\CORE\TRANSPOSE.H
D:\LIB\EIGEN_LIB\EIGEN\EIGEN\SRC\CORE\DIAGONALMATRIX.H
D:\LIB\EIGEN_LIB\EIGEN\EIGEN\SRC\CORE\DIAGONAL.H
D:\LIB\EIGEN_LIB\EIGEN\EIGEN\SRC\CORE\DIAGONALPRODUCT.H
D:\LIB\EIGEN_LIB\EIGEN\EIGEN\SRC\CORE\REDUX.H
D:\LIB\EIGEN_LIB\EIGEN\EIGEN\SRC\CORE\VISITOR.H
D:\LIB\EIGEN_LIB\EIGEN\EIGEN\SRC\CORE\FUZZY.H
D:\LIB\EIGEN_LIB\EIGEN\EIGEN\SRC\CORE\SWAP.H
D:\LIB\EIGEN_LIB\EIGEN\EIGEN\SRC\CORE\COMMAINITIALIZER.H
D:\LIB\EIGEN_LIB\EIGEN\EIGEN\SRC\CORE\GENERALPRODUCT.H
D:\LIB\EIGEN_LIB\EIGEN\EIGEN\SRC\CORE\SOLVE.H
D:\LIB\EIGEN_LIB\EIGEN\EIGEN\SRC\CORE\INVERSE.H
D:\LIB\EIGEN_LIB\EIGEN\EIGEN\SRC\CORE\SOLVERBASE.H
D:\LIB\EIGEN_LIB\EIGEN\EIGEN\SRC\CORE\PERMUTATIONMATRIX.H
D:\LIB\EIGEN_LIB\EIGEN\EIGEN\SRC\CORE\TRANSPOSITIONS.H
D:\LIB\EIGEN_LIB\EIGEN\EIGEN\SRC\CORE\TRIANGULARMATRIX.H
D:\LIB\EIGEN_LIB\EIGEN\EIGEN\SRC\CORE\SELFADJOINTVIEW.H
D:\LIB\EIGEN_LIB\EIGEN\EIGEN\SRC\CORE\PRODUCTS\GENERALBLOCKPANELKERNEL.H
D:\LIB\EIGEN_LIB\EIGEN\EIGEN\SRC\CORE\PRODUCTS\PARALLELIZER.H
D:\LIB\EIGEN_LIB\EIGEN\EIGEN\SRC\CORE\PRODUCTEVALUATORS.H
D:\LIB\EIGEN_LIB\EIGEN\EIGEN\SRC\CORE\PRODUCTS\GENERALMATRIXVECTOR.H
D:\LIB\EIGEN_LIB\EIGEN\EIGEN\SRC\CORE\PRODUCTS\GENERALMATRIXMATRIX.H
D:\LIB\EIGEN_LIB\EIGEN\EIGEN\SRC\CORE\SOLVETRIANGULAR.H
D:\LIB\EIGEN_LIB\EIGEN\EIGEN\SRC\CORE\PRODUCTS\GENERALMATRIXMATRIXTRIANGULAR.H
D:\LIB\EIGEN_LIB\EIGEN\EIGEN\SRC\CORE\PRODUCTS\SELFADJOINTMATRIXVECTOR.H
D:\LIB\EIGEN_LIB\EIGEN\EIGEN\SRC\CORE\PRODUCTS\SELFADJOINTMATRIXMATRIX.H
D:\LIB\EIGEN_LIB\EIGEN\EIGEN\SRC\CORE\PRODUCTS\SELFADJOINTPRODUCT.H
D:\LIB\EIGEN_LIB\EIGEN\EIGEN\SRC\CORE\PRODUCTS\SELFADJOINTRANK2UPDATE.H
D:\LIB\EIGEN_LIB\EIGEN\EIGEN\SRC\CORE\PRODUCTS\TRIANGULARMATRIXVECTOR.H
D:\LIB\EIGEN_LIB\EIGEN\EIGEN\SRC\CORE\PRODUCTS\TRIANGULARMATRIXMATRIX.H
D:\LIB\EIGEN_LIB\EIGEN\EIGEN\SRC\CORE\PRODUCTS\TRIANGULARSOLVERMATRIX.H
D:\LIB\EIGEN_LIB\EIGEN\EIGEN\SRC\CORE\PRODUCTS\TRIANGULARSOLVERVECTOR.H
D:\LIB\EIGEN_LIB\EIGEN\EIGEN\SRC\CORE\BANDMATRIX.H
D:\LIB\EIGEN_LIB\EIGEN\EIGEN\SRC\CORE\COREITERATORS.H
D:\LIB\EIGEN_LIB\EIGEN\EIGEN\SRC\CORE\CONDITIONESTIMATOR.H
D:\LIB\EIGEN_LIB\EIGEN\EIGEN\SRC\CORE\BOOLEANREDUX.H
D:\LIB\EIGEN_LIB\EIGEN\EIGEN\SRC\CORE\SELECT.H
D:\LIB\EIGEN_LIB\EIGEN\EIGEN\SRC\CORE\VECTORWISEOP.H
D:\LIB\EIGEN_LIB\EIGEN\EIGEN\SRC\CORE\RANDOM.H
D:\LIB\EIGEN_LIB\EIGEN\EIGEN\SRC\CORE\REPLICATE.H
D:\LIB\EIGEN_LIB\EIGEN\EIGEN\SRC\CORE\REVERSE.H
D:\LIB\EIGEN_LIB\EIGEN\EIGEN\SRC\CORE\ARRAYWRAPPER.H
D:\LIB\EIGEN_LIB\EIGEN\EIGEN\SRC\CORE\GLOBALFUNCTIONS.H
D:\LIB\EIGEN_LIB\EIGEN\EIGEN\SRC\CORE\UTIL\REENABLESTUPIDWARNINGS.H
D:\LIB\OPENCV_420\OPENCV\SOURCES\MODULES\CORE\INCLUDE\OPENCV2\CORE\EIGEN.HPP
D:\LIB\OPENCV_420\BUILDR001\3RDPARTY\IPPICV\IPPICV_WIN\ICV\INCLUDE\IPPVERSION.H
D:\LIB\OPENCV_420\BUILDR001\3RDPARTY\IPPICV\IPPICV_WIN\ICV\INCLUDE\IPPICV.H
D:\LIB\OPENCV_420\BUILDR001\3RDPARTY\IPPICV\IPPICV_WIN\ICV\INCLUDE\IPPICV_L.H
D:\LIB\OPENCV_420\BUILDR001\3RDPARTY\IPPICV\IPPICV_WIN\ICV\INCLUDE\IPPICV_DEFS_L.H
D:\LIB\OPENCV_420\BUILDR001\3RDPARTY\IPPICV\IPPICV_WIN\ICV\INCLUDE\IPPICV_DEFS.H
D:\LIB\OPENCV_420\BUILDR001\3RDPARTY\IPPICV\IPPICV_WIN\ICV\INCLUDE\IPPICV_BASE.H
D:\LIB\OPENCV_420\BUILDR001\3RDPARTY\IPPICV\IPPICV_WIN\ICV\INCLUDE\IPPICV_TYPES.H
D:\LIB\OPENCV_420\BUILDR001\3RDPARTY\IPPICV\IPPICV_WIN\ICV\INCLUDE\IPPICV_TYPES_L.H
D:\LIB\OPENCV_420\BUILDR001\3RDPARTY\IPPICV\IPPICV_WIN\ICV\INCLUDE\IPPICV_REDEFS.H
D:\LIB\OPENCV_420\BUILDR001\3RDPARTY\IPPICV\IPPICV_WIN\IW\INCLUDE\IW++\IW.HPP
D:\LIB\OPENCV_420\BUILDR001\3RDPARTY\IPPICV\IPPICV_WIN\IW\INCLUDE\IW++\IW_CORE.HPP
D:\LIB\OPENCV_420\BUILDR001\3RDPARTY\IPPICV\IPPICV_WIN\IW\INCLUDE\IW\IW_CORE.H
D:\LIB\OPENCV_420\BUILDR001\3RDPARTY\IPPICV\IPPICV_WIN\IW\INCLUDE\IW\IW_VERSION.H
D:\LIB\OPENCV_420\BUILDR001\3RDPARTY\IPPICV\IPPICV_WIN\IW\INCLUDE\IW++\IW_IMAGE_COLOR.HPP
D:\LIB\OPENCV_420\BUILDR001\3RDPARTY\IPPICV\IPPICV_WIN\IW\INCLUDE\IW\IW_IMAGE_COLOR.H
D:\LIB\OPENCV_420\BUILDR001\3RDPARTY\IPPICV\IPPICV_WIN\IW\INCLUDE\IW\IW_IMAGE.H
D:\LIB\OPENCV_420\BUILDR001\3RDPARTY\IPPICV\IPPICV_WIN\IW\INCLUDE\IW++\IW_IMAGE.HPP
D:\LIB\OPENCV_420\BUILDR001\3RDPARTY\IPPICV\IPPICV_WIN\IW\INCLUDE\IW\IW_IMAGE_OP.H
D:\LIB\OPENCV_420\BUILDR001\3RDPARTY\IPPICV\IPPICV_WIN\IW\INCLUDE\IW++\IW_IMAGE_FILTER.HPP
D:\LIB\OPENCV_420\BUILDR001\3RDPARTY\IPPICV\IPPICV_WIN\IW\INCLUDE\IW\IW_IMAGE_FILTER.H
D:\LIB\OPENCV_420\BUILDR001\3RDPARTY\IPPICV\IPPICV_WIN\IW\INCLUDE\IW++\IW_IMAGE_OP.HPP
D:\LIB\OPENCV_420\BUILDR001\3RDPARTY\IPPICV\IPPICV_WIN\IW\INCLUDE\IW++\IW_IMAGE_TRANSFORM.HPP
D:\LIB\OPENCV_420\BUILDR001\3RDPARTY\IPPICV\IPPICV_WIN\IW\INCLUDE\IW\IW_IMAGE_TRANSFORM.H
D:\LIB\OPENCV_420\BUILDR001\3RDPARTY\IPPICV\IPPICV_WIN\IW\INCLUDE\IW\IW_LL.H
D:\LIB\OPENCV_420\OPENCV\SOURCES\MODULES\CORE\INCLUDE\OPENCV2\CORE\OCL.HPP
D:\LIB\OPENCV_420\OPENCV\SOURCES\MODULES\CORE\INCLUDE\OPENCV2\CORE\HAL\HAL.HPP
D:\LIB\OPENCV_420\OPENCV\SOURCES\MODULES\IMGPROC\INCLUDE\OPENCV2\IMGPROC\HAL\HAL.HPP
D:\LIB\OPENCV_420\OPENCV\SOURCES\MODULES\IMGPROC\SRC\HAL_REPLACEMENT.HPP
D:\LIB\OPENCV_420\OPENCV\SOURCES\MODULES\IMGPROC\INCLUDE\OPENCV2\IMGPROC\HAL\INTERFACE.H
D:\LIB\OPENCV_420\BUILDR001\CUSTOM_HAL.HPP
D:\LIB\OPENCV_420\OPENCV\SOURCES\MODULES\IMGPROC\SRC\_GEOM.H
D:\LIB\OPENCV_420\OPENCV\SOURCES\MODULES\IMGPROC\SRC\FILTERENGINE.HPP
D:\LIB\OPENCV_420\OPENCV\SOURCES\MODULES\CORE\INCLUDE\OPENCV2\CORE\SSE_UTILS.HPP
D:\LIB\OPENCV_420\OPENCV\SOURCES\MODULES\CORE\INCLUDE\OPENCV2\CORE\HAL\INTRIN.HPP
D:\LIB\OPENCV_420\OPENCV\SOURCES\MODULES\CORE\INCLUDE\OPENCV2\CORE\HAL\INTRIN_FORWARD.HPP
D:\LIB\OPENCV_420\OPENCV\SOURCES\MODULES\CORE\INCLUDE\OPENCV2\CORE\HAL\INTRIN_SSE_EM.HPP
D:\LIB\OPENCV_420\OPENCV\SOURCES\MODULES\CORE\INCLUDE\OPENCV2\CORE\HAL\INTRIN_SSE.HPP
D:\LIB\OPENCV_420\OPENCV\SOURCES\MODULES\CORE\INCLUDE\OPENCV2\CORE\HAL\SIMD_UTILS.IMPL.HPP
D:\LIB\OPENCV_420\OPENCV\SOURCES\MODULES\IMGPROC\SRC\CORNER.HPP
^D:\LIB\OPENCV_420\BUILDR001\MODULES\WORLD\MATHFUNCS_CORE.AVX.CPP
D:\LIB\OPENCV_420\OPENCV\SOURCES\MODULES\CORE\SRC\PRECOMP.HPP
D:\LIB\OPENCV_420\BUILDR001\OPENCV2\OPENCV_MODULES.HPP
D:\LIB\OPENCV_420\BUILDR001\CVCONFIG.H
D:\LIB\OPENCV_420\OPENCV\SOURCES\MODULES\CORE\INCLUDE\OPENCV2\CORE\UTILITY.HPP
D:\LIB\OPENCV_420\OPENCV\SOURCES\MODULES\CORE\INCLUDE\OPENCV2\CORE.HPP
D:\LIB\OPENCV_420\OPENCV\SOURCES\MODULES\CORE\INCLUDE\OPENCV2\CORE\CVDEF.H
C:\PROGRAM FILES (X86)\MICROSOFT VISUAL STUDIO\2017\COMMUNITY\VC\TOOLS\MSVC\14.16.27023\INCLUDE\LIMITS.H
C:\PROGRAM FILES (X86)\MICROSOFT VISUAL STUDIO\2017\COMMUNITY\VC\TOOLS\MSVC\14.16.27023\INCLUDE\VCRUNTIME.H
C:\PROGRAM FILES (X86)\MICROSOFT VISUAL STUDIO\2017\COMMUNITY\VC\TOOLS\MSVC\14.16.27023\INCLUDE\SAL.H
C:\PROGRAM FILES (X86)\MICROSOFT VISUAL STUDIO\2017\COMMUNITY\VC\TOOLS\MSVC\14.16.27023\INCLUDE\CONCURRENCYSAL.H
C:\PROGRAM FILES (X86)\MICROSOFT VISUAL STUDIO\2017\COMMUNITY\VC\TOOLS\MSVC\14.16.27023\INCLUDE\VADEFS.H
D:\LIB\OPENCV_420\OPENCV\SOURCES\MODULES\CORE\INCLUDE\OPENCV2\CORE\HAL\INTERFACE.H
C:\PROGRAM FILES (X86)\MICROSOFT VISUAL STUDIO\2017\COMMUNITY\VC\TOOLS\MSVC\14.16.27023\INCLUDE\CSTDDEF
C:\PROGRAM FILES (X86)\WINDOWS KITS\10\INCLUDE\10.0.17763.0\UCRT\STDDEF.H
C:\PROGRAM FILES (X86)\WINDOWS KITS\10\INCLUDE\10.0.17763.0\UCRT\CORECRT.H
C:\PROGRAM FILES (X86)\MICROSOFT VISUAL STUDIO\2017\COMMUNITY\VC\TOOLS\MSVC\14.16.27023\INCLUDE\XTR1COMMON
C:\PROGRAM FILES (X86)\MICROSOFT VISUAL STUDIO\2017\COMMUNITY\VC\TOOLS\MSVC\14.16.27023\INCLUDE\YVALS_CORE.H
C:\PROGRAM FILES (X86)\MICROSOFT VISUAL STUDIO\2017\COMMUNITY\VC\TOOLS\MSVC\14.16.27023\INCLUDE\XKEYCHECK.H
C:\PROGRAM FILES (X86)\MICROSOFT VISUAL STUDIO\2017\COMMUNITY\VC\TOOLS\MSVC\14.16.27023\INCLUDE\CRTDEFS.H
D:\LIB\OPENCV_420\OPENCV\SOURCES\MODULES\CORE\INCLUDE\OPENCV2\CORE\CV_CPU_DISPATCH.H
D:\LIB\OPENCV_420\BUILDR001\CV_CPU_CONFIG.H
D:\LIB\OPENCV_420\OPENCV\SOURCES\MODULES\CORE\INCLUDE\OPENCV2\CORE\CV_CPU_HELPER.H
C:\PROGRAM FILES (X86)\MICROSOFT VISUAL STUDIO\2017\COMMUNITY\VC\TOOLS\MSVC\14.16.27023\INCLUDE\EMMINTRIN.H
C:\PROGRAM FILES (X86)\MICROSOFT VISUAL STUDIO\2017\COMMUNITY\VC\TOOLS\MSVC\14.16.27023\INCLUDE\XMMINTRIN.H
C:\PROGRAM FILES (X86)\MICROSOFT VISUAL STUDIO\2017\COMMUNITY\VC\TOOLS\MSVC\14.16.27023\INCLUDE\MMINTRIN.H
C:\PROGRAM FILES (X86)\WINDOWS KITS\10\INCLUDE\10.0.17763.0\UCRT\MALLOC.H
C:\PROGRAM FILES (X86)\WINDOWS KITS\10\INCLUDE\10.0.17763.0\UCRT\CORECRT_MALLOC.H
C:\PROGRAM FILES (X86)\MICROSOFT VISUAL STUDIO\2017\COMMUNITY\VC\TOOLS\MSVC\14.16.27023\INCLUDE\PMMINTRIN.H
C:\PROGRAM FILES (X86)\MICROSOFT VISUAL STUDIO\2017\COMMUNITY\VC\TOOLS\MSVC\14.16.27023\INCLUDE\TMMINTRIN.H
C:\PROGRAM FILES (X86)\MICROSOFT VISUAL STUDIO\2017\COMMUNITY\VC\TOOLS\MSVC\14.16.27023\INCLUDE\SMMINTRIN.H
C:\PROGRAM FILES (X86)\MICROSOFT VISUAL STUDIO\2017\COMMUNITY\VC\TOOLS\MSVC\14.16.27023\INCLUDE\NMMINTRIN.H
C:\PROGRAM FILES (X86)\MICROSOFT VISUAL STUDIO\2017\COMMUNITY\VC\TOOLS\MSVC\14.16.27023\INCLUDE\IMMINTRIN.H
C:\PROGRAM FILES (X86)\MICROSOFT VISUAL STUDIO\2017\COMMUNITY\VC\TOOLS\MSVC\14.16.27023\INCLUDE\WMMINTRIN.H
C:\PROGRAM FILES (X86)\MICROSOFT VISUAL STUDIO\2017\COMMUNITY\VC\TOOLS\MSVC\14.16.27023\INCLUDE\ZMMINTRIN.H
C:\PROGRAM FILES (X86)\MICROSOFT VISUAL STUDIO\2017\COMMUNITY\VC\TOOLS\MSVC\14.16.27023\INCLUDE\INTRIN.H
C:\PROGRAM FILES (X86)\MICROSOFT VISUAL STUDIO\2017\COMMUNITY\VC\TOOLS\MSVC\14.16.27023\INCLUDE\INTRIN0.H
C:\PROGRAM FILES (X86)\MICROSOFT VISUAL STUDIO\2017\COMMUNITY\VC\TOOLS\MSVC\14.16.27023\INCLUDE\SETJMP.H
C:\PROGRAM FILES (X86)\MICROSOFT VISUAL STUDIO\2017\COMMUNITY\VC\TOOLS\MSVC\14.16.27023\INCLUDE\AMMINTRIN.H
C:\PROGRAM FILES (X86)\MICROSOFT VISUAL STUDIO\2017\COMMUNITY\VC\TOOLS\MSVC\14.16.27023\INCLUDE\ARRAY
C:\PROGRAM FILES (X86)\MICROSOFT VISUAL STUDIO\2017\COMMUNITY\VC\TOOLS\MSVC\14.16.27023\INCLUDE\ALGORITHM
C:\PROGRAM FILES (X86)\MICROSOFT VISUAL STUDIO\2017\COMMUNITY\VC\TOOLS\MSVC\14.16.27023\INCLUDE\XMEMORY
C:\PROGRAM FILES (X86)\MICROSOFT VISUAL STUDIO\2017\COMMUNITY\VC\TOOLS\MSVC\14.16.27023\INCLUDE\XMEMORY0
C:\PROGRAM FILES (X86)\MICROSOFT VISUAL STUDIO\2017\COMMUNITY\VC\TOOLS\MSVC\14.16.27023\INCLUDE\CSTDINT
C:\PROGRAM FILES (X86)\MICROSOFT VISUAL STUDIO\2017\COMMUNITY\VC\TOOLS\MSVC\14.16.27023\INCLUDE\YVALS.H
C:\PROGRAM FILES (X86)\WINDOWS KITS\10\INCLUDE\10.0.17763.0\UCRT\CRTDBG.H
C:\PROGRAM FILES (X86)\MICROSOFT VISUAL STUDIO\2017\COMMUNITY\VC\TOOLS\MSVC\14.16.27023\INCLUDE\VCRUNTIME_NEW_DEBUG.H
C:\PROGRAM FILES (X86)\MICROSOFT VISUAL STUDIO\2017\COMMUNITY\VC\TOOLS\MSVC\14.16.27023\INCLUDE\VCRUNTIME_NEW.H
C:\PROGRAM FILES (X86)\MICROSOFT VISUAL STUDIO\2017\COMMUNITY\VC\TOOLS\MSVC\14.16.27023\INCLUDE\USE_ANSI.H
C:\PROGRAM FILES (X86)\MICROSOFT VISUAL STUDIO\2017\COMMUNITY\VC\TOOLS\MSVC\14.16.27023\INCLUDE\STDINT.H
C:\PROGRAM FILES (X86)\MICROSOFT VISUAL STUDIO\2017\COMMUNITY\VC\TOOLS\MSVC\14.16.27023\INCLUDE\CSTDLIB
C:\PROGRAM FILES (X86)\WINDOWS KITS\10\INCLUDE\10.0.17763.0\UCRT\STDLIB.H
C:\PROGRAM FILES (X86)\WINDOWS KITS\10\INCLUDE\10.0.17763.0\UCRT\CORECRT_SEARCH.H
C:\PROGRAM FILES (X86)\WINDOWS KITS\10\INCLUDE\10.0.17763.0\UCRT\CORECRT_WSTDLIB.H
C:\PROGRAM FILES (X86)\WINDOWS KITS\10\INCLUDE\10.0.17763.0\UCRT\MATH.H
C:\PROGRAM FILES (X86)\WINDOWS KITS\10\INCLUDE\10.0.17763.0\UCRT\CORECRT_MATH.H
C:\PROGRAM FILES (X86)\WINDOWS KITS\10\INCLUDE\10.0.17763.0\UCRT\CORECRT_MATH_DEFINES.H
C:\PROGRAM FILES (X86)\MICROSOFT VISUAL STUDIO\2017\COMMUNITY\VC\TOOLS\MSVC\14.16.27023\INCLUDE\LIMITS
C:\PROGRAM FILES (X86)\MICROSOFT VISUAL STUDIO\2017\COMMUNITY\VC\TOOLS\MSVC\14.16.27023\INCLUDE\YMATH.H
C:\PROGRAM FILES (X86)\MICROSOFT VISUAL STUDIO\2017\COMMUNITY\VC\TOOLS\MSVC\14.16.27023\INCLUDE\CFLOAT
C:\PROGRAM FILES (X86)\WINDOWS KITS\10\INCLUDE\10.0.17763.0\UCRT\FLOAT.H
C:\PROGRAM FILES (X86)\MICROSOFT VISUAL STUDIO\2017\COMMUNITY\VC\TOOLS\MSVC\14.16.27023\INCLUDE\CLIMITS
C:\PROGRAM FILES (X86)\MICROSOFT VISUAL STUDIO\2017\COMMUNITY\VC\TOOLS\MSVC\14.16.27023\INCLUDE\CMATH
C:\PROGRAM FILES (X86)\MICROSOFT VISUAL STUDIO\2017\COMMUNITY\VC\TOOLS\MSVC\14.16.27023\INCLUDE\XTGMATH.H
C:\PROGRAM FILES (X86)\MICROSOFT VISUAL STUDIO\2017\COMMUNITY\VC\TOOLS\MSVC\14.16.27023\INCLUDE\CWCHAR
C:\PROGRAM FILES (X86)\WINDOWS KITS\10\INCLUDE\10.0.17763.0\UCRT\WCHAR.H
C:\PROGRAM FILES (X86)\WINDOWS KITS\10\INCLUDE\10.0.17763.0\UCRT\CORECRT_MEMCPY_S.H
C:\PROGRAM FILES (X86)\WINDOWS KITS\10\INCLUDE\10.0.17763.0\UCRT\ERRNO.H
C:\PROGRAM FILES (X86)\MICROSOFT VISUAL STUDIO\2017\COMMUNITY\VC\TOOLS\MSVC\14.16.27023\INCLUDE\VCRUNTIME_STRING.H
C:\PROGRAM FILES (X86)\WINDOWS KITS\10\INCLUDE\10.0.17763.0\UCRT\CORECRT_WCONIO.H
C:\PROGRAM FILES (X86)\WINDOWS KITS\10\INCLUDE\10.0.17763.0\UCRT\CORECRT_STDIO_CONFIG.H
C:\PROGRAM FILES (X86)\WINDOWS KITS\10\INCLUDE\10.0.17763.0\UCRT\CORECRT_WCTYPE.H
C:\PROGRAM FILES (X86)\WINDOWS KITS\10\INCLUDE\10.0.17763.0\UCRT\CORECRT_WDIRECT.H
C:\PROGRAM FILES (X86)\WINDOWS KITS\10\INCLUDE\10.0.17763.0\UCRT\CORECRT_WIO.H
C:\PROGRAM FILES (X86)\WINDOWS KITS\10\INCLUDE\10.0.17763.0\UCRT\CORECRT_SHARE.H
C:\PROGRAM FILES (X86)\WINDOWS KITS\10\INCLUDE\10.0.17763.0\UCRT\CORECRT_WPROCESS.H
C:\PROGRAM FILES (X86)\WINDOWS KITS\10\INCLUDE\10.0.17763.0\UCRT\CORECRT_WSTDIO.H
C:\PROGRAM FILES (X86)\WINDOWS KITS\10\INCLUDE\10.0.17763.0\UCRT\CORECRT_WSTRING.H
C:\PROGRAM FILES (X86)\WINDOWS KITS\10\INCLUDE\10.0.17763.0\UCRT\CORECRT_WTIME.H
C:\PROGRAM FILES (X86)\WINDOWS KITS\10\INCLUDE\10.0.17763.0\UCRT\SYS\STAT.H
C:\PROGRAM FILES (X86)\WINDOWS KITS\10\INCLUDE\10.0.17763.0\UCRT\SYS\TYPES.H
C:\PROGRAM FILES (X86)\MICROSOFT VISUAL STUDIO\2017\COMMUNITY\VC\TOOLS\MSVC\14.16.27023\INCLUDE\XSTDDEF
C:\PROGRAM FILES (X86)\MICROSOFT VISUAL STUDIO\2017\COMMUNITY\VC\TOOLS\MSVC\14.16.27023\INCLUDE\INITIALIZER_LIST
C:\PROGRAM FILES (X86)\MICROSOFT VISUAL STUDIO\2017\COMMUNITY\VC\TOOLS\MSVC\14.16.27023\INCLUDE\NEW
C:\PROGRAM FILES (X86)\MICROSOFT VISUAL STUDIO\2017\COMMUNITY\VC\TOOLS\MSVC\14.16.27023\INCLUDE\EXCEPTION
C:\PROGRAM FILES (X86)\MICROSOFT VISUAL STUDIO\2017\COMMUNITY\VC\TOOLS\MSVC\14.16.27023\INCLUDE\TYPE_TRAITS
C:\PROGRAM FILES (X86)\MICROSOFT VISUAL STUDIO\2017\COMMUNITY\VC\TOOLS\MSVC\14.16.27023\INCLUDE\VCRUNTIME_EXCEPTION.H
C:\PROGRAM FILES (X86)\MICROSOFT VISUAL STUDIO\2017\COMMUNITY\VC\TOOLS\MSVC\14.16.27023\INCLUDE\EH.H
C:\PROGRAM FILES (X86)\WINDOWS KITS\10\INCLUDE\10.0.17763.0\UCRT\CORECRT_TERMINATE.H
C:\PROGRAM FILES (X86)\MICROSOFT VISUAL STUDIO\2017\COMMUNITY\VC\TOOLS\MSVC\14.16.27023\INCLUDE\XUTILITY
C:\PROGRAM FILES (X86)\MICROSOFT VISUAL STUDIO\2017\COMMUNITY\VC\TOOLS\MSVC\14.16.27023\INCLUDE\UTILITY
C:\PROGRAM FILES (X86)\MICROSOFT VISUAL STUDIO\2017\COMMUNITY\VC\TOOLS\MSVC\14.16.27023\INCLUDE\IOSFWD
C:\PROGRAM FILES (X86)\MICROSOFT VISUAL STUDIO\2017\COMMUNITY\VC\TOOLS\MSVC\14.16.27023\INCLUDE\CSTDIO
C:\PROGRAM FILES (X86)\WINDOWS KITS\10\INCLUDE\10.0.17763.0\UCRT\STDIO.H
C:\PROGRAM FILES (X86)\MICROSOFT VISUAL STUDIO\2017\COMMUNITY\VC\TOOLS\MSVC\14.16.27023\INCLUDE\CSTRING
C:\PROGRAM FILES (X86)\WINDOWS KITS\10\INCLUDE\10.0.17763.0\UCRT\STRING.H
C:\PROGRAM FILES (X86)\WINDOWS KITS\10\INCLUDE\10.0.17763.0\UCRT\CORECRT_MEMORY.H
C:\PROGRAM FILES (X86)\MICROSOFT VISUAL STUDIO\2017\COMMUNITY\VC\TOOLS\MSVC\14.16.27023\INCLUDE\XATOMIC0.H
C:\PROGRAM FILES (X86)\MICROSOFT VISUAL STUDIO\2017\COMMUNITY\VC\TOOLS\MSVC\14.16.27023\INCLUDE\ITERATOR
C:\PROGRAM FILES (X86)\MICROSOFT VISUAL STUDIO\2017\COMMUNITY\VC\TOOLS\MSVC\14.16.27023\INCLUDE\ISTREAM
C:\PROGRAM FILES (X86)\MICROSOFT VISUAL STUDIO\2017\COMMUNITY\VC\TOOLS\MSVC\14.16.27023\INCLUDE\OSTREAM
C:\PROGRAM FILES (X86)\MICROSOFT VISUAL STUDIO\2017\COMMUNITY\VC\TOOLS\MSVC\14.16.27023\INCLUDE\IOS
C:\PROGRAM FILES (X86)\MICROSOFT VISUAL STUDIO\2017\COMMUNITY\VC\TOOLS\MSVC\14.16.27023\INCLUDE\XLOCNUM
C:\PROGRAM FILES (X86)\MICROSOFT VISUAL STUDIO\2017\COMMUNITY\VC\TOOLS\MSVC\14.16.27023\INCLUDE\STREAMBUF
C:\PROGRAM FILES (X86)\MICROSOFT VISUAL STUDIO\2017\COMMUNITY\VC\TOOLS\MSVC\14.16.27023\INCLUDE\XIOSBASE
C:\PROGRAM FILES (X86)\MICROSOFT VISUAL STUDIO\2017\COMMUNITY\VC\TOOLS\MSVC\14.16.27023\INCLUDE\XLOCALE
C:\PROGRAM FILES (X86)\MICROSOFT VISUAL STUDIO\2017\COMMUNITY\VC\TOOLS\MSVC\14.16.27023\INCLUDE\STDEXCEPT
C:\PROGRAM FILES (X86)\MICROSOFT VISUAL STUDIO\2017\COMMUNITY\VC\TOOLS\MSVC\14.16.27023\INCLUDE\XSTRING
C:\PROGRAM FILES (X86)\MICROSOFT VISUAL STUDIO\2017\COMMUNITY\VC\TOOLS\MSVC\14.16.27023\INCLUDE\TYPEINFO
C:\PROGRAM FILES (X86)\MICROSOFT VISUAL STUDIO\2017\COMMUNITY\VC\TOOLS\MSVC\14.16.27023\INCLUDE\VCRUNTIME_TYPEINFO.H
C:\PROGRAM FILES (X86)\MICROSOFT VISUAL STUDIO\2017\COMMUNITY\VC\TOOLS\MSVC\14.16.27023\INCLUDE\XLOCINFO
C:\PROGRAM FILES (X86)\MICROSOFT VISUAL STUDIO\2017\COMMUNITY\VC\TOOLS\MSVC\14.16.27023\INCLUDE\XLOCINFO.H
C:\PROGRAM FILES (X86)\WINDOWS KITS\10\INCLUDE\10.0.17763.0\UCRT\CTYPE.H
C:\PROGRAM FILES (X86)\WINDOWS KITS\10\INCLUDE\10.0.17763.0\UCRT\LOCALE.H
C:\PROGRAM FILES (X86)\MICROSOFT VISUAL STUDIO\2017\COMMUNITY\VC\TOOLS\MSVC\14.16.27023\INCLUDE\MEMORY
C:\PROGRAM FILES (X86)\MICROSOFT VISUAL STUDIO\2017\COMMUNITY\VC\TOOLS\MSVC\14.16.27023\INCLUDE\XFACET
C:\PROGRAM FILES (X86)\MICROSOFT VISUAL STUDIO\2017\COMMUNITY\VC\TOOLS\MSVC\14.16.27023\INCLUDE\SYSTEM_ERROR
C:\PROGRAM FILES (X86)\MICROSOFT VISUAL STUDIO\2017\COMMUNITY\VC\TOOLS\MSVC\14.16.27023\INCLUDE\CERRNO
C:\PROGRAM FILES (X86)\MICROSOFT VISUAL STUDIO\2017\COMMUNITY\VC\TOOLS\MSVC\14.16.27023\INCLUDE\XCALL_ONCE.H
C:\PROGRAM FILES (X86)\MICROSOFT VISUAL STUDIO\2017\COMMUNITY\VC\TOOLS\MSVC\14.16.27023\INCLUDE\XERRC.H
C:\PROGRAM FILES (X86)\WINDOWS KITS\10\INCLUDE\10.0.17763.0\UCRT\SHARE.H
C:\PROGRAM FILES (X86)\MICROSOFT VISUAL STUDIO\2017\COMMUNITY\VC\TOOLS\MSVC\14.16.27023\INCLUDE\TUPLE
D:\LIB\OPENCV_420\OPENCV\SOURCES\MODULES\CORE\INCLUDE\OPENCV2\CORE\VERSION.HPP
D:\LIB\OPENCV_420\OPENCV\SOURCES\MODULES\CORE\INCLUDE\OPENCV2\CORE\BASE.HPP
D:\LIB\OPENCV_420\OPENCV\SOURCES\MODULES\CORE\INCLUDE\OPENCV2\CORE\CVSTD.HPP
C:\PROGRAM FILES (X86)\MICROSOFT VISUAL STUDIO\2017\COMMUNITY\VC\TOOLS\MSVC\14.16.27023\INCLUDE\CCTYPE
C:\PROGRAM FILES (X86)\MICROSOFT VISUAL STUDIO\2017\COMMUNITY\VC\TOOLS\MSVC\14.16.27023\INCLUDE\STRING
C:\PROGRAM FILES (X86)\MICROSOFT VISUAL STUDIO\2017\COMMUNITY\VC\TOOLS\MSVC\14.16.27023\INCLUDE\XSTRING_INSERT.H
D:\LIB\OPENCV_420\OPENCV\SOURCES\MODULES\CORE\INCLUDE\OPENCV2\CORE\CVSTD_WRAPPER.HPP
D:\LIB\OPENCV_420\OPENCV\SOURCES\MODULES\CORE\INCLUDE\OPENCV2\CORE\NEON_UTILS.HPP
D:\LIB\OPENCV_420\OPENCV\SOURCES\MODULES\CORE\INCLUDE\OPENCV2\CORE\VSX_UTILS.HPP
C:\PROGRAM FILES (X86)\WINDOWS KITS\10\INCLUDE\10.0.17763.0\UCRT\ASSERT.H
D:\LIB\OPENCV_420\OPENCV\SOURCES\MODULES\CORE\INCLUDE\OPENCV2\CORE\CHECK.HPP
D:\LIB\OPENCV_420\OPENCV\SOURCES\MODULES\CORE\INCLUDE\OPENCV2\CORE\TRAITS.HPP
D:\LIB\OPENCV_420\OPENCV\SOURCES\MODULES\CORE\INCLUDE\OPENCV2\CORE\MATX.HPP
D:\LIB\OPENCV_420\OPENCV\SOURCES\MODULES\CORE\INCLUDE\OPENCV2\CORE\SATURATE.HPP
D:\LIB\OPENCV_420\OPENCV\SOURCES\MODULES\CORE\INCLUDE\OPENCV2\CORE\FAST_MATH.HPP
D:\LIB\OPENCV_420\OPENCV\SOURCES\MODULES\CORE\INCLUDE\OPENCV2\CORE\TYPES.HPP
C:\PROGRAM FILES (X86)\MICROSOFT VISUAL STUDIO\2017\COMMUNITY\VC\TOOLS\MSVC\14.16.27023\INCLUDE\VECTOR
D:\LIB\OPENCV_420\OPENCV\SOURCES\MODULES\CORE\INCLUDE\OPENCV2\CORE\MAT.HPP
D:\LIB\OPENCV_420\OPENCV\SOURCES\MODULES\CORE\INCLUDE\OPENCV2\CORE\BUFFERPOOL.HPP
D:\LIB\OPENCV_420\OPENCV\SOURCES\MODULES\CORE\INCLUDE\OPENCV2\CORE\MAT.INL.HPP
D:\LIB\OPENCV_420\OPENCV\SOURCES\MODULES\CORE\INCLUDE\OPENCV2\CORE\PERSISTENCE.HPP
D:\LIB\OPENCV_420\OPENCV\SOURCES\MODULES\CORE\INCLUDE\OPENCV2\CORE\OPERATIONS.HPP
D:\LIB\OPENCV_420\OPENCV\SOURCES\MODULES\CORE\INCLUDE\OPENCV2\CORE\CVSTD.INL.HPP
C:\PROGRAM FILES (X86)\MICROSOFT VISUAL STUDIO\2017\COMMUNITY\VC\TOOLS\MSVC\14.16.27023\INCLUDE\COMPLEX
C:\PROGRAM FILES (X86)\MICROSOFT VISUAL STUDIO\2017\COMMUNITY\VC\TOOLS\MSVC\14.16.27023\INCLUDE\SSTREAM
D:\LIB\OPENCV_420\OPENCV\SOURCES\MODULES\CORE\INCLUDE\OPENCV2\CORE\OPTIM.HPP
D:\LIB\OPENCV_420\OPENCV\SOURCES\MODULES\CORE\INCLUDE\OPENCV2\CORE\OVX.HPP
C:\PROGRAM FILES (X86)\MICROSOFT VISUAL STUDIO\2017\COMMUNITY\VC\TOOLS\MSVC\14.16.27023\INCLUDE\FUNCTIONAL
C:\PROGRAM FILES (X86)\MICROSOFT VISUAL STUDIO\2017\COMMUNITY\VC\TOOLS\MSVC\14.16.27023\INCLUDE\MUTEX
C:\PROGRAM FILES (X86)\MICROSOFT VISUAL STUDIO\2017\COMMUNITY\VC\TOOLS\MSVC\14.16.27023\INCLUDE\CHRONO
C:\PROGRAM FILES (X86)\MICROSOFT VISUAL STUDIO\2017\COMMUNITY\VC\TOOLS\MSVC\14.16.27023\INCLUDE\RATIO
C:\PROGRAM FILES (X86)\WINDOWS KITS\10\INCLUDE\10.0.17763.0\UCRT\TIME.H
C:\PROGRAM FILES (X86)\MICROSOFT VISUAL STUDIO\2017\COMMUNITY\VC\TOOLS\MSVC\14.16.27023\INCLUDE\THR\XTIMEC.H
C:\PROGRAM FILES (X86)\MICROSOFT VISUAL STUDIO\2017\COMMUNITY\VC\TOOLS\MSVC\14.16.27023\INCLUDE\THR\XTHRCOMMON.H
C:\PROGRAM FILES (X86)\MICROSOFT VISUAL STUDIO\2017\COMMUNITY\VC\TOOLS\MSVC\14.16.27023\INCLUDE\THREAD
C:\PROGRAM FILES (X86)\MICROSOFT VISUAL STUDIO\2017\COMMUNITY\VC\TOOLS\MSVC\14.16.27023\INCLUDE\THR\XTHREAD
C:\PROGRAM FILES (X86)\MICROSOFT VISUAL STUDIO\2017\COMMUNITY\VC\TOOLS\MSVC\14.16.27023\INCLUDE\THR\XTIME
C:\PROGRAM FILES (X86)\MICROSOFT VISUAL STUDIO\2017\COMMUNITY\VC\TOOLS\MSVC\14.16.27023\INCLUDE\THR\XTHREADS.H
D:\LIB\OPENCV_420\OPENCV\SOURCES\MODULES\CORE\INCLUDE\OPENCV2\CORE\CORE_C.H
D:\LIB\OPENCV_420\OPENCV\SOURCES\MODULES\CORE\INCLUDE\OPENCV2\CORE\TYPES_C.H
D:\LIB\OPENCV_420\OPENCV\SOURCES\MODULES\CORE\INCLUDE\OPENCV2\CORE\CUDA.HPP
D:\LIB\OPENCV_420\OPENCV\SOURCES\MODULES\CORE\INCLUDE\OPENCV2\CORE\CUDA_TYPES.HPP
D:\LIB\OPENCV_420\OPENCV\SOURCES\MODULES\CORE\INCLUDE\OPENCV2\CORE\CUDA.INL.HPP
D:\LIB\OPENCV_420\OPENCV\SOURCES\MODULES\CORE\INCLUDE\OPENCV2\CORE\OPENGL.HPP
D:\LIB\OPENCV_420\OPENCV\SOURCES\MODULES\CORE\INCLUDE\OPENCV2\CORE\OCL.HPP
D:\LIB\OPENCV_420\OPENCV\SOURCES\MODULES\CORE\INCLUDE\OPENCV2\CORE\VA_INTEL.HPP
D:\LIB\OPENCV_420\OPENCV\SOURCES\MODULES\CORE\INCLUDE\OPENCV2\CORE\PRIVATE.HPP
D:\LIB\OPENCV_420\OPENCV\SOURCES\MODULES\CORE\INCLUDE\OPENCV2\CORE\UTILS\TRACE.HPP
D:\LIB\EIGEN_LIB\EIGEN\EIGEN\CORE
D:\LIB\EIGEN_LIB\EIGEN\EIGEN\SRC\CORE\UTIL\DISABLESTUPIDWARNINGS.H
D:\LIB\EIGEN_LIB\EIGEN\EIGEN\SRC\CORE\UTIL\MACROS.H
D:\LIB\EIGEN_LIB\EIGEN\EIGEN\SRC\CORE\UTIL\MKL_SUPPORT.H
C:\PROGRAM FILES (X86)\MICROSOFT VISUAL STUDIO\2017\COMMUNITY\VC\TOOLS\MSVC\14.16.27023\INCLUDE\CASSERT
D:\LIB\EIGEN_LIB\EIGEN\EIGEN\SRC\CORE\UTIL\CONSTANTS.H
D:\LIB\EIGEN_LIB\EIGEN\EIGEN\SRC\CORE\UTIL\META.H
D:\LIB\EIGEN_LIB\EIGEN\EIGEN\SRC\CORE\UTIL\FORWARDDECLARATIONS.H
D:\LIB\EIGEN_LIB\EIGEN\EIGEN\SRC\CORE\UTIL\STATICASSERT.H
D:\LIB\EIGEN_LIB\EIGEN\EIGEN\SRC\CORE\UTIL\XPRHELPER.H
D:\LIB\EIGEN_LIB\EIGEN\EIGEN\SRC\CORE\UTIL\MEMORY.H
D:\LIB\EIGEN_LIB\EIGEN\EIGEN\SRC\CORE\NUMTRAITS.H
D:\LIB\EIGEN_LIB\EIGEN\EIGEN\SRC\CORE\MATHFUNCTIONS.H
D:\LIB\EIGEN_LIB\EIGEN\EIGEN\SRC\CORE\GENERICPACKETMATH.H
D:\LIB\EIGEN_LIB\EIGEN\EIGEN\SRC\CORE\MATHFUNCTIONSIMPL.H
D:\LIB\EIGEN_LIB\EIGEN\EIGEN\SRC\CORE\ARCH\SSE\PACKETMATH.H
D:\LIB\EIGEN_LIB\EIGEN\EIGEN\SRC\CORE\ARCH\SSE\COMPLEX.H
D:\LIB\EIGEN_LIB\EIGEN\EIGEN\SRC\CORE\ARCH\SSE\MATHFUNCTIONS.H
D:\LIB\EIGEN_LIB\EIGEN\EIGEN\SRC\CORE\ARCH\AVX\PACKETMATH.H
D:\LIB\EIGEN_LIB\EIGEN\EIGEN\SRC\CORE\ARCH\AVX\MATHFUNCTIONS.H
D:\LIB\EIGEN_LIB\EIGEN\EIGEN\SRC\CORE\ARCH\AVX\COMPLEX.H
D:\LIB\EIGEN_LIB\EIGEN\EIGEN\SRC\CORE\ARCH\AVX\TYPECASTING.H
D:\LIB\EIGEN_LIB\EIGEN\EIGEN\SRC\CORE\ARCH\CUDA\HALF.H
D:\LIB\EIGEN_LIB\EIGEN\EIGEN\SRC\CORE\ARCH\CUDA\PACKETMATHHALF.H
D:\LIB\EIGEN_LIB\EIGEN\EIGEN\SRC\CORE\ARCH\CUDA\TYPECASTING.H
D:\LIB\EIGEN_LIB\EIGEN\EIGEN\SRC\CORE\ARCH\DEFAULT\SETTINGS.H
D:\LIB\EIGEN_LIB\EIGEN\EIGEN\SRC\CORE\FUNCTORS\TERNARYFUNCTORS.H
D:\LIB\EIGEN_LIB\EIGEN\EIGEN\SRC\CORE\FUNCTORS\BINARYFUNCTORS.H
D:\LIB\EIGEN_LIB\EIGEN\EIGEN\SRC\CORE\FUNCTORS\UNARYFUNCTORS.H
D:\LIB\EIGEN_LIB\EIGEN\EIGEN\SRC\CORE\FUNCTORS\NULLARYFUNCTORS.H
D:\LIB\EIGEN_LIB\EIGEN\EIGEN\SRC\CORE\FUNCTORS\STLFUNCTORS.H
D:\LIB\EIGEN_LIB\EIGEN\EIGEN\SRC\CORE\FUNCTORS\ASSIGNMENTFUNCTORS.H
D:\LIB\EIGEN_LIB\EIGEN\EIGEN\SRC\CORE\ARCH\CUDA\COMPLEX.H
D:\LIB\EIGEN_LIB\EIGEN\EIGEN\SRC\CORE\IO.H
D:\LIB\EIGEN_LIB\EIGEN\EIGEN\SRC\CORE\DENSECOEFFSBASE.H
D:\LIB\EIGEN_LIB\EIGEN\EIGEN\SRC\CORE\DENSEBASE.H
D:\LIB\EIGEN_LIB\EIGEN\EIGEN\SRC\PLUGINS\BLOCKMETHODS.H
D:\LIB\EIGEN_LIB\EIGEN\EIGEN\SRC\CORE\MATRIXBASE.H
D:\LIB\EIGEN_LIB\EIGEN\EIGEN\SRC\PLUGINS\COMMONCWISEUNARYOPS.H
D:\LIB\EIGEN_LIB\EIGEN\EIGEN\SRC\PLUGINS\COMMONCWISEBINARYOPS.H
D:\LIB\EIGEN_LIB\EIGEN\EIGEN\SRC\PLUGINS\MATRIXCWISEUNARYOPS.H
D:\LIB\EIGEN_LIB\EIGEN\EIGEN\SRC\PLUGINS\MATRIXCWISEBINARYOPS.H
D:\LIB\EIGEN_LIB\EIGEN\EIGEN\SRC\CORE\EIGENBASE.H
D:\LIB\EIGEN_LIB\EIGEN\EIGEN\SRC\CORE\PRODUCT.H
D:\LIB\EIGEN_LIB\EIGEN\EIGEN\SRC\CORE\COREEVALUATORS.H
D:\LIB\EIGEN_LIB\EIGEN\EIGEN\SRC\CORE\ASSIGNEVALUATOR.H
D:\LIB\EIGEN_LIB\EIGEN\EIGEN\SRC\CORE\ASSIGN.H
D:\LIB\EIGEN_LIB\EIGEN\EIGEN\SRC\CORE\ARRAYBASE.H
D:\LIB\EIGEN_LIB\EIGEN\EIGEN\SRC\PLUGINS\ARRAYCWISEUNARYOPS.H
D:\LIB\EIGEN_LIB\EIGEN\EIGEN\SRC\PLUGINS\ARRAYCWISEBINARYOPS.H
D:\LIB\EIGEN_LIB\EIGEN\EIGEN\SRC\CORE\UTIL\BLASUTIL.H
D:\LIB\EIGEN_LIB\EIGEN\EIGEN\SRC\CORE\DENSESTORAGE.H
D:\LIB\EIGEN_LIB\EIGEN\EIGEN\SRC\CORE\NESTBYVALUE.H
D:\LIB\EIGEN_LIB\EIGEN\EIGEN\SRC\CORE\RETURNBYVALUE.H
D:\LIB\EIGEN_LIB\EIGEN\EIGEN\SRC\CORE\NOALIAS.H
D:\LIB\EIGEN_LIB\EIGEN\EIGEN\SRC\CORE\PLAINOBJECTBASE.H
D:\LIB\EIGEN_LIB\EIGEN\EIGEN\SRC\CORE\MATRIX.H
D:\LIB\EIGEN_LIB\EIGEN\EIGEN\SRC\CORE\ARRAY.H
D:\LIB\EIGEN_LIB\EIGEN\EIGEN\SRC\CORE\CWISETERNARYOP.H
D:\LIB\EIGEN_LIB\EIGEN\EIGEN\SRC\CORE\CWISEBINARYOP.H
D:\LIB\EIGEN_LIB\EIGEN\EIGEN\SRC\CORE\CWISEUNARYOP.H
D:\LIB\EIGEN_LIB\EIGEN\EIGEN\SRC\CORE\CWISENULLARYOP.H
D:\LIB\EIGEN_LIB\EIGEN\EIGEN\SRC\CORE\CWISEUNARYVIEW.H
D:\LIB\EIGEN_LIB\EIGEN\EIGEN\SRC\CORE\SELFCWISEBINARYOP.H
D:\LIB\EIGEN_LIB\EIGEN\EIGEN\SRC\CORE\DOT.H
D:\LIB\EIGEN_LIB\EIGEN\EIGEN\SRC\CORE\STABLENORM.H
D:\LIB\EIGEN_LIB\EIGEN\EIGEN\SRC\CORE\STRIDE.H
D:\LIB\EIGEN_LIB\EIGEN\EIGEN\SRC\CORE\MAPBASE.H
D:\LIB\EIGEN_LIB\EIGEN\EIGEN\SRC\CORE\MAP.H
D:\LIB\EIGEN_LIB\EIGEN\EIGEN\SRC\CORE\REF.H
D:\LIB\EIGEN_LIB\EIGEN\EIGEN\SRC\CORE\BLOCK.H
D:\LIB\EIGEN_LIB\EIGEN\EIGEN\SRC\CORE\VECTORBLOCK.H
D:\LIB\EIGEN_LIB\EIGEN\EIGEN\SRC\CORE\TRANSPOSE.H
D:\LIB\EIGEN_LIB\EIGEN\EIGEN\SRC\CORE\DIAGONALMATRIX.H
D:\LIB\EIGEN_LIB\EIGEN\EIGEN\SRC\CORE\DIAGONAL.H
D:\LIB\EIGEN_LIB\EIGEN\EIGEN\SRC\CORE\DIAGONALPRODUCT.H
D:\LIB\EIGEN_LIB\EIGEN\EIGEN\SRC\CORE\REDUX.H
D:\LIB\EIGEN_LIB\EIGEN\EIGEN\SRC\CORE\VISITOR.H
D:\LIB\EIGEN_LIB\EIGEN\EIGEN\SRC\CORE\FUZZY.H
D:\LIB\EIGEN_LIB\EIGEN\EIGEN\SRC\CORE\SWAP.H
D:\LIB\EIGEN_LIB\EIGEN\EIGEN\SRC\CORE\COMMAINITIALIZER.H
D:\LIB\EIGEN_LIB\EIGEN\EIGEN\SRC\CORE\GENERALPRODUCT.H
D:\LIB\EIGEN_LIB\EIGEN\EIGEN\SRC\CORE\SOLVE.H
D:\LIB\EIGEN_LIB\EIGEN\EIGEN\SRC\CORE\INVERSE.H
D:\LIB\EIGEN_LIB\EIGEN\EIGEN\SRC\CORE\SOLVERBASE.H
D:\LIB\EIGEN_LIB\EIGEN\EIGEN\SRC\CORE\PERMUTATIONMATRIX.H
D:\LIB\EIGEN_LIB\EIGEN\EIGEN\SRC\CORE\TRANSPOSITIONS.H
D:\LIB\EIGEN_LIB\EIGEN\EIGEN\SRC\CORE\TRIANGULARMATRIX.H
D:\LIB\EIGEN_LIB\EIGEN\EIGEN\SRC\CORE\SELFADJOINTVIEW.H
D:\LIB\EIGEN_LIB\EIGEN\EIGEN\SRC\CORE\PRODUCTS\GENERALBLOCKPANELKERNEL.H
D:\LIB\EIGEN_LIB\EIGEN\EIGEN\SRC\CORE\PRODUCTS\PARALLELIZER.H
D:\LIB\EIGEN_LIB\EIGEN\EIGEN\SRC\CORE\PRODUCTEVALUATORS.H
D:\LIB\EIGEN_LIB\EIGEN\EIGEN\SRC\CORE\PRODUCTS\GENERALMATRIXVECTOR.H
D:\LIB\EIGEN_LIB\EIGEN\EIGEN\SRC\CORE\PRODUCTS\GENERALMATRIXMATRIX.H
D:\LIB\EIGEN_LIB\EIGEN\EIGEN\SRC\CORE\SOLVETRIANGULAR.H
D:\LIB\EIGEN_LIB\EIGEN\EIGEN\SRC\CORE\PRODUCTS\GENERALMATRIXMATRIXTRIANGULAR.H
D:\LIB\EIGEN_LIB\EIGEN\EIGEN\SRC\CORE\PRODUCTS\SELFADJOINTMATRIXVECTOR.H
D:\LIB\EIGEN_LIB\EIGEN\EIGEN\SRC\CORE\PRODUCTS\SELFADJOINTMATRIXMATRIX.H
D:\LIB\EIGEN_LIB\EIGEN\EIGEN\SRC\CORE\PRODUCTS\SELFADJOINTPRODUCT.H
D:\LIB\EIGEN_LIB\EIGEN\EIGEN\SRC\CORE\PRODUCTS\SELFADJOINTRANK2UPDATE.H
D:\LIB\EIGEN_LIB\EIGEN\EIGEN\SRC\CORE\PRODUCTS\TRIANGULARMATRIXVECTOR.H
D:\LIB\EIGEN_LIB\EIGEN\EIGEN\SRC\CORE\PRODUCTS\TRIANGULARMATRIXMATRIX.H
D:\LIB\EIGEN_LIB\EIGEN\EIGEN\SRC\CORE\PRODUCTS\TRIANGULARSOLVERMATRIX.H
D:\LIB\EIGEN_LIB\EIGEN\EIGEN\SRC\CORE\PRODUCTS\TRIANGULARSOLVERVECTOR.H
D:\LIB\EIGEN_LIB\EIGEN\EIGEN\SRC\CORE\BANDMATRIX.H
D:\LIB\EIGEN_LIB\EIGEN\EIGEN\SRC\CORE\COREITERATORS.H
D:\LIB\EIGEN_LIB\EIGEN\EIGEN\SRC\CORE\CONDITIONESTIMATOR.H
D:\LIB\EIGEN_LIB\EIGEN\EIGEN\SRC\CORE\BOOLEANREDUX.H
D:\LIB\EIGEN_LIB\EIGEN\EIGEN\SRC\CORE\SELECT.H
D:\LIB\EIGEN_LIB\EIGEN\EIGEN\SRC\CORE\VECTORWISEOP.H
D:\LIB\EIGEN_LIB\EIGEN\EIGEN\SRC\CORE\RANDOM.H
D:\LIB\EIGEN_LIB\EIGEN\EIGEN\SRC\CORE\REPLICATE.H
D:\LIB\EIGEN_LIB\EIGEN\EIGEN\SRC\CORE\REVERSE.H
D:\LIB\EIGEN_LIB\EIGEN\EIGEN\SRC\CORE\ARRAYWRAPPER.H
D:\LIB\EIGEN_LIB\EIGEN\EIGEN\SRC\CORE\GLOBALFUNCTIONS.H
D:\LIB\EIGEN_LIB\EIGEN\EIGEN\SRC\CORE\UTIL\REENABLESTUPIDWARNINGS.H
D:\LIB\OPENCV_420\OPENCV\SOURCES\MODULES\CORE\INCLUDE\OPENCV2\CORE\EIGEN.HPP
D:\LIB\OPENCV_420\BUILDR001\3RDPARTY\IPPICV\IPPICV_WIN\ICV\INCLUDE\IPPVERSION.H
D:\LIB\OPENCV_420\BUILDR001\3RDPARTY\IPPICV\IPPICV_WIN\ICV\INCLUDE\IPPICV.H
D:\LIB\OPENCV_420\BUILDR001\3RDPARTY\IPPICV\IPPICV_WIN\ICV\INCLUDE\IPPICV_L.H
D:\LIB\OPENCV_420\BUILDR001\3RDPARTY\IPPICV\IPPICV_WIN\ICV\INCLUDE\IPPICV_DEFS_L.H
D:\LIB\OPENCV_420\BUILDR001\3RDPARTY\IPPICV\IPPICV_WIN\ICV\INCLUDE\IPPICV_DEFS.H
D:\LIB\OPENCV_420\BUILDR001\3RDPARTY\IPPICV\IPPICV_WIN\ICV\INCLUDE\IPPICV_BASE.H
D:\LIB\OPENCV_420\BUILDR001\3RDPARTY\IPPICV\IPPICV_WIN\ICV\INCLUDE\IPPICV_TYPES.H
D:\LIB\OPENCV_420\BUILDR001\3RDPARTY\IPPICV\IPPICV_WIN\ICV\INCLUDE\IPPICV_TYPES_L.H
D:\LIB\OPENCV_420\BUILDR001\3RDPARTY\IPPICV\IPPICV_WIN\ICV\INCLUDE\IPPICV_REDEFS.H
D:\LIB\OPENCV_420\BUILDR001\3RDPARTY\IPPICV\IPPICV_WIN\IW\INCLUDE\IW++\IW.HPP
D:\LIB\OPENCV_420\BUILDR001\3RDPARTY\IPPICV\IPPICV_WIN\IW\INCLUDE\IW++\IW_CORE.HPP
D:\LIB\OPENCV_420\BUILDR001\3RDPARTY\IPPICV\IPPICV_WIN\IW\INCLUDE\IW\IW_CORE.H
D:\LIB\OPENCV_420\BUILDR001\3RDPARTY\IPPICV\IPPICV_WIN\IW\INCLUDE\IW\IW_VERSION.H
D:\LIB\OPENCV_420\BUILDR001\3RDPARTY\IPPICV\IPPICV_WIN\IW\INCLUDE\IW++\IW_IMAGE_COLOR.HPP
D:\LIB\OPENCV_420\BUILDR001\3RDPARTY\IPPICV\IPPICV_WIN\IW\INCLUDE\IW\IW_IMAGE_COLOR.H
D:\LIB\OPENCV_420\BUILDR001\3RDPARTY\IPPICV\IPPICV_WIN\IW\INCLUDE\IW\IW_IMAGE.H
D:\LIB\OPENCV_420\BUILDR001\3RDPARTY\IPPICV\IPPICV_WIN\IW\INCLUDE\IW++\IW_IMAGE.HPP
D:\LIB\OPENCV_420\BUILDR001\3RDPARTY\IPPICV\IPPICV_WIN\IW\INCLUDE\IW\IW_IMAGE_OP.H
D:\LIB\OPENCV_420\BUILDR001\3RDPARTY\IPPICV\IPPICV_WIN\IW\INCLUDE\IW++\IW_IMAGE_FILTER.HPP
D:\LIB\OPENCV_420\BUILDR001\3RDPARTY\IPPICV\IPPICV_WIN\IW\INCLUDE\IW\IW_IMAGE_FILTER.H
D:\LIB\OPENCV_420\BUILDR001\3RDPARTY\IPPICV\IPPICV_WIN\IW\INCLUDE\IW++\IW_IMAGE_OP.HPP
D:\LIB\OPENCV_420\BUILDR001\3RDPARTY\IPPICV\IPPICV_WIN\IW\INCLUDE\IW++\IW_IMAGE_TRANSFORM.HPP
D:\LIB\OPENCV_420\BUILDR001\3RDPARTY\IPPICV\IPPICV_WIN\IW\INCLUDE\IW\IW_IMAGE_TRANSFORM.H
D:\LIB\OPENCV_420\BUILDR001\3RDPARTY\IPPICV\IPPICV_WIN\IW\INCLUDE\IW\IW_LL.H
D:\LIB\OPENCV_420\OPENCV\SOURCES\MODULES\CORE\INCLUDE\OPENCV2\CORE\PRIVATE.CUDA.HPP
C:\PROGRAM FILES (X86)\MICROSOFT VISUAL STUDIO\2017\COMMUNITY\VC\TOOLS\MSVC\14.16.27023\INCLUDE\STDARG.H
D:\LIB\OPENCV_420\OPENCV\SOURCES\MODULES\CORE\INCLUDE\OPENCV2\CORE\HAL\HAL.HPP
D:\LIB\OPENCV_420\OPENCV\SOURCES\MODULES\CORE\INCLUDE\OPENCV2\CORE\HAL\INTRIN.HPP
D:\LIB\OPENCV_420\OPENCV\SOURCES\MODULES\CORE\INCLUDE\OPENCV2\CORE\HAL\INTRIN_FORWARD.HPP
D:\LIB\OPENCV_420\OPENCV\SOURCES\MODULES\CORE\INCLUDE\OPENCV2\CORE\HAL\INTRIN_SSE_EM.HPP
D:\LIB\OPENCV_420\OPENCV\SOURCES\MODULES\CORE\INCLUDE\OPENCV2\CORE\HAL\INTRIN_SSE.HPP
D:\LIB\OPENCV_420\OPENCV\SOURCES\MODULES\CORE\INCLUDE\OPENCV2\CORE\HAL\SIMD_UTILS.IMPL.HPP
D:\LIB\OPENCV_420\OPENCV\SOURCES\MODULES\CORE\INCLUDE\OPENCV2\CORE\SSE_UTILS.HPP
D:\LIB\OPENCV_420\OPENCV\SOURCES\MODULES\CORE\SRC\HAL_REPLACEMENT.HPP
D:\LIB\OPENCV_420\OPENCV\SOURCES\MODULES\CORE\SRC\HAL_INTERNAL.HPP
D:\LIB\OPENCV_420\BUILDR001\CUSTOM_HAL.HPP
D:\LIB\OPENCV_420\OPENCV\SOURCES\MODULES\CORE\SRC\MATHFUNCS_CORE.SIMD.HPP
D:\LIB\OPENCV_420\OPENCV\SOURCES\MODULES\CORE\SRC\MATHFUNCS.HPP
^D:\LIB\OPENCV_420\BUILDR001\MODULES\WORLD\ACCUM.AVX.CPP
D:\LIB\OPENCV_420\OPENCV\SOURCES\MODULES\IMGPROC\SRC\PRECOMP.HPP
D:\LIB\OPENCV_420\OPENCV\SOURCES\MODULES\IMGPROC\INCLUDE\OPENCV2\IMGPROC.HPP
D:\LIB\OPENCV_420\OPENCV\SOURCES\MODULES\CORE\INCLUDE\OPENCV2\CORE.HPP
D:\LIB\OPENCV_420\OPENCV\SOURCES\MODULES\CORE\INCLUDE\OPENCV2\CORE\CVDEF.H
D:\LIB\OPENCV_420\BUILDR001\CVCONFIG.H
C:\PROGRAM FILES (X86)\MICROSOFT VISUAL STUDIO\2017\COMMUNITY\VC\TOOLS\MSVC\14.16.27023\INCLUDE\LIMITS.H
C:\PROGRAM FILES (X86)\MICROSOFT VISUAL STUDIO\2017\COMMUNITY\VC\TOOLS\MSVC\14.16.27023\INCLUDE\VCRUNTIME.H
C:\PROGRAM FILES (X86)\MICROSOFT VISUAL STUDIO\2017\COMMUNITY\VC\TOOLS\MSVC\14.16.27023\INCLUDE\SAL.H
C:\PROGRAM FILES (X86)\MICROSOFT VISUAL STUDIO\2017\COMMUNITY\VC\TOOLS\MSVC\14.16.27023\INCLUDE\CONCURRENCYSAL.H
C:\PROGRAM FILES (X86)\MICROSOFT VISUAL STUDIO\2017\COMMUNITY\VC\TOOLS\MSVC\14.16.27023\INCLUDE\VADEFS.H
D:\LIB\OPENCV_420\OPENCV\SOURCES\MODULES\CORE\INCLUDE\OPENCV2\CORE\HAL\INTERFACE.H
C:\PROGRAM FILES (X86)\MICROSOFT VISUAL STUDIO\2017\COMMUNITY\VC\TOOLS\MSVC\14.16.27023\INCLUDE\CSTDDEF
C:\PROGRAM FILES (X86)\WINDOWS KITS\10\INCLUDE\10.0.17763.0\UCRT\STDDEF.H
C:\PROGRAM FILES (X86)\WINDOWS KITS\10\INCLUDE\10.0.17763.0\UCRT\CORECRT.H
C:\PROGRAM FILES (X86)\MICROSOFT VISUAL STUDIO\2017\COMMUNITY\VC\TOOLS\MSVC\14.16.27023\INCLUDE\XTR1COMMON
C:\PROGRAM FILES (X86)\MICROSOFT VISUAL STUDIO\2017\COMMUNITY\VC\TOOLS\MSVC\14.16.27023\INCLUDE\YVALS_CORE.H
C:\PROGRAM FILES (X86)\MICROSOFT VISUAL STUDIO\2017\COMMUNITY\VC\TOOLS\MSVC\14.16.27023\INCLUDE\XKEYCHECK.H
C:\PROGRAM FILES (X86)\MICROSOFT VISUAL STUDIO\2017\COMMUNITY\VC\TOOLS\MSVC\14.16.27023\INCLUDE\CRTDEFS.H
D:\LIB\OPENCV_420\OPENCV\SOURCES\MODULES\CORE\INCLUDE\OPENCV2\CORE\CV_CPU_DISPATCH.H
D:\LIB\OPENCV_420\BUILDR001\CV_CPU_CONFIG.H
D:\LIB\OPENCV_420\OPENCV\SOURCES\MODULES\CORE\INCLUDE\OPENCV2\CORE\CV_CPU_HELPER.H
C:\PROGRAM FILES (X86)\MICROSOFT VISUAL STUDIO\2017\COMMUNITY\VC\TOOLS\MSVC\14.16.27023\INCLUDE\EMMINTRIN.H
C:\PROGRAM FILES (X86)\MICROSOFT VISUAL STUDIO\2017\COMMUNITY\VC\TOOLS\MSVC\14.16.27023\INCLUDE\XMMINTRIN.H
C:\PROGRAM FILES (X86)\MICROSOFT VISUAL STUDIO\2017\COMMUNITY\VC\TOOLS\MSVC\14.16.27023\INCLUDE\MMINTRIN.H
C:\PROGRAM FILES (X86)\WINDOWS KITS\10\INCLUDE\10.0.17763.0\UCRT\MALLOC.H
C:\PROGRAM FILES (X86)\WINDOWS KITS\10\INCLUDE\10.0.17763.0\UCRT\CORECRT_MALLOC.H
C:\PROGRAM FILES (X86)\MICROSOFT VISUAL STUDIO\2017\COMMUNITY\VC\TOOLS\MSVC\14.16.27023\INCLUDE\PMMINTRIN.H
C:\PROGRAM FILES (X86)\MICROSOFT VISUAL STUDIO\2017\COMMUNITY\VC\TOOLS\MSVC\14.16.27023\INCLUDE\TMMINTRIN.H
C:\PROGRAM FILES (X86)\MICROSOFT VISUAL STUDIO\2017\COMMUNITY\VC\TOOLS\MSVC\14.16.27023\INCLUDE\SMMINTRIN.H
C:\PROGRAM FILES (X86)\MICROSOFT VISUAL STUDIO\2017\COMMUNITY\VC\TOOLS\MSVC\14.16.27023\INCLUDE\NMMINTRIN.H
C:\PROGRAM FILES (X86)\MICROSOFT VISUAL STUDIO\2017\COMMUNITY\VC\TOOLS\MSVC\14.16.27023\INCLUDE\IMMINTRIN.H
C:\PROGRAM FILES (X86)\MICROSOFT VISUAL STUDIO\2017\COMMUNITY\VC\TOOLS\MSVC\14.16.27023\INCLUDE\WMMINTRIN.H
C:\PROGRAM FILES (X86)\MICROSOFT VISUAL STUDIO\2017\COMMUNITY\VC\TOOLS\MSVC\14.16.27023\INCLUDE\ZMMINTRIN.H
C:\PROGRAM FILES (X86)\MICROSOFT VISUAL STUDIO\2017\COMMUNITY\VC\TOOLS\MSVC\14.16.27023\INCLUDE\INTRIN.H
C:\PROGRAM FILES (X86)\MICROSOFT VISUAL STUDIO\2017\COMMUNITY\VC\TOOLS\MSVC\14.16.27023\INCLUDE\INTRIN0.H
C:\PROGRAM FILES (X86)\MICROSOFT VISUAL STUDIO\2017\COMMUNITY\VC\TOOLS\MSVC\14.16.27023\INCLUDE\SETJMP.H
C:\PROGRAM FILES (X86)\MICROSOFT VISUAL STUDIO\2017\COMMUNITY\VC\TOOLS\MSVC\14.16.27023\INCLUDE\AMMINTRIN.H
C:\PROGRAM FILES (X86)\MICROSOFT VISUAL STUDIO\2017\COMMUNITY\VC\TOOLS\MSVC\14.16.27023\INCLUDE\ARRAY
C:\PROGRAM FILES (X86)\MICROSOFT VISUAL STUDIO\2017\COMMUNITY\VC\TOOLS\MSVC\14.16.27023\INCLUDE\ALGORITHM
C:\PROGRAM FILES (X86)\MICROSOFT VISUAL STUDIO\2017\COMMUNITY\VC\TOOLS\MSVC\14.16.27023\INCLUDE\XMEMORY
C:\PROGRAM FILES (X86)\MICROSOFT VISUAL STUDIO\2017\COMMUNITY\VC\TOOLS\MSVC\14.16.27023\INCLUDE\XMEMORY0
C:\PROGRAM FILES (X86)\MICROSOFT VISUAL STUDIO\2017\COMMUNITY\VC\TOOLS\MSVC\14.16.27023\INCLUDE\CSTDINT
C:\PROGRAM FILES (X86)\MICROSOFT VISUAL STUDIO\2017\COMMUNITY\VC\TOOLS\MSVC\14.16.27023\INCLUDE\YVALS.H
C:\PROGRAM FILES (X86)\WINDOWS KITS\10\INCLUDE\10.0.17763.0\UCRT\CRTDBG.H
C:\PROGRAM FILES (X86)\MICROSOFT VISUAL STUDIO\2017\COMMUNITY\VC\TOOLS\MSVC\14.16.27023\INCLUDE\VCRUNTIME_NEW_DEBUG.H
C:\PROGRAM FILES (X86)\MICROSOFT VISUAL STUDIO\2017\COMMUNITY\VC\TOOLS\MSVC\14.16.27023\INCLUDE\VCRUNTIME_NEW.H
C:\PROGRAM FILES (X86)\MICROSOFT VISUAL STUDIO\2017\COMMUNITY\VC\TOOLS\MSVC\14.16.27023\INCLUDE\USE_ANSI.H
C:\PROGRAM FILES (X86)\MICROSOFT VISUAL STUDIO\2017\COMMUNITY\VC\TOOLS\MSVC\14.16.27023\INCLUDE\STDINT.H
C:\PROGRAM FILES (X86)\MICROSOFT VISUAL STUDIO\2017\COMMUNITY\VC\TOOLS\MSVC\14.16.27023\INCLUDE\CSTDLIB
C:\PROGRAM FILES (X86)\WINDOWS KITS\10\INCLUDE\10.0.17763.0\UCRT\STDLIB.H
C:\PROGRAM FILES (X86)\WINDOWS KITS\10\INCLUDE\10.0.17763.0\UCRT\CORECRT_SEARCH.H
C:\PROGRAM FILES (X86)\WINDOWS KITS\10\INCLUDE\10.0.17763.0\UCRT\CORECRT_WSTDLIB.H
C:\PROGRAM FILES (X86)\WINDOWS KITS\10\INCLUDE\10.0.17763.0\UCRT\MATH.H
C:\PROGRAM FILES (X86)\WINDOWS KITS\10\INCLUDE\10.0.17763.0\UCRT\CORECRT_MATH.H
C:\PROGRAM FILES (X86)\WINDOWS KITS\10\INCLUDE\10.0.17763.0\UCRT\CORECRT_MATH_DEFINES.H
C:\PROGRAM FILES (X86)\MICROSOFT VISUAL STUDIO\2017\COMMUNITY\VC\TOOLS\MSVC\14.16.27023\INCLUDE\LIMITS
C:\PROGRAM FILES (X86)\MICROSOFT VISUAL STUDIO\2017\COMMUNITY\VC\TOOLS\MSVC\14.16.27023\INCLUDE\YMATH.H
C:\PROGRAM FILES (X86)\MICROSOFT VISUAL STUDIO\2017\COMMUNITY\VC\TOOLS\MSVC\14.16.27023\INCLUDE\CFLOAT
C:\PROGRAM FILES (X86)\WINDOWS KITS\10\INCLUDE\10.0.17763.0\UCRT\FLOAT.H
C:\PROGRAM FILES (X86)\MICROSOFT VISUAL STUDIO\2017\COMMUNITY\VC\TOOLS\MSVC\14.16.27023\INCLUDE\CLIMITS
C:\PROGRAM FILES (X86)\MICROSOFT VISUAL STUDIO\2017\COMMUNITY\VC\TOOLS\MSVC\14.16.27023\INCLUDE\CMATH
C:\PROGRAM FILES (X86)\MICROSOFT VISUAL STUDIO\2017\COMMUNITY\VC\TOOLS\MSVC\14.16.27023\INCLUDE\XTGMATH.H
C:\PROGRAM FILES (X86)\MICROSOFT VISUAL STUDIO\2017\COMMUNITY\VC\TOOLS\MSVC\14.16.27023\INCLUDE\CWCHAR
C:\PROGRAM FILES (X86)\WINDOWS KITS\10\INCLUDE\10.0.17763.0\UCRT\WCHAR.H
C:\PROGRAM FILES (X86)\WINDOWS KITS\10\INCLUDE\10.0.17763.0\UCRT\CORECRT_MEMCPY_S.H
C:\PROGRAM FILES (X86)\WINDOWS KITS\10\INCLUDE\10.0.17763.0\UCRT\ERRNO.H
C:\PROGRAM FILES (X86)\MICROSOFT VISUAL STUDIO\2017\COMMUNITY\VC\TOOLS\MSVC\14.16.27023\INCLUDE\VCRUNTIME_STRING.H
C:\PROGRAM FILES (X86)\WINDOWS KITS\10\INCLUDE\10.0.17763.0\UCRT\CORECRT_WCONIO.H
C:\PROGRAM FILES (X86)\WINDOWS KITS\10\INCLUDE\10.0.17763.0\UCRT\CORECRT_STDIO_CONFIG.H
C:\PROGRAM FILES (X86)\WINDOWS KITS\10\INCLUDE\10.0.17763.0\UCRT\CORECRT_WCTYPE.H
C:\PROGRAM FILES (X86)\WINDOWS KITS\10\INCLUDE\10.0.17763.0\UCRT\CORECRT_WDIRECT.H
C:\PROGRAM FILES (X86)\WINDOWS KITS\10\INCLUDE\10.0.17763.0\UCRT\CORECRT_WIO.H
C:\PROGRAM FILES (X86)\WINDOWS KITS\10\INCLUDE\10.0.17763.0\UCRT\CORECRT_SHARE.H
C:\PROGRAM FILES (X86)\WINDOWS KITS\10\INCLUDE\10.0.17763.0\UCRT\CORECRT_WPROCESS.H
C:\PROGRAM FILES (X86)\WINDOWS KITS\10\INCLUDE\10.0.17763.0\UCRT\CORECRT_WSTDIO.H
C:\PROGRAM FILES (X86)\WINDOWS KITS\10\INCLUDE\10.0.17763.0\UCRT\CORECRT_WSTRING.H
C:\PROGRAM FILES (X86)\WINDOWS KITS\10\INCLUDE\10.0.17763.0\UCRT\CORECRT_WTIME.H
C:\PROGRAM FILES (X86)\WINDOWS KITS\10\INCLUDE\10.0.17763.0\UCRT\SYS\STAT.H
C:\PROGRAM FILES (X86)\WINDOWS KITS\10\INCLUDE\10.0.17763.0\UCRT\SYS\TYPES.H
C:\PROGRAM FILES (X86)\MICROSOFT VISUAL STUDIO\2017\COMMUNITY\VC\TOOLS\MSVC\14.16.27023\INCLUDE\XSTDDEF
C:\PROGRAM FILES (X86)\MICROSOFT VISUAL STUDIO\2017\COMMUNITY\VC\TOOLS\MSVC\14.16.27023\INCLUDE\INITIALIZER_LIST
C:\PROGRAM FILES (X86)\MICROSOFT VISUAL STUDIO\2017\COMMUNITY\VC\TOOLS\MSVC\14.16.27023\INCLUDE\NEW
C:\PROGRAM FILES (X86)\MICROSOFT VISUAL STUDIO\2017\COMMUNITY\VC\TOOLS\MSVC\14.16.27023\INCLUDE\EXCEPTION
C:\PROGRAM FILES (X86)\MICROSOFT VISUAL STUDIO\2017\COMMUNITY\VC\TOOLS\MSVC\14.16.27023\INCLUDE\TYPE_TRAITS
C:\PROGRAM FILES (X86)\MICROSOFT VISUAL STUDIO\2017\COMMUNITY\VC\TOOLS\MSVC\14.16.27023\INCLUDE\VCRUNTIME_EXCEPTION.H
C:\PROGRAM FILES (X86)\MICROSOFT VISUAL STUDIO\2017\COMMUNITY\VC\TOOLS\MSVC\14.16.27023\INCLUDE\EH.H
C:\PROGRAM FILES (X86)\WINDOWS KITS\10\INCLUDE\10.0.17763.0\UCRT\CORECRT_TERMINATE.H
C:\PROGRAM FILES (X86)\MICROSOFT VISUAL STUDIO\2017\COMMUNITY\VC\TOOLS\MSVC\14.16.27023\INCLUDE\XUTILITY
C:\PROGRAM FILES (X86)\MICROSOFT VISUAL STUDIO\2017\COMMUNITY\VC\TOOLS\MSVC\14.16.27023\INCLUDE\UTILITY
C:\PROGRAM FILES (X86)\MICROSOFT VISUAL STUDIO\2017\COMMUNITY\VC\TOOLS\MSVC\14.16.27023\INCLUDE\IOSFWD
C:\PROGRAM FILES (X86)\MICROSOFT VISUAL STUDIO\2017\COMMUNITY\VC\TOOLS\MSVC\14.16.27023\INCLUDE\CSTDIO
C:\PROGRAM FILES (X86)\WINDOWS KITS\10\INCLUDE\10.0.17763.0\UCRT\STDIO.H
C:\PROGRAM FILES (X86)\MICROSOFT VISUAL STUDIO\2017\COMMUNITY\VC\TOOLS\MSVC\14.16.27023\INCLUDE\CSTRING
C:\PROGRAM FILES (X86)\WINDOWS KITS\10\INCLUDE\10.0.17763.0\UCRT\STRING.H
C:\PROGRAM FILES (X86)\WINDOWS KITS\10\INCLUDE\10.0.17763.0\UCRT\CORECRT_MEMORY.H
C:\PROGRAM FILES (X86)\MICROSOFT VISUAL STUDIO\2017\COMMUNITY\VC\TOOLS\MSVC\14.16.27023\INCLUDE\XATOMIC0.H
C:\PROGRAM FILES (X86)\MICROSOFT VISUAL STUDIO\2017\COMMUNITY\VC\TOOLS\MSVC\14.16.27023\INCLUDE\ITERATOR
C:\PROGRAM FILES (X86)\MICROSOFT VISUAL STUDIO\2017\COMMUNITY\VC\TOOLS\MSVC\14.16.27023\INCLUDE\ISTREAM
C:\PROGRAM FILES (X86)\MICROSOFT VISUAL STUDIO\2017\COMMUNITY\VC\TOOLS\MSVC\14.16.27023\INCLUDE\OSTREAM
C:\PROGRAM FILES (X86)\MICROSOFT VISUAL STUDIO\2017\COMMUNITY\VC\TOOLS\MSVC\14.16.27023\INCLUDE\IOS
C:\PROGRAM FILES (X86)\MICROSOFT VISUAL STUDIO\2017\COMMUNITY\VC\TOOLS\MSVC\14.16.27023\INCLUDE\XLOCNUM
C:\PROGRAM FILES (X86)\MICROSOFT VISUAL STUDIO\2017\COMMUNITY\VC\TOOLS\MSVC\14.16.27023\INCLUDE\STREAMBUF
C:\PROGRAM FILES (X86)\MICROSOFT VISUAL STUDIO\2017\COMMUNITY\VC\TOOLS\MSVC\14.16.27023\INCLUDE\XIOSBASE
C:\PROGRAM FILES (X86)\MICROSOFT VISUAL STUDIO\2017\COMMUNITY\VC\TOOLS\MSVC\14.16.27023\INCLUDE\XLOCALE
C:\PROGRAM FILES (X86)\MICROSOFT VISUAL STUDIO\2017\COMMUNITY\VC\TOOLS\MSVC\14.16.27023\INCLUDE\STDEXCEPT
C:\PROGRAM FILES (X86)\MICROSOFT VISUAL STUDIO\2017\COMMUNITY\VC\TOOLS\MSVC\14.16.27023\INCLUDE\XSTRING
C:\PROGRAM FILES (X86)\MICROSOFT VISUAL STUDIO\2017\COMMUNITY\VC\TOOLS\MSVC\14.16.27023\INCLUDE\TYPEINFO
C:\PROGRAM FILES (X86)\MICROSOFT VISUAL STUDIO\2017\COMMUNITY\VC\TOOLS\MSVC\14.16.27023\INCLUDE\VCRUNTIME_TYPEINFO.H
C:\PROGRAM FILES (X86)\MICROSOFT VISUAL STUDIO\2017\COMMUNITY\VC\TOOLS\MSVC\14.16.27023\INCLUDE\XLOCINFO
C:\PROGRAM FILES (X86)\MICROSOFT VISUAL STUDIO\2017\COMMUNITY\VC\TOOLS\MSVC\14.16.27023\INCLUDE\XLOCINFO.H
C:\PROGRAM FILES (X86)\WINDOWS KITS\10\INCLUDE\10.0.17763.0\UCRT\CTYPE.H
C:\PROGRAM FILES (X86)\WINDOWS KITS\10\INCLUDE\10.0.17763.0\UCRT\LOCALE.H
C:\PROGRAM FILES (X86)\MICROSOFT VISUAL STUDIO\2017\COMMUNITY\VC\TOOLS\MSVC\14.16.27023\INCLUDE\MEMORY
C:\PROGRAM FILES (X86)\MICROSOFT VISUAL STUDIO\2017\COMMUNITY\VC\TOOLS\MSVC\14.16.27023\INCLUDE\XFACET
C:\PROGRAM FILES (X86)\MICROSOFT VISUAL STUDIO\2017\COMMUNITY\VC\TOOLS\MSVC\14.16.27023\INCLUDE\SYSTEM_ERROR
C:\PROGRAM FILES (X86)\MICROSOFT VISUAL STUDIO\2017\COMMUNITY\VC\TOOLS\MSVC\14.16.27023\INCLUDE\CERRNO
C:\PROGRAM FILES (X86)\MICROSOFT VISUAL STUDIO\2017\COMMUNITY\VC\TOOLS\MSVC\14.16.27023\INCLUDE\XCALL_ONCE.H
C:\PROGRAM FILES (X86)\MICROSOFT VISUAL STUDIO\2017\COMMUNITY\VC\TOOLS\MSVC\14.16.27023\INCLUDE\XERRC.H
C:\PROGRAM FILES (X86)\WINDOWS KITS\10\INCLUDE\10.0.17763.0\UCRT\SHARE.H
C:\PROGRAM FILES (X86)\MICROSOFT VISUAL STUDIO\2017\COMMUNITY\VC\TOOLS\MSVC\14.16.27023\INCLUDE\TUPLE
D:\LIB\OPENCV_420\OPENCV\SOURCES\MODULES\CORE\INCLUDE\OPENCV2\CORE\VERSION.HPP
D:\LIB\OPENCV_420\OPENCV\SOURCES\MODULES\CORE\INCLUDE\OPENCV2\CORE\BASE.HPP
D:\LIB\OPENCV_420\BUILDR001\OPENCV2\OPENCV_MODULES.HPP
D:\LIB\OPENCV_420\OPENCV\SOURCES\MODULES\CORE\INCLUDE\OPENCV2\CORE\CVSTD.HPP
C:\PROGRAM FILES (X86)\MICROSOFT VISUAL STUDIO\2017\COMMUNITY\VC\TOOLS\MSVC\14.16.27023\INCLUDE\CCTYPE
C:\PROGRAM FILES (X86)\MICROSOFT VISUAL STUDIO\2017\COMMUNITY\VC\TOOLS\MSVC\14.16.27023\INCLUDE\STRING
C:\PROGRAM FILES (X86)\MICROSOFT VISUAL STUDIO\2017\COMMUNITY\VC\TOOLS\MSVC\14.16.27023\INCLUDE\XSTRING_INSERT.H
D:\LIB\OPENCV_420\OPENCV\SOURCES\MODULES\CORE\INCLUDE\OPENCV2\CORE\CVSTD_WRAPPER.HPP
D:\LIB\OPENCV_420\OPENCV\SOURCES\MODULES\CORE\INCLUDE\OPENCV2\CORE\NEON_UTILS.HPP
D:\LIB\OPENCV_420\OPENCV\SOURCES\MODULES\CORE\INCLUDE\OPENCV2\CORE\VSX_UTILS.HPP
C:\PROGRAM FILES (X86)\WINDOWS KITS\10\INCLUDE\10.0.17763.0\UCRT\ASSERT.H
D:\LIB\OPENCV_420\OPENCV\SOURCES\MODULES\CORE\INCLUDE\OPENCV2\CORE\CHECK.HPP
D:\LIB\OPENCV_420\OPENCV\SOURCES\MODULES\CORE\INCLUDE\OPENCV2\CORE\TRAITS.HPP
D:\LIB\OPENCV_420\OPENCV\SOURCES\MODULES\CORE\INCLUDE\OPENCV2\CORE\MATX.HPP
D:\LIB\OPENCV_420\OPENCV\SOURCES\MODULES\CORE\INCLUDE\OPENCV2\CORE\SATURATE.HPP
D:\LIB\OPENCV_420\OPENCV\SOURCES\MODULES\CORE\INCLUDE\OPENCV2\CORE\FAST_MATH.HPP
D:\LIB\OPENCV_420\OPENCV\SOURCES\MODULES\CORE\INCLUDE\OPENCV2\CORE\TYPES.HPP
C:\PROGRAM FILES (X86)\MICROSOFT VISUAL STUDIO\2017\COMMUNITY\VC\TOOLS\MSVC\14.16.27023\INCLUDE\VECTOR
D:\LIB\OPENCV_420\OPENCV\SOURCES\MODULES\CORE\INCLUDE\OPENCV2\CORE\MAT.HPP
D:\LIB\OPENCV_420\OPENCV\SOURCES\MODULES\CORE\INCLUDE\OPENCV2\CORE\BUFFERPOOL.HPP
D:\LIB\OPENCV_420\OPENCV\SOURCES\MODULES\CORE\INCLUDE\OPENCV2\CORE\MAT.INL.HPP
D:\LIB\OPENCV_420\OPENCV\SOURCES\MODULES\CORE\INCLUDE\OPENCV2\CORE\PERSISTENCE.HPP
D:\LIB\OPENCV_420\OPENCV\SOURCES\MODULES\CORE\INCLUDE\OPENCV2\CORE\OPERATIONS.HPP
D:\LIB\OPENCV_420\OPENCV\SOURCES\MODULES\CORE\INCLUDE\OPENCV2\CORE\CVSTD.INL.HPP
C:\PROGRAM FILES (X86)\MICROSOFT VISUAL STUDIO\2017\COMMUNITY\VC\TOOLS\MSVC\14.16.27023\INCLUDE\COMPLEX
C:\PROGRAM FILES (X86)\MICROSOFT VISUAL STUDIO\2017\COMMUNITY\VC\TOOLS\MSVC\14.16.27023\INCLUDE\SSTREAM
D:\LIB\OPENCV_420\OPENCV\SOURCES\MODULES\CORE\INCLUDE\OPENCV2\CORE\UTILITY.HPP
C:\PROGRAM FILES (X86)\MICROSOFT VISUAL STUDIO\2017\COMMUNITY\VC\TOOLS\MSVC\14.16.27023\INCLUDE\FUNCTIONAL
C:\PROGRAM FILES (X86)\MICROSOFT VISUAL STUDIO\2017\COMMUNITY\VC\TOOLS\MSVC\14.16.27023\INCLUDE\MUTEX
C:\PROGRAM FILES (X86)\MICROSOFT VISUAL STUDIO\2017\COMMUNITY\VC\TOOLS\MSVC\14.16.27023\INCLUDE\CHRONO
C:\PROGRAM FILES (X86)\MICROSOFT VISUAL STUDIO\2017\COMMUNITY\VC\TOOLS\MSVC\14.16.27023\INCLUDE\RATIO
C:\PROGRAM FILES (X86)\WINDOWS KITS\10\INCLUDE\10.0.17763.0\UCRT\TIME.H
C:\PROGRAM FILES (X86)\MICROSOFT VISUAL STUDIO\2017\COMMUNITY\VC\TOOLS\MSVC\14.16.27023\INCLUDE\THR\XTIMEC.H
C:\PROGRAM FILES (X86)\MICROSOFT VISUAL STUDIO\2017\COMMUNITY\VC\TOOLS\MSVC\14.16.27023\INCLUDE\THR\XTHRCOMMON.H
C:\PROGRAM FILES (X86)\MICROSOFT VISUAL STUDIO\2017\COMMUNITY\VC\TOOLS\MSVC\14.16.27023\INCLUDE\THREAD
C:\PROGRAM FILES (X86)\MICROSOFT VISUAL STUDIO\2017\COMMUNITY\VC\TOOLS\MSVC\14.16.27023\INCLUDE\THR\XTHREAD
C:\PROGRAM FILES (X86)\MICROSOFT VISUAL STUDIO\2017\COMMUNITY\VC\TOOLS\MSVC\14.16.27023\INCLUDE\THR\XTIME
C:\PROGRAM FILES (X86)\MICROSOFT VISUAL STUDIO\2017\COMMUNITY\VC\TOOLS\MSVC\14.16.27023\INCLUDE\THR\XTHREADS.H
D:\LIB\OPENCV_420\OPENCV\SOURCES\MODULES\CORE\INCLUDE\OPENCV2\CORE\OPTIM.HPP
D:\LIB\OPENCV_420\OPENCV\SOURCES\MODULES\CORE\INCLUDE\OPENCV2\CORE\OVX.HPP
D:\LIB\OPENCV_420\OPENCV\SOURCES\MODULES\IMGPROC\INCLUDE\OPENCV2\IMGPROC\IMGPROC_C.H
D:\LIB\OPENCV_420\OPENCV\SOURCES\MODULES\IMGPROC\INCLUDE\OPENCV2\IMGPROC\TYPES_C.H
D:\LIB\OPENCV_420\OPENCV\SOURCES\MODULES\CORE\INCLUDE\OPENCV2\CORE\CORE_C.H
D:\LIB\OPENCV_420\OPENCV\SOURCES\MODULES\CORE\INCLUDE\OPENCV2\CORE\TYPES_C.H
D:\LIB\OPENCV_420\OPENCV\SOURCES\MODULES\CORE\INCLUDE\OPENCV2\CORE\PRIVATE.HPP
D:\LIB\OPENCV_420\OPENCV\SOURCES\MODULES\CORE\INCLUDE\OPENCV2\CORE\UTILS\TRACE.HPP
D:\LIB\EIGEN_LIB\EIGEN\EIGEN\CORE
D:\LIB\EIGEN_LIB\EIGEN\EIGEN\SRC\CORE\UTIL\DISABLESTUPIDWARNINGS.H
D:\LIB\EIGEN_LIB\EIGEN\EIGEN\SRC\CORE\UTIL\MACROS.H
D:\LIB\EIGEN_LIB\EIGEN\EIGEN\SRC\CORE\UTIL\MKL_SUPPORT.H
C:\PROGRAM FILES (X86)\MICROSOFT VISUAL STUDIO\2017\COMMUNITY\VC\TOOLS\MSVC\14.16.27023\INCLUDE\CASSERT
D:\LIB\EIGEN_LIB\EIGEN\EIGEN\SRC\CORE\UTIL\CONSTANTS.H
D:\LIB\EIGEN_LIB\EIGEN\EIGEN\SRC\CORE\UTIL\META.H
D:\LIB\EIGEN_LIB\EIGEN\EIGEN\SRC\CORE\UTIL\FORWARDDECLARATIONS.H
D:\LIB\EIGEN_LIB\EIGEN\EIGEN\SRC\CORE\UTIL\STATICASSERT.H
D:\LIB\EIGEN_LIB\EIGEN\EIGEN\SRC\CORE\UTIL\XPRHELPER.H
D:\LIB\EIGEN_LIB\EIGEN\EIGEN\SRC\CORE\UTIL\MEMORY.H
D:\LIB\EIGEN_LIB\EIGEN\EIGEN\SRC\CORE\NUMTRAITS.H
D:\LIB\EIGEN_LIB\EIGEN\EIGEN\SRC\CORE\MATHFUNCTIONS.H
D:\LIB\EIGEN_LIB\EIGEN\EIGEN\SRC\CORE\GENERICPACKETMATH.H
D:\LIB\EIGEN_LIB\EIGEN\EIGEN\SRC\CORE\MATHFUNCTIONSIMPL.H
D:\LIB\EIGEN_LIB\EIGEN\EIGEN\SRC\CORE\ARCH\SSE\PACKETMATH.H
D:\LIB\EIGEN_LIB\EIGEN\EIGEN\SRC\CORE\ARCH\SSE\COMPLEX.H
D:\LIB\EIGEN_LIB\EIGEN\EIGEN\SRC\CORE\ARCH\SSE\MATHFUNCTIONS.H
D:\LIB\EIGEN_LIB\EIGEN\EIGEN\SRC\CORE\ARCH\AVX\PACKETMATH.H
D:\LIB\EIGEN_LIB\EIGEN\EIGEN\SRC\CORE\ARCH\AVX\MATHFUNCTIONS.H
D:\LIB\EIGEN_LIB\EIGEN\EIGEN\SRC\CORE\ARCH\AVX\COMPLEX.H
D:\LIB\EIGEN_LIB\EIGEN\EIGEN\SRC\CORE\ARCH\AVX\TYPECASTING.H
D:\LIB\EIGEN_LIB\EIGEN\EIGEN\SRC\CORE\ARCH\CUDA\HALF.H
D:\LIB\EIGEN_LIB\EIGEN\EIGEN\SRC\CORE\ARCH\CUDA\PACKETMATHHALF.H
D:\LIB\EIGEN_LIB\EIGEN\EIGEN\SRC\CORE\ARCH\CUDA\TYPECASTING.H
D:\LIB\EIGEN_LIB\EIGEN\EIGEN\SRC\CORE\ARCH\DEFAULT\SETTINGS.H
D:\LIB\EIGEN_LIB\EIGEN\EIGEN\SRC\CORE\FUNCTORS\TERNARYFUNCTORS.H
D:\LIB\EIGEN_LIB\EIGEN\EIGEN\SRC\CORE\FUNCTORS\BINARYFUNCTORS.H
D:\LIB\EIGEN_LIB\EIGEN\EIGEN\SRC\CORE\FUNCTORS\UNARYFUNCTORS.H
D:\LIB\EIGEN_LIB\EIGEN\EIGEN\SRC\CORE\FUNCTORS\NULLARYFUNCTORS.H
D:\LIB\EIGEN_LIB\EIGEN\EIGEN\SRC\CORE\FUNCTORS\STLFUNCTORS.H
D:\LIB\EIGEN_LIB\EIGEN\EIGEN\SRC\CORE\FUNCTORS\ASSIGNMENTFUNCTORS.H
D:\LIB\EIGEN_LIB\EIGEN\EIGEN\SRC\CORE\ARCH\CUDA\COMPLEX.H
D:\LIB\EIGEN_LIB\EIGEN\EIGEN\SRC\CORE\IO.H
D:\LIB\EIGEN_LIB\EIGEN\EIGEN\SRC\CORE\DENSECOEFFSBASE.H
D:\LIB\EIGEN_LIB\EIGEN\EIGEN\SRC\CORE\DENSEBASE.H
D:\LIB\EIGEN_LIB\EIGEN\EIGEN\SRC\PLUGINS\BLOCKMETHODS.H
D:\LIB\EIGEN_LIB\EIGEN\EIGEN\SRC\CORE\MATRIXBASE.H
D:\LIB\EIGEN_LIB\EIGEN\EIGEN\SRC\PLUGINS\COMMONCWISEUNARYOPS.H
D:\LIB\EIGEN_LIB\EIGEN\EIGEN\SRC\PLUGINS\COMMONCWISEBINARYOPS.H
D:\LIB\EIGEN_LIB\EIGEN\EIGEN\SRC\PLUGINS\MATRIXCWISEUNARYOPS.H
D:\LIB\EIGEN_LIB\EIGEN\EIGEN\SRC\PLUGINS\MATRIXCWISEBINARYOPS.H
D:\LIB\EIGEN_LIB\EIGEN\EIGEN\SRC\CORE\EIGENBASE.H
D:\LIB\EIGEN_LIB\EIGEN\EIGEN\SRC\CORE\PRODUCT.H
D:\LIB\EIGEN_LIB\EIGEN\EIGEN\SRC\CORE\COREEVALUATORS.H
D:\LIB\EIGEN_LIB\EIGEN\EIGEN\SRC\CORE\ASSIGNEVALUATOR.H
D:\LIB\EIGEN_LIB\EIGEN\EIGEN\SRC\CORE\ASSIGN.H
D:\LIB\EIGEN_LIB\EIGEN\EIGEN\SRC\CORE\ARRAYBASE.H
D:\LIB\EIGEN_LIB\EIGEN\EIGEN\SRC\PLUGINS\ARRAYCWISEUNARYOPS.H
D:\LIB\EIGEN_LIB\EIGEN\EIGEN\SRC\PLUGINS\ARRAYCWISEBINARYOPS.H
D:\LIB\EIGEN_LIB\EIGEN\EIGEN\SRC\CORE\UTIL\BLASUTIL.H
D:\LIB\EIGEN_LIB\EIGEN\EIGEN\SRC\CORE\DENSESTORAGE.H
D:\LIB\EIGEN_LIB\EIGEN\EIGEN\SRC\CORE\NESTBYVALUE.H
D:\LIB\EIGEN_LIB\EIGEN\EIGEN\SRC\CORE\RETURNBYVALUE.H
D:\LIB\EIGEN_LIB\EIGEN\EIGEN\SRC\CORE\NOALIAS.H
D:\LIB\EIGEN_LIB\EIGEN\EIGEN\SRC\CORE\PLAINOBJECTBASE.H
D:\LIB\EIGEN_LIB\EIGEN\EIGEN\SRC\CORE\MATRIX.H
D:\LIB\EIGEN_LIB\EIGEN\EIGEN\SRC\CORE\ARRAY.H
D:\LIB\EIGEN_LIB\EIGEN\EIGEN\SRC\CORE\CWISETERNARYOP.H
D:\LIB\EIGEN_LIB\EIGEN\EIGEN\SRC\CORE\CWISEBINARYOP.H
D:\LIB\EIGEN_LIB\EIGEN\EIGEN\SRC\CORE\CWISEUNARYOP.H
D:\LIB\EIGEN_LIB\EIGEN\EIGEN\SRC\CORE\CWISENULLARYOP.H
D:\LIB\EIGEN_LIB\EIGEN\EIGEN\SRC\CORE\CWISEUNARYVIEW.H
D:\LIB\EIGEN_LIB\EIGEN\EIGEN\SRC\CORE\SELFCWISEBINARYOP.H
D:\LIB\EIGEN_LIB\EIGEN\EIGEN\SRC\CORE\DOT.H
D:\LIB\EIGEN_LIB\EIGEN\EIGEN\SRC\CORE\STABLENORM.H
D:\LIB\EIGEN_LIB\EIGEN\EIGEN\SRC\CORE\STRIDE.H
D:\LIB\EIGEN_LIB\EIGEN\EIGEN\SRC\CORE\MAPBASE.H
D:\LIB\EIGEN_LIB\EIGEN\EIGEN\SRC\CORE\MAP.H
D:\LIB\EIGEN_LIB\EIGEN\EIGEN\SRC\CORE\REF.H
D:\LIB\EIGEN_LIB\EIGEN\EIGEN\SRC\CORE\BLOCK.H
D:\LIB\EIGEN_LIB\EIGEN\EIGEN\SRC\CORE\VECTORBLOCK.H
D:\LIB\EIGEN_LIB\EIGEN\EIGEN\SRC\CORE\TRANSPOSE.H
D:\LIB\EIGEN_LIB\EIGEN\EIGEN\SRC\CORE\DIAGONALMATRIX.H
D:\LIB\EIGEN_LIB\EIGEN\EIGEN\SRC\CORE\DIAGONAL.H
D:\LIB\EIGEN_LIB\EIGEN\EIGEN\SRC\CORE\DIAGONALPRODUCT.H
D:\LIB\EIGEN_LIB\EIGEN\EIGEN\SRC\CORE\REDUX.H
D:\LIB\EIGEN_LIB\EIGEN\EIGEN\SRC\CORE\VISITOR.H
D:\LIB\EIGEN_LIB\EIGEN\EIGEN\SRC\CORE\FUZZY.H
D:\LIB\EIGEN_LIB\EIGEN\EIGEN\SRC\CORE\SWAP.H
D:\LIB\EIGEN_LIB\EIGEN\EIGEN\SRC\CORE\COMMAINITIALIZER.H
D:\LIB\EIGEN_LIB\EIGEN\EIGEN\SRC\CORE\GENERALPRODUCT.H
D:\LIB\EIGEN_LIB\EIGEN\EIGEN\SRC\CORE\SOLVE.H
D:\LIB\EIGEN_LIB\EIGEN\EIGEN\SRC\CORE\INVERSE.H
D:\LIB\EIGEN_LIB\EIGEN\EIGEN\SRC\CORE\SOLVERBASE.H
D:\LIB\EIGEN_LIB\EIGEN\EIGEN\SRC\CORE\PERMUTATIONMATRIX.H
D:\LIB\EIGEN_LIB\EIGEN\EIGEN\SRC\CORE\TRANSPOSITIONS.H
D:\LIB\EIGEN_LIB\EIGEN\EIGEN\SRC\CORE\TRIANGULARMATRIX.H
D:\LIB\EIGEN_LIB\EIGEN\EIGEN\SRC\CORE\SELFADJOINTVIEW.H
D:\LIB\EIGEN_LIB\EIGEN\EIGEN\SRC\CORE\PRODUCTS\GENERALBLOCKPANELKERNEL.H
D:\LIB\EIGEN_LIB\EIGEN\EIGEN\SRC\CORE\PRODUCTS\PARALLELIZER.H
D:\LIB\EIGEN_LIB\EIGEN\EIGEN\SRC\CORE\PRODUCTEVALUATORS.H
D:\LIB\EIGEN_LIB\EIGEN\EIGEN\SRC\CORE\PRODUCTS\GENERALMATRIXVECTOR.H
D:\LIB\EIGEN_LIB\EIGEN\EIGEN\SRC\CORE\PRODUCTS\GENERALMATRIXMATRIX.H
D:\LIB\EIGEN_LIB\EIGEN\EIGEN\SRC\CORE\SOLVETRIANGULAR.H
D:\LIB\EIGEN_LIB\EIGEN\EIGEN\SRC\CORE\PRODUCTS\GENERALMATRIXMATRIXTRIANGULAR.H
D:\LIB\EIGEN_LIB\EIGEN\EIGEN\SRC\CORE\PRODUCTS\SELFADJOINTMATRIXVECTOR.H
D:\LIB\EIGEN_LIB\EIGEN\EIGEN\SRC\CORE\PRODUCTS\SELFADJOINTMATRIXMATRIX.H
D:\LIB\EIGEN_LIB\EIGEN\EIGEN\SRC\CORE\PRODUCTS\SELFADJOINTPRODUCT.H
D:\LIB\EIGEN_LIB\EIGEN\EIGEN\SRC\CORE\PRODUCTS\SELFADJOINTRANK2UPDATE.H
D:\LIB\EIGEN_LIB\EIGEN\EIGEN\SRC\CORE\PRODUCTS\TRIANGULARMATRIXVECTOR.H
D:\LIB\EIGEN_LIB\EIGEN\EIGEN\SRC\CORE\PRODUCTS\TRIANGULARMATRIXMATRIX.H
D:\LIB\EIGEN_LIB\EIGEN\EIGEN\SRC\CORE\PRODUCTS\TRIANGULARSOLVERMATRIX.H
D:\LIB\EIGEN_LIB\EIGEN\EIGEN\SRC\CORE\PRODUCTS\TRIANGULARSOLVERVECTOR.H
D:\LIB\EIGEN_LIB\EIGEN\EIGEN\SRC\CORE\BANDMATRIX.H
D:\LIB\EIGEN_LIB\EIGEN\EIGEN\SRC\CORE\COREITERATORS.H
D:\LIB\EIGEN_LIB\EIGEN\EIGEN\SRC\CORE\CONDITIONESTIMATOR.H
D:\LIB\EIGEN_LIB\EIGEN\EIGEN\SRC\CORE\BOOLEANREDUX.H
D:\LIB\EIGEN_LIB\EIGEN\EIGEN\SRC\CORE\SELECT.H
D:\LIB\EIGEN_LIB\EIGEN\EIGEN\SRC\CORE\VECTORWISEOP.H
D:\LIB\EIGEN_LIB\EIGEN\EIGEN\SRC\CORE\RANDOM.H
D:\LIB\EIGEN_LIB\EIGEN\EIGEN\SRC\CORE\REPLICATE.H
D:\LIB\EIGEN_LIB\EIGEN\EIGEN\SRC\CORE\REVERSE.H
D:\LIB\EIGEN_LIB\EIGEN\EIGEN\SRC\CORE\ARRAYWRAPPER.H
D:\LIB\EIGEN_LIB\EIGEN\EIGEN\SRC\CORE\GLOBALFUNCTIONS.H
D:\LIB\EIGEN_LIB\EIGEN\EIGEN\SRC\CORE\UTIL\REENABLESTUPIDWARNINGS.H
D:\LIB\OPENCV_420\OPENCV\SOURCES\MODULES\CORE\INCLUDE\OPENCV2\CORE\EIGEN.HPP
D:\LIB\OPENCV_420\BUILDR001\3RDPARTY\IPPICV\IPPICV_WIN\ICV\INCLUDE\IPPVERSION.H
D:\LIB\OPENCV_420\BUILDR001\3RDPARTY\IPPICV\IPPICV_WIN\ICV\INCLUDE\IPPICV.H
D:\LIB\OPENCV_420\BUILDR001\3RDPARTY\IPPICV\IPPICV_WIN\ICV\INCLUDE\IPPICV_L.H
D:\LIB\OPENCV_420\BUILDR001\3RDPARTY\IPPICV\IPPICV_WIN\ICV\INCLUDE\IPPICV_DEFS_L.H
D:\LIB\OPENCV_420\BUILDR001\3RDPARTY\IPPICV\IPPICV_WIN\ICV\INCLUDE\IPPICV_DEFS.H
D:\LIB\OPENCV_420\BUILDR001\3RDPARTY\IPPICV\IPPICV_WIN\ICV\INCLUDE\IPPICV_BASE.H
D:\LIB\OPENCV_420\BUILDR001\3RDPARTY\IPPICV\IPPICV_WIN\ICV\INCLUDE\IPPICV_TYPES.H
D:\LIB\OPENCV_420\BUILDR001\3RDPARTY\IPPICV\IPPICV_WIN\ICV\INCLUDE\IPPICV_TYPES_L.H
D:\LIB\OPENCV_420\BUILDR001\3RDPARTY\IPPICV\IPPICV_WIN\ICV\INCLUDE\IPPICV_REDEFS.H
D:\LIB\OPENCV_420\BUILDR001\3RDPARTY\IPPICV\IPPICV_WIN\IW\INCLUDE\IW++\IW.HPP
D:\LIB\OPENCV_420\BUILDR001\3RDPARTY\IPPICV\IPPICV_WIN\IW\INCLUDE\IW++\IW_CORE.HPP
D:\LIB\OPENCV_420\BUILDR001\3RDPARTY\IPPICV\IPPICV_WIN\IW\INCLUDE\IW\IW_CORE.H
D:\LIB\OPENCV_420\BUILDR001\3RDPARTY\IPPICV\IPPICV_WIN\IW\INCLUDE\IW\IW_VERSION.H
D:\LIB\OPENCV_420\BUILDR001\3RDPARTY\IPPICV\IPPICV_WIN\IW\INCLUDE\IW++\IW_IMAGE_COLOR.HPP
D:\LIB\OPENCV_420\BUILDR001\3RDPARTY\IPPICV\IPPICV_WIN\IW\INCLUDE\IW\IW_IMAGE_COLOR.H
D:\LIB\OPENCV_420\BUILDR001\3RDPARTY\IPPICV\IPPICV_WIN\IW\INCLUDE\IW\IW_IMAGE.H
D:\LIB\OPENCV_420\BUILDR001\3RDPARTY\IPPICV\IPPICV_WIN\IW\INCLUDE\IW++\IW_IMAGE.HPP
D:\LIB\OPENCV_420\BUILDR001\3RDPARTY\IPPICV\IPPICV_WIN\IW\INCLUDE\IW\IW_IMAGE_OP.H
D:\LIB\OPENCV_420\BUILDR001\3RDPARTY\IPPICV\IPPICV_WIN\IW\INCLUDE\IW++\IW_IMAGE_FILTER.HPP
D:\LIB\OPENCV_420\BUILDR001\3RDPARTY\IPPICV\IPPICV_WIN\IW\INCLUDE\IW\IW_IMAGE_FILTER.H
D:\LIB\OPENCV_420\BUILDR001\3RDPARTY\IPPICV\IPPICV_WIN\IW\INCLUDE\IW++\IW_IMAGE_OP.HPP
D:\LIB\OPENCV_420\BUILDR001\3RDPARTY\IPPICV\IPPICV_WIN\IW\INCLUDE\IW++\IW_IMAGE_TRANSFORM.HPP
D:\LIB\OPENCV_420\BUILDR001\3RDPARTY\IPPICV\IPPICV_WIN\IW\INCLUDE\IW\IW_IMAGE_TRANSFORM.H
D:\LIB\OPENCV_420\BUILDR001\3RDPARTY\IPPICV\IPPICV_WIN\IW\INCLUDE\IW\IW_LL.H
D:\LIB\OPENCV_420\OPENCV\SOURCES\MODULES\CORE\INCLUDE\OPENCV2\CORE\OCL.HPP
D:\LIB\OPENCV_420\OPENCV\SOURCES\MODULES\CORE\INCLUDE\OPENCV2\CORE\HAL\HAL.HPP
D:\LIB\OPENCV_420\OPENCV\SOURCES\MODULES\IMGPROC\INCLUDE\OPENCV2\IMGPROC\HAL\HAL.HPP
D:\LIB\OPENCV_420\OPENCV\SOURCES\MODULES\IMGPROC\SRC\HAL_REPLACEMENT.HPP
D:\LIB\OPENCV_420\OPENCV\SOURCES\MODULES\IMGPROC\INCLUDE\OPENCV2\IMGPROC\HAL\INTERFACE.H
D:\LIB\OPENCV_420\BUILDR001\CUSTOM_HAL.HPP
D:\LIB\OPENCV_420\OPENCV\SOURCES\MODULES\IMGPROC\SRC\_GEOM.H
D:\LIB\OPENCV_420\OPENCV\SOURCES\MODULES\IMGPROC\SRC\FILTERENGINE.HPP
D:\LIB\OPENCV_420\OPENCV\SOURCES\MODULES\CORE\INCLUDE\OPENCV2\CORE\SSE_UTILS.HPP
D:\LIB\OPENCV_420\OPENCV\SOURCES\MODULES\IMGPROC\SRC\ACCUM.SIMD.HPP
D:\LIB\OPENCV_420\OPENCV\SOURCES\MODULES\CORE\INCLUDE\OPENCV2\CORE\HAL\INTRIN.HPP
D:\LIB\OPENCV_420\OPENCV\SOURCES\MODULES\CORE\INCLUDE\OPENCV2\CORE\HAL\INTRIN_FORWARD.HPP
D:\LIB\OPENCV_420\OPENCV\SOURCES\MODULES\CORE\INCLUDE\OPENCV2\CORE\HAL\INTRIN_SSE_EM.HPP
D:\LIB\OPENCV_420\OPENCV\SOURCES\MODULES\CORE\INCLUDE\OPENCV2\CORE\HAL\INTRIN_SSE.HPP
D:\LIB\OPENCV_420\OPENCV\SOURCES\MODULES\CORE\INCLUDE\OPENCV2\CORE\HAL\SIMD_UTILS.IMPL.HPP
^D:\LIB\OPENCV_420\BUILDR001\MODULES\WORLD\LAYERS\LAYERS_COMMON.AVX.CPP
D:\LIB\OPENCV_420\OPENCV\SOURCES\MODULES\DNN\SRC\PRECOMP.HPP
D:\LIB\OPENCV_420\OPENCV\SOURCES\MODULES\CORE\INCLUDE\OPENCV2\CORE.HPP
D:\LIB\OPENCV_420\OPENCV\SOURCES\MODULES\CORE\INCLUDE\OPENCV2\CORE\CVDEF.H
D:\LIB\OPENCV_420\BUILDR001\CVCONFIG.H
C:\PROGRAM FILES (X86)\MICROSOFT VISUAL STUDIO\2017\COMMUNITY\VC\TOOLS\MSVC\14.16.27023\INCLUDE\LIMITS.H
C:\PROGRAM FILES (X86)\MICROSOFT VISUAL STUDIO\2017\COMMUNITY\VC\TOOLS\MSVC\14.16.27023\INCLUDE\VCRUNTIME.H
C:\PROGRAM FILES (X86)\MICROSOFT VISUAL STUDIO\2017\COMMUNITY\VC\TOOLS\MSVC\14.16.27023\INCLUDE\SAL.H
C:\PROGRAM FILES (X86)\MICROSOFT VISUAL STUDIO\2017\COMMUNITY\VC\TOOLS\MSVC\14.16.27023\INCLUDE\CONCURRENCYSAL.H
C:\PROGRAM FILES (X86)\MICROSOFT VISUAL STUDIO\2017\COMMUNITY\VC\TOOLS\MSVC\14.16.27023\INCLUDE\VADEFS.H
D:\LIB\OPENCV_420\OPENCV\SOURCES\MODULES\CORE\INCLUDE\OPENCV2\CORE\HAL\INTERFACE.H
C:\PROGRAM FILES (X86)\MICROSOFT VISUAL STUDIO\2017\COMMUNITY\VC\TOOLS\MSVC\14.16.27023\INCLUDE\CSTDDEF
C:\PROGRAM FILES (X86)\WINDOWS KITS\10\INCLUDE\10.0.17763.0\UCRT\STDDEF.H
C:\PROGRAM FILES (X86)\WINDOWS KITS\10\INCLUDE\10.0.17763.0\UCRT\CORECRT.H
C:\PROGRAM FILES (X86)\MICROSOFT VISUAL STUDIO\2017\COMMUNITY\VC\TOOLS\MSVC\14.16.27023\INCLUDE\XTR1COMMON
C:\PROGRAM FILES (X86)\MICROSOFT VISUAL STUDIO\2017\COMMUNITY\VC\TOOLS\MSVC\14.16.27023\INCLUDE\YVALS_CORE.H
C:\PROGRAM FILES (X86)\MICROSOFT VISUAL STUDIO\2017\COMMUNITY\VC\TOOLS\MSVC\14.16.27023\INCLUDE\XKEYCHECK.H
C:\PROGRAM FILES (X86)\MICROSOFT VISUAL STUDIO\2017\COMMUNITY\VC\TOOLS\MSVC\14.16.27023\INCLUDE\CRTDEFS.H
D:\LIB\OPENCV_420\OPENCV\SOURCES\MODULES\CORE\INCLUDE\OPENCV2\CORE\CV_CPU_DISPATCH.H
D:\LIB\OPENCV_420\BUILDR001\CV_CPU_CONFIG.H
D:\LIB\OPENCV_420\OPENCV\SOURCES\MODULES\CORE\INCLUDE\OPENCV2\CORE\CV_CPU_HELPER.H
C:\PROGRAM FILES (X86)\MICROSOFT VISUAL STUDIO\2017\COMMUNITY\VC\TOOLS\MSVC\14.16.27023\INCLUDE\EMMINTRIN.H
C:\PROGRAM FILES (X86)\MICROSOFT VISUAL STUDIO\2017\COMMUNITY\VC\TOOLS\MSVC\14.16.27023\INCLUDE\XMMINTRIN.H
C:\PROGRAM FILES (X86)\MICROSOFT VISUAL STUDIO\2017\COMMUNITY\VC\TOOLS\MSVC\14.16.27023\INCLUDE\MMINTRIN.H
C:\PROGRAM FILES (X86)\WINDOWS KITS\10\INCLUDE\10.0.17763.0\UCRT\MALLOC.H
C:\PROGRAM FILES (X86)\WINDOWS KITS\10\INCLUDE\10.0.17763.0\UCRT\CORECRT_MALLOC.H
C:\PROGRAM FILES (X86)\MICROSOFT VISUAL STUDIO\2017\COMMUNITY\VC\TOOLS\MSVC\14.16.27023\INCLUDE\PMMINTRIN.H
C:\PROGRAM FILES (X86)\MICROSOFT VISUAL STUDIO\2017\COMMUNITY\VC\TOOLS\MSVC\14.16.27023\INCLUDE\TMMINTRIN.H
C:\PROGRAM FILES (X86)\MICROSOFT VISUAL STUDIO\2017\COMMUNITY\VC\TOOLS\MSVC\14.16.27023\INCLUDE\SMMINTRIN.H
C:\PROGRAM FILES (X86)\MICROSOFT VISUAL STUDIO\2017\COMMUNITY\VC\TOOLS\MSVC\14.16.27023\INCLUDE\NMMINTRIN.H
C:\PROGRAM FILES (X86)\MICROSOFT VISUAL STUDIO\2017\COMMUNITY\VC\TOOLS\MSVC\14.16.27023\INCLUDE\IMMINTRIN.H
C:\PROGRAM FILES (X86)\MICROSOFT VISUAL STUDIO\2017\COMMUNITY\VC\TOOLS\MSVC\14.16.27023\INCLUDE\WMMINTRIN.H
C:\PROGRAM FILES (X86)\MICROSOFT VISUAL STUDIO\2017\COMMUNITY\VC\TOOLS\MSVC\14.16.27023\INCLUDE\ZMMINTRIN.H
C:\PROGRAM FILES (X86)\MICROSOFT VISUAL STUDIO\2017\COMMUNITY\VC\TOOLS\MSVC\14.16.27023\INCLUDE\INTRIN.H
C:\PROGRAM FILES (X86)\MICROSOFT VISUAL STUDIO\2017\COMMUNITY\VC\TOOLS\MSVC\14.16.27023\INCLUDE\INTRIN0.H
C:\PROGRAM FILES (X86)\MICROSOFT VISUAL STUDIO\2017\COMMUNITY\VC\TOOLS\MSVC\14.16.27023\INCLUDE\SETJMP.H
C:\PROGRAM FILES (X86)\MICROSOFT VISUAL STUDIO\2017\COMMUNITY\VC\TOOLS\MSVC\14.16.27023\INCLUDE\AMMINTRIN.H
C:\PROGRAM FILES (X86)\MICROSOFT VISUAL STUDIO\2017\COMMUNITY\VC\TOOLS\MSVC\14.16.27023\INCLUDE\ARRAY
C:\PROGRAM FILES (X86)\MICROSOFT VISUAL STUDIO\2017\COMMUNITY\VC\TOOLS\MSVC\14.16.27023\INCLUDE\ALGORITHM
C:\PROGRAM FILES (X86)\MICROSOFT VISUAL STUDIO\2017\COMMUNITY\VC\TOOLS\MSVC\14.16.27023\INCLUDE\XMEMORY
C:\PROGRAM FILES (X86)\MICROSOFT VISUAL STUDIO\2017\COMMUNITY\VC\TOOLS\MSVC\14.16.27023\INCLUDE\XMEMORY0
C:\PROGRAM FILES (X86)\MICROSOFT VISUAL STUDIO\2017\COMMUNITY\VC\TOOLS\MSVC\14.16.27023\INCLUDE\CSTDINT
C:\PROGRAM FILES (X86)\MICROSOFT VISUAL STUDIO\2017\COMMUNITY\VC\TOOLS\MSVC\14.16.27023\INCLUDE\YVALS.H
C:\PROGRAM FILES (X86)\WINDOWS KITS\10\INCLUDE\10.0.17763.0\UCRT\CRTDBG.H
C:\PROGRAM FILES (X86)\MICROSOFT VISUAL STUDIO\2017\COMMUNITY\VC\TOOLS\MSVC\14.16.27023\INCLUDE\VCRUNTIME_NEW_DEBUG.H
C:\PROGRAM FILES (X86)\MICROSOFT VISUAL STUDIO\2017\COMMUNITY\VC\TOOLS\MSVC\14.16.27023\INCLUDE\VCRUNTIME_NEW.H
C:\PROGRAM FILES (X86)\MICROSOFT VISUAL STUDIO\2017\COMMUNITY\VC\TOOLS\MSVC\14.16.27023\INCLUDE\USE_ANSI.H
C:\PROGRAM FILES (X86)\MICROSOFT VISUAL STUDIO\2017\COMMUNITY\VC\TOOLS\MSVC\14.16.27023\INCLUDE\STDINT.H
C:\PROGRAM FILES (X86)\MICROSOFT VISUAL STUDIO\2017\COMMUNITY\VC\TOOLS\MSVC\14.16.27023\INCLUDE\CSTDLIB
C:\PROGRAM FILES (X86)\WINDOWS KITS\10\INCLUDE\10.0.17763.0\UCRT\STDLIB.H
C:\PROGRAM FILES (X86)\WINDOWS KITS\10\INCLUDE\10.0.17763.0\UCRT\CORECRT_SEARCH.H
C:\PROGRAM FILES (X86)\WINDOWS KITS\10\INCLUDE\10.0.17763.0\UCRT\CORECRT_WSTDLIB.H
C:\PROGRAM FILES (X86)\WINDOWS KITS\10\INCLUDE\10.0.17763.0\UCRT\MATH.H
C:\PROGRAM FILES (X86)\WINDOWS KITS\10\INCLUDE\10.0.17763.0\UCRT\CORECRT_MATH.H
C:\PROGRAM FILES (X86)\WINDOWS KITS\10\INCLUDE\10.0.17763.0\UCRT\CORECRT_MATH_DEFINES.H
C:\PROGRAM FILES (X86)\MICROSOFT VISUAL STUDIO\2017\COMMUNITY\VC\TOOLS\MSVC\14.16.27023\INCLUDE\LIMITS
C:\PROGRAM FILES (X86)\MICROSOFT VISUAL STUDIO\2017\COMMUNITY\VC\TOOLS\MSVC\14.16.27023\INCLUDE\YMATH.H
C:\PROGRAM FILES (X86)\MICROSOFT VISUAL STUDIO\2017\COMMUNITY\VC\TOOLS\MSVC\14.16.27023\INCLUDE\CFLOAT
C:\PROGRAM FILES (X86)\WINDOWS KITS\10\INCLUDE\10.0.17763.0\UCRT\FLOAT.H
C:\PROGRAM FILES (X86)\MICROSOFT VISUAL STUDIO\2017\COMMUNITY\VC\TOOLS\MSVC\14.16.27023\INCLUDE\CLIMITS
C:\PROGRAM FILES (X86)\MICROSOFT VISUAL STUDIO\2017\COMMUNITY\VC\TOOLS\MSVC\14.16.27023\INCLUDE\CMATH
C:\PROGRAM FILES (X86)\MICROSOFT VISUAL STUDIO\2017\COMMUNITY\VC\TOOLS\MSVC\14.16.27023\INCLUDE\XTGMATH.H
C:\PROGRAM FILES (X86)\MICROSOFT VISUAL STUDIO\2017\COMMUNITY\VC\TOOLS\MSVC\14.16.27023\INCLUDE\CWCHAR
C:\PROGRAM FILES (X86)\WINDOWS KITS\10\INCLUDE\10.0.17763.0\UCRT\WCHAR.H
C:\PROGRAM FILES (X86)\WINDOWS KITS\10\INCLUDE\10.0.17763.0\UCRT\CORECRT_MEMCPY_S.H
C:\PROGRAM FILES (X86)\WINDOWS KITS\10\INCLUDE\10.0.17763.0\UCRT\ERRNO.H
C:\PROGRAM FILES (X86)\MICROSOFT VISUAL STUDIO\2017\COMMUNITY\VC\TOOLS\MSVC\14.16.27023\INCLUDE\VCRUNTIME_STRING.H
C:\PROGRAM FILES (X86)\WINDOWS KITS\10\INCLUDE\10.0.17763.0\UCRT\CORECRT_WCONIO.H
C:\PROGRAM FILES (X86)\WINDOWS KITS\10\INCLUDE\10.0.17763.0\UCRT\CORECRT_STDIO_CONFIG.H
C:\PROGRAM FILES (X86)\WINDOWS KITS\10\INCLUDE\10.0.17763.0\UCRT\CORECRT_WCTYPE.H
C:\PROGRAM FILES (X86)\WINDOWS KITS\10\INCLUDE\10.0.17763.0\UCRT\CORECRT_WDIRECT.H
C:\PROGRAM FILES (X86)\WINDOWS KITS\10\INCLUDE\10.0.17763.0\UCRT\CORECRT_WIO.H
C:\PROGRAM FILES (X86)\WINDOWS KITS\10\INCLUDE\10.0.17763.0\UCRT\CORECRT_SHARE.H
C:\PROGRAM FILES (X86)\WINDOWS KITS\10\INCLUDE\10.0.17763.0\UCRT\CORECRT_WPROCESS.H
C:\PROGRAM FILES (X86)\WINDOWS KITS\10\INCLUDE\10.0.17763.0\UCRT\CORECRT_WSTDIO.H
C:\PROGRAM FILES (X86)\WINDOWS KITS\10\INCLUDE\10.0.17763.0\UCRT\CORECRT_WSTRING.H
C:\PROGRAM FILES (X86)\WINDOWS KITS\10\INCLUDE\10.0.17763.0\UCRT\CORECRT_WTIME.H
C:\PROGRAM FILES (X86)\WINDOWS KITS\10\INCLUDE\10.0.17763.0\UCRT\SYS\STAT.H
C:\PROGRAM FILES (X86)\WINDOWS KITS\10\INCLUDE\10.0.17763.0\UCRT\SYS\TYPES.H
C:\PROGRAM FILES (X86)\MICROSOFT VISUAL STUDIO\2017\COMMUNITY\VC\TOOLS\MSVC\14.16.27023\INCLUDE\XSTDDEF
C:\PROGRAM FILES (X86)\MICROSOFT VISUAL STUDIO\2017\COMMUNITY\VC\TOOLS\MSVC\14.16.27023\INCLUDE\INITIALIZER_LIST
C:\PROGRAM FILES (X86)\MICROSOFT VISUAL STUDIO\2017\COMMUNITY\VC\TOOLS\MSVC\14.16.27023\INCLUDE\NEW
C:\PROGRAM FILES (X86)\MICROSOFT VISUAL STUDIO\2017\COMMUNITY\VC\TOOLS\MSVC\14.16.27023\INCLUDE\EXCEPTION
C:\PROGRAM FILES (X86)\MICROSOFT VISUAL STUDIO\2017\COMMUNITY\VC\TOOLS\MSVC\14.16.27023\INCLUDE\TYPE_TRAITS
C:\PROGRAM FILES (X86)\MICROSOFT VISUAL STUDIO\2017\COMMUNITY\VC\TOOLS\MSVC\14.16.27023\INCLUDE\VCRUNTIME_EXCEPTION.H
C:\PROGRAM FILES (X86)\MICROSOFT VISUAL STUDIO\2017\COMMUNITY\VC\TOOLS\MSVC\14.16.27023\INCLUDE\EH.H
C:\PROGRAM FILES (X86)\WINDOWS KITS\10\INCLUDE\10.0.17763.0\UCRT\CORECRT_TERMINATE.H
C:\PROGRAM FILES (X86)\MICROSOFT VISUAL STUDIO\2017\COMMUNITY\VC\TOOLS\MSVC\14.16.27023\INCLUDE\XUTILITY
C:\PROGRAM FILES (X86)\MICROSOFT VISUAL STUDIO\2017\COMMUNITY\VC\TOOLS\MSVC\14.16.27023\INCLUDE\UTILITY
C:\PROGRAM FILES (X86)\MICROSOFT VISUAL STUDIO\2017\COMMUNITY\VC\TOOLS\MSVC\14.16.27023\INCLUDE\IOSFWD
C:\PROGRAM FILES (X86)\MICROSOFT VISUAL STUDIO\2017\COMMUNITY\VC\TOOLS\MSVC\14.16.27023\INCLUDE\CSTDIO
C:\PROGRAM FILES (X86)\WINDOWS KITS\10\INCLUDE\10.0.17763.0\UCRT\STDIO.H
C:\PROGRAM FILES (X86)\MICROSOFT VISUAL STUDIO\2017\COMMUNITY\VC\TOOLS\MSVC\14.16.27023\INCLUDE\CSTRING
C:\PROGRAM FILES (X86)\WINDOWS KITS\10\INCLUDE\10.0.17763.0\UCRT\STRING.H
C:\PROGRAM FILES (X86)\WINDOWS KITS\10\INCLUDE\10.0.17763.0\UCRT\CORECRT_MEMORY.H
C:\PROGRAM FILES (X86)\MICROSOFT VISUAL STUDIO\2017\COMMUNITY\VC\TOOLS\MSVC\14.16.27023\INCLUDE\XATOMIC0.H
C:\PROGRAM FILES (X86)\MICROSOFT VISUAL STUDIO\2017\COMMUNITY\VC\TOOLS\MSVC\14.16.27023\INCLUDE\ITERATOR
C:\PROGRAM FILES (X86)\MICROSOFT VISUAL STUDIO\2017\COMMUNITY\VC\TOOLS\MSVC\14.16.27023\INCLUDE\ISTREAM
C:\PROGRAM FILES (X86)\MICROSOFT VISUAL STUDIO\2017\COMMUNITY\VC\TOOLS\MSVC\14.16.27023\INCLUDE\OSTREAM
C:\PROGRAM FILES (X86)\MICROSOFT VISUAL STUDIO\2017\COMMUNITY\VC\TOOLS\MSVC\14.16.27023\INCLUDE\IOS
C:\PROGRAM FILES (X86)\MICROSOFT VISUAL STUDIO\2017\COMMUNITY\VC\TOOLS\MSVC\14.16.27023\INCLUDE\XLOCNUM
C:\PROGRAM FILES (X86)\MICROSOFT VISUAL STUDIO\2017\COMMUNITY\VC\TOOLS\MSVC\14.16.27023\INCLUDE\STREAMBUF
C:\PROGRAM FILES (X86)\MICROSOFT VISUAL STUDIO\2017\COMMUNITY\VC\TOOLS\MSVC\14.16.27023\INCLUDE\XIOSBASE
C:\PROGRAM FILES (X86)\MICROSOFT VISUAL STUDIO\2017\COMMUNITY\VC\TOOLS\MSVC\14.16.27023\INCLUDE\XLOCALE
C:\PROGRAM FILES (X86)\MICROSOFT VISUAL STUDIO\2017\COMMUNITY\VC\TOOLS\MSVC\14.16.27023\INCLUDE\STDEXCEPT
C:\PROGRAM FILES (X86)\MICROSOFT VISUAL STUDIO\2017\COMMUNITY\VC\TOOLS\MSVC\14.16.27023\INCLUDE\XSTRING
C:\PROGRAM FILES (X86)\MICROSOFT VISUAL STUDIO\2017\COMMUNITY\VC\TOOLS\MSVC\14.16.27023\INCLUDE\TYPEINFO
C:\PROGRAM FILES (X86)\MICROSOFT VISUAL STUDIO\2017\COMMUNITY\VC\TOOLS\MSVC\14.16.27023\INCLUDE\VCRUNTIME_TYPEINFO.H
C:\PROGRAM FILES (X86)\MICROSOFT VISUAL STUDIO\2017\COMMUNITY\VC\TOOLS\MSVC\14.16.27023\INCLUDE\XLOCINFO
C:\PROGRAM FILES (X86)\MICROSOFT VISUAL STUDIO\2017\COMMUNITY\VC\TOOLS\MSVC\14.16.27023\INCLUDE\XLOCINFO.H
C:\PROGRAM FILES (X86)\WINDOWS KITS\10\INCLUDE\10.0.17763.0\UCRT\CTYPE.H
C:\PROGRAM FILES (X86)\WINDOWS KITS\10\INCLUDE\10.0.17763.0\UCRT\LOCALE.H
C:\PROGRAM FILES (X86)\MICROSOFT VISUAL STUDIO\2017\COMMUNITY\VC\TOOLS\MSVC\14.16.27023\INCLUDE\MEMORY
C:\PROGRAM FILES (X86)\MICROSOFT VISUAL STUDIO\2017\COMMUNITY\VC\TOOLS\MSVC\14.16.27023\INCLUDE\XFACET
C:\PROGRAM FILES (X86)\MICROSOFT VISUAL STUDIO\2017\COMMUNITY\VC\TOOLS\MSVC\14.16.27023\INCLUDE\SYSTEM_ERROR
C:\PROGRAM FILES (X86)\MICROSOFT VISUAL STUDIO\2017\COMMUNITY\VC\TOOLS\MSVC\14.16.27023\INCLUDE\CERRNO
C:\PROGRAM FILES (X86)\MICROSOFT VISUAL STUDIO\2017\COMMUNITY\VC\TOOLS\MSVC\14.16.27023\INCLUDE\XCALL_ONCE.H
C:\PROGRAM FILES (X86)\MICROSOFT VISUAL STUDIO\2017\COMMUNITY\VC\TOOLS\MSVC\14.16.27023\INCLUDE\XERRC.H
C:\PROGRAM FILES (X86)\WINDOWS KITS\10\INCLUDE\10.0.17763.0\UCRT\SHARE.H
C:\PROGRAM FILES (X86)\MICROSOFT VISUAL STUDIO\2017\COMMUNITY\VC\TOOLS\MSVC\14.16.27023\INCLUDE\TUPLE
D:\LIB\OPENCV_420\OPENCV\SOURCES\MODULES\CORE\INCLUDE\OPENCV2\CORE\VERSION.HPP
D:\LIB\OPENCV_420\OPENCV\SOURCES\MODULES\CORE\INCLUDE\OPENCV2\CORE\BASE.HPP
D:\LIB\OPENCV_420\BUILDR001\OPENCV2\OPENCV_MODULES.HPP
D:\LIB\OPENCV_420\OPENCV\SOURCES\MODULES\CORE\INCLUDE\OPENCV2\CORE\CVSTD.HPP
C:\PROGRAM FILES (X86)\MICROSOFT VISUAL STUDIO\2017\COMMUNITY\VC\TOOLS\MSVC\14.16.27023\INCLUDE\CCTYPE
C:\PROGRAM FILES (X86)\MICROSOFT VISUAL STUDIO\2017\COMMUNITY\VC\TOOLS\MSVC\14.16.27023\INCLUDE\STRING
C:\PROGRAM FILES (X86)\MICROSOFT VISUAL STUDIO\2017\COMMUNITY\VC\TOOLS\MSVC\14.16.27023\INCLUDE\XSTRING_INSERT.H
D:\LIB\OPENCV_420\OPENCV\SOURCES\MODULES\CORE\INCLUDE\OPENCV2\CORE\CVSTD_WRAPPER.HPP
D:\LIB\OPENCV_420\OPENCV\SOURCES\MODULES\CORE\INCLUDE\OPENCV2\CORE\NEON_UTILS.HPP
D:\LIB\OPENCV_420\OPENCV\SOURCES\MODULES\CORE\INCLUDE\OPENCV2\CORE\VSX_UTILS.HPP
C:\PROGRAM FILES (X86)\WINDOWS KITS\10\INCLUDE\10.0.17763.0\UCRT\ASSERT.H
D:\LIB\OPENCV_420\OPENCV\SOURCES\MODULES\CORE\INCLUDE\OPENCV2\CORE\CHECK.HPP
D:\LIB\OPENCV_420\OPENCV\SOURCES\MODULES\CORE\INCLUDE\OPENCV2\CORE\TRAITS.HPP
D:\LIB\OPENCV_420\OPENCV\SOURCES\MODULES\CORE\INCLUDE\OPENCV2\CORE\MATX.HPP
D:\LIB\OPENCV_420\OPENCV\SOURCES\MODULES\CORE\INCLUDE\OPENCV2\CORE\SATURATE.HPP
D:\LIB\OPENCV_420\OPENCV\SOURCES\MODULES\CORE\INCLUDE\OPENCV2\CORE\FAST_MATH.HPP
D:\LIB\OPENCV_420\OPENCV\SOURCES\MODULES\CORE\INCLUDE\OPENCV2\CORE\TYPES.HPP
C:\PROGRAM FILES (X86)\MICROSOFT VISUAL STUDIO\2017\COMMUNITY\VC\TOOLS\MSVC\14.16.27023\INCLUDE\VECTOR
D:\LIB\OPENCV_420\OPENCV\SOURCES\MODULES\CORE\INCLUDE\OPENCV2\CORE\MAT.HPP
D:\LIB\OPENCV_420\OPENCV\SOURCES\MODULES\CORE\INCLUDE\OPENCV2\CORE\BUFFERPOOL.HPP
D:\LIB\OPENCV_420\OPENCV\SOURCES\MODULES\CORE\INCLUDE\OPENCV2\CORE\MAT.INL.HPP
D:\LIB\OPENCV_420\OPENCV\SOURCES\MODULES\CORE\INCLUDE\OPENCV2\CORE\PERSISTENCE.HPP
D:\LIB\OPENCV_420\OPENCV\SOURCES\MODULES\CORE\INCLUDE\OPENCV2\CORE\OPERATIONS.HPP
D:\LIB\OPENCV_420\OPENCV\SOURCES\MODULES\CORE\INCLUDE\OPENCV2\CORE\CVSTD.INL.HPP
C:\PROGRAM FILES (X86)\MICROSOFT VISUAL STUDIO\2017\COMMUNITY\VC\TOOLS\MSVC\14.16.27023\INCLUDE\COMPLEX
C:\PROGRAM FILES (X86)\MICROSOFT VISUAL STUDIO\2017\COMMUNITY\VC\TOOLS\MSVC\14.16.27023\INCLUDE\SSTREAM
D:\LIB\OPENCV_420\OPENCV\SOURCES\MODULES\CORE\INCLUDE\OPENCV2\CORE\UTILITY.HPP
C:\PROGRAM FILES (X86)\MICROSOFT VISUAL STUDIO\2017\COMMUNITY\VC\TOOLS\MSVC\14.16.27023\INCLUDE\FUNCTIONAL
C:\PROGRAM FILES (X86)\MICROSOFT VISUAL STUDIO\2017\COMMUNITY\VC\TOOLS\MSVC\14.16.27023\INCLUDE\MUTEX
C:\PROGRAM FILES (X86)\MICROSOFT VISUAL STUDIO\2017\COMMUNITY\VC\TOOLS\MSVC\14.16.27023\INCLUDE\CHRONO
C:\PROGRAM FILES (X86)\MICROSOFT VISUAL STUDIO\2017\COMMUNITY\VC\TOOLS\MSVC\14.16.27023\INCLUDE\RATIO
C:\PROGRAM FILES (X86)\WINDOWS KITS\10\INCLUDE\10.0.17763.0\UCRT\TIME.H
C:\PROGRAM FILES (X86)\MICROSOFT VISUAL STUDIO\2017\COMMUNITY\VC\TOOLS\MSVC\14.16.27023\INCLUDE\THR\XTIMEC.H
C:\PROGRAM FILES (X86)\MICROSOFT VISUAL STUDIO\2017\COMMUNITY\VC\TOOLS\MSVC\14.16.27023\INCLUDE\THR\XTHRCOMMON.H
C:\PROGRAM FILES (X86)\MICROSOFT VISUAL STUDIO\2017\COMMUNITY\VC\TOOLS\MSVC\14.16.27023\INCLUDE\THREAD
C:\PROGRAM FILES (X86)\MICROSOFT VISUAL STUDIO\2017\COMMUNITY\VC\TOOLS\MSVC\14.16.27023\INCLUDE\THR\XTHREAD
C:\PROGRAM FILES (X86)\MICROSOFT VISUAL STUDIO\2017\COMMUNITY\VC\TOOLS\MSVC\14.16.27023\INCLUDE\THR\XTIME
C:\PROGRAM FILES (X86)\MICROSOFT VISUAL STUDIO\2017\COMMUNITY\VC\TOOLS\MSVC\14.16.27023\INCLUDE\THR\XTHREADS.H
D:\LIB\OPENCV_420\OPENCV\SOURCES\MODULES\CORE\INCLUDE\OPENCV2\CORE\OPTIM.HPP
D:\LIB\OPENCV_420\OPENCV\SOURCES\MODULES\CORE\INCLUDE\OPENCV2\CORE\OVX.HPP
D:\LIB\OPENCV_420\OPENCV\SOURCES\MODULES\CORE\INCLUDE\OPENCV2\CORE\OCL.HPP
D:\LIB\OPENCV_420\OPENCV\SOURCES\MODULES\CORE\INCLUDE\OPENCV2\CORE\OPENCL\OCL_DEFS.HPP
D:\LIB\OPENCV_420\OPENCV\SOURCES\MODULES\CORE\INCLUDE\OPENCV2\CORE\UTILS\TRACE.HPP
D:\LIB\OPENCV_420\OPENCV\SOURCES\MODULES\DNN\INCLUDE\OPENCV2\DNN.HPP
D:\LIB\OPENCV_420\OPENCV\SOURCES\MODULES\DNN\INCLUDE\OPENCV2\DNN\DNN.HPP
D:\LIB\OPENCV_420\OPENCV\SOURCES\MODULES\CORE\INCLUDE\OPENCV2\CORE\ASYNC.HPP
D:\LIB\OPENCV_420\OPENCV\SOURCES\MODULES\DNN\INCLUDE\OPENCV2\DNN\VERSION.HPP
D:\LIB\OPENCV_420\OPENCV\SOURCES\MODULES\DNN\INCLUDE\OPENCV2\DNN\DICT.HPP
C:\PROGRAM FILES (X86)\MICROSOFT VISUAL STUDIO\2017\COMMUNITY\VC\TOOLS\MSVC\14.16.27023\INCLUDE\MAP
C:\PROGRAM FILES (X86)\MICROSOFT VISUAL STUDIO\2017\COMMUNITY\VC\TOOLS\MSVC\14.16.27023\INCLUDE\XTREE
D:\LIB\OPENCV_420\OPENCV\SOURCES\MODULES\DNN\INCLUDE\OPENCV2\DNN\LAYER.HPP
D:\LIB\OPENCV_420\OPENCV\SOURCES\MODULES\DNN\INCLUDE\OPENCV2\DNN\DNN.INL.HPP
D:\LIB\OPENCV_420\OPENCV\SOURCES\MODULES\DNN\INCLUDE\OPENCV2\DNN\UTILS\INFERENCE_ENGINE.HPP
D:\LIB\OPENCV_420\OPENCV\SOURCES\MODULES\DNN\INCLUDE\OPENCV2\DNN\ALL_LAYERS.HPP
D:\LIB\OPENCV_420\OPENCV\SOURCES\MODULES\DNN\SRC\LAYERS\LAYERS_COMMON.SIMD.HPP
D:\LIB\OPENCV_420\OPENCV\SOURCES\MODULES\CORE\INCLUDE\OPENCV2\CORE\HAL\INTRIN.HPP
D:\LIB\OPENCV_420\OPENCV\SOURCES\MODULES\CORE\INCLUDE\OPENCV2\CORE\HAL\INTRIN_FORWARD.HPP
D:\LIB\OPENCV_420\OPENCV\SOURCES\MODULES\CORE\INCLUDE\OPENCV2\CORE\HAL\INTRIN_SSE_EM.HPP
D:\LIB\OPENCV_420\OPENCV\SOURCES\MODULES\CORE\INCLUDE\OPENCV2\CORE\HAL\INTRIN_SSE.HPP
D:\LIB\OPENCV_420\OPENCV\SOURCES\MODULES\CORE\INCLUDE\OPENCV2\CORE\HAL\SIMD_UTILS.IMPL.HPP
