^D:\LIB\OPENCV_420\BUILDR001\MODULES\WORLD\OPENCV_WORLD_AVX.DIR\RELEASE\ACCUM.AVX.OBJ|D:\LIB\OPENCV_420\BUILDR001\MODULES\WORLD\OPENCV_WORLD_AVX.DIR\RELEASE\CORNER.AVX.OBJ|D:\LIB\OPENCV_420\BUILDR001\MODULES\WORLD\OPENCV_WORLD_AVX.DIR\RELEASE\LAYERS_COMMON.AVX.OBJ|D:\LIB\OPENCV_420\BUILDR001\MODULES\WORLD\OPENCV_WORLD_AVX.DIR\RELEASE\MATHFUNCS_CORE.AVX.OBJ
D:\LIB\OPENCV_420\BUILDR001\MODULES\WORLD\OPENCV_WORLD_AVX.DIR\RELEASE\MATHFUNCS_CORE.AVX.OBJ
C:\WINDOWS\SYSTEM32\TZRES.DLL
D:\LIB\OPENCV_420\BUILDR001\MODULES\WORLD\OPENCV_WORLD_AVX.DIR\RELEASE\CORNER.AVX.OBJ
D:\LIB\OPENCV_420\BUILDR001\MODULES\WORLD\OPENCV_WORLD_AVX.DIR\RELEASE\ACCUM.AVX.OBJ
D:\LIB\OPENCV_420\BUILDR001\MODULES\WORLD\OPENCV_WORLD_AVX.DIR\RELEASE\LAYERS_COMMON.AVX.OBJ
C:\WINDOWS\GLOBALIZATION\SORTING\SORTDEFAULT.NLS
