198      459
196      507
200      557
211      606
225      651
250      691
280      726
316      754
360      766
408      757
450      731
486      698
518      658
540      612
554      563
563      511
567      461
222      422
244      398
275      394
304      398
332      408
416      411
446      403
477      400
510      406
536      429
374      463
371      501
368      538
367      575
333      597
350      600
367      605
386      601
405      599
249      466
271      451
298      454
320      476
296      479
270      477
426      479
447      458
475      455
496      467
476      482
450      484
304      654
321      645
342      636
364      641
386      639
407      649
427      660
410      676
388      685
364      686
339      683
319      671
334      654
363      657
393      658
393      658
363      657
335      654
210      400
222      340
275      303
325    294
374      285
425    294
477      303
536      340
552      400