^D:\WORK\FACECOMBINATION_NEW\FACECOMBINATION_NEW\FACECOMBINATION_NEW\X64\DEBUG\FACE_COM_NORMAL_NEW.OBJ
D:\WORK\FACECOMBINATION_NEW\FACECOMBINATION_NEW\X64\DEBUG\FACECOMBINATION_NEW.ILK
D:\WORK\FACECOMBINATION_NEW\FACECOMBINATION_NEW\X64\DEBUG\FACECOMBINATION_NEW.EXE
D:\WORK\FACECOMBINATION_NEW\FACECOMBINATION_NEW\X64\DEBUG\FACECOMBINATION_NEW.PDB
