^D:\WORK\FACECOMBINATION_NEW\FACECOMBINATION_NEW\FACECOMBINATION_NEW\X64\DEBUG\FACE_COM_NORMAL_NEW.OBJ
D:\LIB\OPENCV_331\OPENCV\BUILD\X64\VC14\LIB\OPENCV_WORLD331D.LIB
D:\LIB\CERES_1.14.0\GLOG-0.3.4\LIB\DEBUG\LIBGLOG.LIB
D:\LIB\CERES_1.14.0\GFLAGS-2.2.0\LIB\DEBUG\GFLAGS.LIB
D:\LIB\CERES_1.14.0\CERES-SOLVER-1.14.0\BLD\LIB\DEBUG\CERES-DEBUG.LIB
D:\LIB\CERES_1.14.0\SUITESPARSE-METIS-FOR-WINDOWS\BLD\LIB\DEBUG\LIBSPQRD.LIB
D:\LIB\CERES_1.14.0\TBB2017_20161128OSS\LIB\INTEL64\VC14\TBB.LIB
D:\LIB\CERES_1.14.0\TBB2017_20161128OSS\LIB\INTEL64\VC14\TBBMALLOC.LIB
D:\LIB\CERES_1.14.0\SUITESPARSE-METIS-FOR-WINDOWS\BLD\LIB\DEBUG\LIBCHOLMODD.LIB
D:\LIB\CERES_1.14.0\SUITESPARSE-METIS-FOR-WINDOWS\BLD\LIB\DEBUG\LIBCCOLAMDD.LIB
D:\LIB\CERES_1.14.0\SUITESPARSE-METIS-FOR-WINDOWS\BLD\LIB\DEBUG\LIBCAMDD.LIB
D:\LIB\CERES_1.14.0\SUITESPARSE-METIS-FOR-WINDOWS\BLD\LIB\DEBUG\LIBCOLAMDD.LIB
D:\LIB\CERES_1.14.0\SUITESPARSE-METIS-FOR-WINDOWS\BLD\LIB\DEBUG\LIBAMDD.LIB
D:\LIB\CERES_1.14.0\SUITESPARSE-METIS-FOR-WINDOWS\LAPACK_WINDOWS\X64\LIBBLAS.LIB
D:\LIB\CERES_1.14.0\SUITESPARSE-METIS-FOR-WINDOWS\BLD\LIB\DEBUG\SUITESPARSECONFIGD.LIB
D:\LIB\CERES_1.14.0\SUITESPARSE-METIS-FOR-WINDOWS\BLD\LIB\DEBUG\METISD.LIB
D:\LIB\CERES_1.14.0\SUITESPARSE-METIS-FOR-WINDOWS\LAPACK_WINDOWS\X64\LIBLAPACK.LIB
D:\LIB\OPENMESH 7.1\LIB\OPENMESHCORED.LIB
D:\LIB\OPENMESH 7.1\LIB\OPENMESHTOOLSD.LIB
C:\PROGRAM FILES (X86)\WINDOWS KITS\10\LIB\10.0.17134.0\UM\X64\KERNEL32.LIB
C:\PROGRAM FILES (X86)\WINDOWS KITS\10\LIB\10.0.17134.0\UM\X64\USER32.LIB
C:\PROGRAM FILES (X86)\WINDOWS KITS\10\LIB\10.0.17134.0\UM\X64\GDI32.LIB
C:\PROGRAM FILES (X86)\WINDOWS KITS\10\LIB\10.0.17134.0\UM\X64\WINSPOOL.LIB
C:\PROGRAM FILES (X86)\WINDOWS KITS\10\LIB\10.0.17134.0\UM\X64\COMDLG32.LIB
C:\PROGRAM FILES (X86)\WINDOWS KITS\10\LIB\10.0.17134.0\UM\X64\ADVAPI32.LIB
C:\PROGRAM FILES (X86)\WINDOWS KITS\10\LIB\10.0.17134.0\UM\X64\SHELL32.LIB
C:\PROGRAM FILES (X86)\WINDOWS KITS\10\LIB\10.0.17134.0\UM\X64\OLE32.LIB
C:\PROGRAM FILES (X86)\WINDOWS KITS\10\LIB\10.0.17134.0\UM\X64\OLEAUT32.LIB
C:\PROGRAM FILES (X86)\WINDOWS KITS\10\LIB\10.0.17134.0\UM\X64\UUID.LIB
C:\PROGRAM FILES (X86)\WINDOWS KITS\10\LIB\10.0.17134.0\UM\X64\ODBC32.LIB
C:\PROGRAM FILES (X86)\WINDOWS KITS\10\LIB\10.0.17134.0\UM\X64\ODBCCP32.LIB
D:\WORK\FACECOMBINATION_NEW\FACECOMBINATION_NEW\FACECOMBINATION_NEW\X64\DEBUG\FACE_COM_NORMAL_NEW.OBJ
C:\WINDOWS\GLOBALIZATION\SORTING\SORTDEFAULT.NLS
C:\PROGRAM FILES (X86)\MICROSOFT VISUAL STUDIO\2017\COMMUNITY\VC\TOOLS\MSVC\14.14.26428\LIB\X64\MSVCPRTD.LIB
C:\PROGRAM FILES (X86)\MICROSOFT VISUAL STUDIO\2017\COMMUNITY\VC\TOOLS\MSVC\14.14.26428\LIB\X64\VCOMPD.LIB
C:\PROGRAM FILES (X86)\MICROSOFT VISUAL STUDIO\2017\COMMUNITY\VC\TOOLS\MSVC\14.14.26428\LIB\X64\MSVCRTD.LIB
C:\PROGRAM FILES (X86)\MICROSOFT VISUAL STUDIO\2017\COMMUNITY\VC\TOOLS\MSVC\14.14.26428\LIB\X64\OLDNAMES.LIB
C:\PROGRAM FILES (X86)\MICROSOFT VISUAL STUDIO\2017\COMMUNITY\VC\TOOLS\MSVC\14.14.26428\LIB\X64\VCRUNTIMED.LIB
C:\PROGRAM FILES (X86)\WINDOWS KITS\10\LIB\10.0.17134.0\UCRT\X64\UCRTD.LIB
C:\PROGRAM FILES (X86)\WINDOWS KITS\10\BIN\10.0.17134.0\X86\RC.EXE
C:\PROGRAM FILES (X86)\MICROSOFT VISUAL STUDIO\2017\COMMUNITY\VC\TOOLS\MSVC\14.14.26428\BIN\HOSTX86\X86\CVTRES.EXE
C:\PROGRAM FILES (X86)\MICROSOFT VISUAL STUDIO\2017\COMMUNITY\VC\TOOLS\MSVC\14.14.26428\BIN\HOSTX86\X86\MSPDBSRV.EXE
C:\WINDOWS\SYSTEM32\TZRES.DLL
C:\PROGRAM FILES (X86)\MICROSOFT VISUAL STUDIO\2017\COMMUNITY\VC\TOOLS\MSVC\14.14.26428\BIN\HOSTX86\X64\VCTIP.EXE
