^D:\LIB\OPENCV_420\BUILDR001\MODULES\WORLD\OPENCV_WORLD_SSE4_2.DIR\RELEASE\STAT.SSE4_2.OBJ
D:\LIB\OPENCV_420\BUILDR001\MODULES\WORLD\OPENCV_WORLD_SSE4_2.DIR\RELEASE\STAT.SSE4_2.OBJ
C:\WINDOWS\SYSTEM32\TZRES.DLL
