^D:\Work\obj_control\obj_control\pivot_change\pivot_change.vcxproj
D:\Work\obj_control\obj_control\x64\Release\pivot_change.ipdb
D:\Work\obj_control\obj_control\x64\Release\pivot_change.iobj
^D:\Work\obj_control\obj_control\pivot_change\pivot_change.vcxproj
D:\Work\obj_control\obj_control\x64\Release\pivot_change.ipdb
D:\Work\obj_control\obj_control\x64\Release\pivot_change.iobj
^D:\Work\obj_control\obj_control\pivot_change\pivot_change.vcxproj
D:\Work\obj_control\obj_control\x64\Release\pivot_change.ipdb
D:\Work\obj_control\obj_control\x64\Release\pivot_change.iobj
^D:\Work\obj_control\obj_control\pivot_change\pivot_change.vcxproj
D:\Work\obj_control\obj_control\x64\Release\pivot_change.ipdb
D:\Work\obj_control\obj_control\x64\Release\pivot_change.iobj
^D:\Work\obj_control\obj_control\pivot_change\pivot_change.vcxproj
D:\Work\obj_control\obj_control\x64\Release\pivot_change.ipdb
D:\Work\obj_control\obj_control\x64\Release\pivot_change.iobj
