307
space
12
13
20
23
74
75
76
77
78
82
83
84
85
86
87
88
89
90
91
92
93
94
95
96
97
98
99
100
101
102
103
104
105
208
209
210
211
212
213
214
215
216
217
218
219
220
221
222
223
224
225
226
227
228
229
230
231
276
277
278
279
280
281
283
285
286
287
295
296
299
310
320
360
361
365
368
1389
1390
1392
1393
1395
1396
1398
1399
1400
1401
1402
1403
1404
1405
1407
1408
1410
1412
1413
1414
1415
1416
1417
1418
1419
1420
1421
1422
1423
1424
1426
1427
1428
1429
1430
1431
1432
1433
1434
1435
1436
1439
1441
1443
1444
1446
1452
1454
1456
1457
1458
1459
1460
1514
1515
1516
1517
1518
1519
1520
1521
1522
1523
1524
1525
1526
1527
1528
1529
1530
1531
1532
1533
1534
1535
1536
1537
1640
1641
1642
1643
1644
1645
1646
1648
1649
1650
1651
1652
1653
1654
1655
1656
1657
1658
1659
1660
1663
1708
1709
1710
1711
1712
1713
1715
1717
1718
1719
1727
1728
1731
1742
1752
1792
1793
1797
1800
2821
2822
2824
2825
2827
2830
2831
2832
2833
2835
2836
2837
2838
2839
2840
2842
2844
2845
2846
2847
2848
2849
2850
2851
2852
2853
2854
2855
2856
2857
2858
2859
2860
2861
2862
2863
2864
2865
2866
2867
2868
2871
2873
2875
2876
2878
2884
2886
2888
2889
2890
2891
2892
1447
1448
1449
1450
1451
351
311
347
309
336
352
359
343
350
316
298
297
315
314
293
294
346
308
337
353
358
342
349
1779
2879
1647
1661
1662
2883
1783
1743
1730
1729
1745
1725
1726
1778
1741
2880
2881
2882
1747
1746
1744
1768
1784
1791
1775
1782
1748
1740
1769
1785
1790
1774
1781