^D:\WORK\OBJ_CONTROL\OBJ_CONTROL\CUSTOMIZAING_TEST\CUSTOMIZING_TEST.CPP
C:\PROGRAM FILES (X86)\MICROSOFT VISUAL STUDIO\2017\COMMUNITY\VC\TOOLS\MSVC\14.14.26428\BIN\HOSTX86\X64\1042\CLUI.DLL
C:\WINDOWS\GLOBALIZATION\SORTING\SORTDEFAULT.NLS
C:\WINDOWS\SYSTEM32\TZRES.DLL
D:\LIB\OPENMESH 7.1\INCLUDE\OPENMESH\CORE\IO\MESHIO.HH
D:\LIB\OPENMESH 7.1\INCLUDE\OPENMESH\CORE\SYSTEM\CONFIG.H
C:\PROGRAM FILES (X86)\WINDOWS KITS\10\INCLUDE\10.0.17134.0\UCRT\ASSERT.H
C:\PROGRAM FILES (X86)\WINDOWS KITS\10\INCLUDE\10.0.17134.0\UCRT\CORECRT.H
C:\PROGRAM FILES (X86)\MICROSOFT VISUAL STUDIO\2017\COMMUNITY\VC\TOOLS\MSVC\14.14.26428\INCLUDE\VCRUNTIME.H
C:\PROGRAM FILES (X86)\MICROSOFT VISUAL STUDIO\2017\COMMUNITY\VC\TOOLS\MSVC\14.14.26428\INCLUDE\SAL.H
C:\PROGRAM FILES (X86)\MICROSOFT VISUAL STUDIO\2017\COMMUNITY\VC\TOOLS\MSVC\14.14.26428\INCLUDE\CONCURRENCYSAL.H
C:\PROGRAM FILES (X86)\MICROSOFT VISUAL STUDIO\2017\COMMUNITY\VC\TOOLS\MSVC\14.14.26428\INCLUDE\VADEFS.H
D:\LIB\OPENMESH 7.1\INCLUDE\OPENMESH\CORE\SYSTEM\COMPILER.HH
D:\LIB\OPENMESH 7.1\INCLUDE\OPENMESH\CORE\SYSTEM\OPENMESHDLLMACROS.HH
D:\LIB\OPENMESH 7.1\INCLUDE\OPENMESH\CORE\IO\SR_STORE.HH
D:\LIB\OPENMESH 7.1\INCLUDE\OPENMESH\CORE\IO\SR_TYPES.HH
D:\LIB\OPENMESH 7.1\INCLUDE\OPENMESH\CORE\IO\SR_RBO.HH
C:\PROGRAM FILES (X86)\MICROSOFT VISUAL STUDIO\2017\COMMUNITY\VC\TOOLS\MSVC\14.14.26428\INCLUDE\CSTDIO
C:\PROGRAM FILES (X86)\MICROSOFT VISUAL STUDIO\2017\COMMUNITY\VC\TOOLS\MSVC\14.14.26428\INCLUDE\YVALS.H
C:\PROGRAM FILES (X86)\MICROSOFT VISUAL STUDIO\2017\COMMUNITY\VC\TOOLS\MSVC\14.14.26428\INCLUDE\XKEYCHECK.H
C:\PROGRAM FILES (X86)\MICROSOFT VISUAL STUDIO\2017\COMMUNITY\VC\TOOLS\MSVC\14.14.26428\INCLUDE\CRTDEFS.H
C:\PROGRAM FILES (X86)\MICROSOFT VISUAL STUDIO\2017\COMMUNITY\VC\TOOLS\MSVC\14.14.26428\INCLUDE\USE_ANSI.H
C:\PROGRAM FILES (X86)\WINDOWS KITS\10\INCLUDE\10.0.17134.0\UCRT\STDIO.H
C:\PROGRAM FILES (X86)\WINDOWS KITS\10\INCLUDE\10.0.17134.0\UCRT\CORECRT_WSTDIO.H
C:\PROGRAM FILES (X86)\WINDOWS KITS\10\INCLUDE\10.0.17134.0\UCRT\CORECRT_STDIO_CONFIG.H
C:\PROGRAM FILES (X86)\MICROSOFT VISUAL STUDIO\2017\COMMUNITY\VC\TOOLS\MSVC\14.14.26428\INCLUDE\ALGORITHM
C:\PROGRAM FILES (X86)\MICROSOFT VISUAL STUDIO\2017\COMMUNITY\VC\TOOLS\MSVC\14.14.26428\INCLUDE\XMEMORY
C:\PROGRAM FILES (X86)\MICROSOFT VISUAL STUDIO\2017\COMMUNITY\VC\TOOLS\MSVC\14.14.26428\INCLUDE\XMEMORY0
C:\PROGRAM FILES (X86)\MICROSOFT VISUAL STUDIO\2017\COMMUNITY\VC\TOOLS\MSVC\14.14.26428\INCLUDE\CSTDINT
C:\PROGRAM FILES (X86)\MICROSOFT VISUAL STUDIO\2017\COMMUNITY\VC\TOOLS\MSVC\14.14.26428\INCLUDE\STDINT.H
C:\PROGRAM FILES (X86)\MICROSOFT VISUAL STUDIO\2017\COMMUNITY\VC\TOOLS\MSVC\14.14.26428\INCLUDE\CSTDLIB
C:\PROGRAM FILES (X86)\WINDOWS KITS\10\INCLUDE\10.0.17134.0\UCRT\STDLIB.H
C:\PROGRAM FILES (X86)\WINDOWS KITS\10\INCLUDE\10.0.17134.0\UCRT\CORECRT_MALLOC.H
C:\PROGRAM FILES (X86)\WINDOWS KITS\10\INCLUDE\10.0.17134.0\UCRT\CORECRT_SEARCH.H
C:\PROGRAM FILES (X86)\WINDOWS KITS\10\INCLUDE\10.0.17134.0\UCRT\STDDEF.H
C:\PROGRAM FILES (X86)\WINDOWS KITS\10\INCLUDE\10.0.17134.0\UCRT\CORECRT_WSTDLIB.H
C:\PROGRAM FILES (X86)\MICROSOFT VISUAL STUDIO\2017\COMMUNITY\VC\TOOLS\MSVC\14.14.26428\INCLUDE\LIMITS.H
C:\PROGRAM FILES (X86)\WINDOWS KITS\10\INCLUDE\10.0.17134.0\UCRT\MATH.H
C:\PROGRAM FILES (X86)\WINDOWS KITS\10\INCLUDE\10.0.17134.0\UCRT\CORECRT_MATH.H
C:\PROGRAM FILES (X86)\WINDOWS KITS\10\INCLUDE\10.0.17134.0\UCRT\CORECRT_MATH_DEFINES.H
C:\PROGRAM FILES (X86)\MICROSOFT VISUAL STUDIO\2017\COMMUNITY\VC\TOOLS\MSVC\14.14.26428\INCLUDE\LIMITS
C:\PROGRAM FILES (X86)\MICROSOFT VISUAL STUDIO\2017\COMMUNITY\VC\TOOLS\MSVC\14.14.26428\INCLUDE\YMATH.H
C:\PROGRAM FILES (X86)\MICROSOFT VISUAL STUDIO\2017\COMMUNITY\VC\TOOLS\MSVC\14.14.26428\INCLUDE\CFLOAT
C:\PROGRAM FILES (X86)\WINDOWS KITS\10\INCLUDE\10.0.17134.0\UCRT\FLOAT.H
C:\PROGRAM FILES (X86)\MICROSOFT VISUAL STUDIO\2017\COMMUNITY\VC\TOOLS\MSVC\14.14.26428\INCLUDE\CLIMITS
C:\PROGRAM FILES (X86)\MICROSOFT VISUAL STUDIO\2017\COMMUNITY\VC\TOOLS\MSVC\14.14.26428\INCLUDE\CMATH
C:\PROGRAM FILES (X86)\MICROSOFT VISUAL STUDIO\2017\COMMUNITY\VC\TOOLS\MSVC\14.14.26428\INCLUDE\XTGMATH.H
C:\PROGRAM FILES (X86)\MICROSOFT VISUAL STUDIO\2017\COMMUNITY\VC\TOOLS\MSVC\14.14.26428\INCLUDE\XTR1COMMON
C:\PROGRAM FILES (X86)\MICROSOFT VISUAL STUDIO\2017\COMMUNITY\VC\TOOLS\MSVC\14.14.26428\INCLUDE\CWCHAR
C:\PROGRAM FILES (X86)\WINDOWS KITS\10\INCLUDE\10.0.17134.0\UCRT\WCHAR.H
C:\PROGRAM FILES (X86)\WINDOWS KITS\10\INCLUDE\10.0.17134.0\UCRT\CORECRT_MEMCPY_S.H
C:\PROGRAM FILES (X86)\WINDOWS KITS\10\INCLUDE\10.0.17134.0\UCRT\ERRNO.H
C:\PROGRAM FILES (X86)\MICROSOFT VISUAL STUDIO\2017\COMMUNITY\VC\TOOLS\MSVC\14.14.26428\INCLUDE\VCRUNTIME_STRING.H
C:\PROGRAM FILES (X86)\WINDOWS KITS\10\INCLUDE\10.0.17134.0\UCRT\CORECRT_WCONIO.H
C:\PROGRAM FILES (X86)\WINDOWS KITS\10\INCLUDE\10.0.17134.0\UCRT\CORECRT_WCTYPE.H
C:\PROGRAM FILES (X86)\WINDOWS KITS\10\INCLUDE\10.0.17134.0\UCRT\CORECRT_WDIRECT.H
C:\PROGRAM FILES (X86)\WINDOWS KITS\10\INCLUDE\10.0.17134.0\UCRT\CORECRT_WIO.H
C:\PROGRAM FILES (X86)\WINDOWS KITS\10\INCLUDE\10.0.17134.0\UCRT\CORECRT_SHARE.H
C:\PROGRAM FILES (X86)\WINDOWS KITS\10\INCLUDE\10.0.17134.0\UCRT\CORECRT_WPROCESS.H
C:\PROGRAM FILES (X86)\WINDOWS KITS\10\INCLUDE\10.0.17134.0\UCRT\CORECRT_WSTRING.H
C:\PROGRAM FILES (X86)\WINDOWS KITS\10\INCLUDE\10.0.17134.0\UCRT\CORECRT_WTIME.H
C:\PROGRAM FILES (X86)\WINDOWS KITS\10\INCLUDE\10.0.17134.0\UCRT\SYS\STAT.H
C:\PROGRAM FILES (X86)\WINDOWS KITS\10\INCLUDE\10.0.17134.0\UCRT\SYS\TYPES.H
C:\PROGRAM FILES (X86)\MICROSOFT VISUAL STUDIO\2017\COMMUNITY\VC\TOOLS\MSVC\14.14.26428\INCLUDE\XSTDDEF
C:\PROGRAM FILES (X86)\MICROSOFT VISUAL STUDIO\2017\COMMUNITY\VC\TOOLS\MSVC\14.14.26428\INCLUDE\CSTDDEF
C:\PROGRAM FILES (X86)\MICROSOFT VISUAL STUDIO\2017\COMMUNITY\VC\TOOLS\MSVC\14.14.26428\INCLUDE\INITIALIZER_LIST
C:\PROGRAM FILES (X86)\MICROSOFT VISUAL STUDIO\2017\COMMUNITY\VC\TOOLS\MSVC\14.14.26428\INCLUDE\NEW
C:\PROGRAM FILES (X86)\MICROSOFT VISUAL STUDIO\2017\COMMUNITY\VC\TOOLS\MSVC\14.14.26428\INCLUDE\EXCEPTION
C:\PROGRAM FILES (X86)\MICROSOFT VISUAL STUDIO\2017\COMMUNITY\VC\TOOLS\MSVC\14.14.26428\INCLUDE\TYPE_TRAITS
C:\PROGRAM FILES (X86)\WINDOWS KITS\10\INCLUDE\10.0.17134.0\UCRT\MALLOC.H
C:\PROGRAM FILES (X86)\MICROSOFT VISUAL STUDIO\2017\COMMUNITY\VC\TOOLS\MSVC\14.14.26428\INCLUDE\VCRUNTIME_EXCEPTION.H
C:\PROGRAM FILES (X86)\MICROSOFT VISUAL STUDIO\2017\COMMUNITY\VC\TOOLS\MSVC\14.14.26428\INCLUDE\EH.H
C:\PROGRAM FILES (X86)\WINDOWS KITS\10\INCLUDE\10.0.17134.0\UCRT\CORECRT_TERMINATE.H
C:\PROGRAM FILES (X86)\MICROSOFT VISUAL STUDIO\2017\COMMUNITY\VC\TOOLS\MSVC\14.14.26428\INCLUDE\VCRUNTIME_NEW.H
C:\PROGRAM FILES (X86)\MICROSOFT VISUAL STUDIO\2017\COMMUNITY\VC\TOOLS\MSVC\14.14.26428\INCLUDE\XUTILITY
C:\PROGRAM FILES (X86)\MICROSOFT VISUAL STUDIO\2017\COMMUNITY\VC\TOOLS\MSVC\14.14.26428\INCLUDE\UTILITY
C:\PROGRAM FILES (X86)\MICROSOFT VISUAL STUDIO\2017\COMMUNITY\VC\TOOLS\MSVC\14.14.26428\INCLUDE\IOSFWD
C:\PROGRAM FILES (X86)\MICROSOFT VISUAL STUDIO\2017\COMMUNITY\VC\TOOLS\MSVC\14.14.26428\INCLUDE\CSTRING
C:\PROGRAM FILES (X86)\WINDOWS KITS\10\INCLUDE\10.0.17134.0\UCRT\STRING.H
C:\PROGRAM FILES (X86)\WINDOWS KITS\10\INCLUDE\10.0.17134.0\UCRT\CORECRT_MEMORY.H
C:\PROGRAM FILES (X86)\WINDOWS KITS\10\INCLUDE\10.0.17134.0\UCRT\CRTDBG.H
C:\PROGRAM FILES (X86)\MICROSOFT VISUAL STUDIO\2017\COMMUNITY\VC\TOOLS\MSVC\14.14.26428\INCLUDE\VCRUNTIME_NEW_DEBUG.H
C:\PROGRAM FILES (X86)\MICROSOFT VISUAL STUDIO\2017\COMMUNITY\VC\TOOLS\MSVC\14.14.26428\INCLUDE\XATOMIC0.H
C:\PROGRAM FILES (X86)\MICROSOFT VISUAL STUDIO\2017\COMMUNITY\VC\TOOLS\MSVC\14.14.26428\INCLUDE\INTRIN0.H
C:\PROGRAM FILES (X86)\MICROSOFT VISUAL STUDIO\2017\COMMUNITY\VC\TOOLS\MSVC\14.14.26428\INCLUDE\TYPEINFO
C:\PROGRAM FILES (X86)\MICROSOFT VISUAL STUDIO\2017\COMMUNITY\VC\TOOLS\MSVC\14.14.26428\INCLUDE\VCRUNTIME_TYPEINFO.H
D:\LIB\OPENMESH 7.1\INCLUDE\OPENMESH\CORE\SYSTEM\OMSTREAM.HH
D:\LIB\OPENMESH 7.1\INCLUDE\OPENMESH\CORE\SYSTEM\MOSTREAM.HH
C:\PROGRAM FILES (X86)\MICROSOFT VISUAL STUDIO\2017\COMMUNITY\VC\TOOLS\MSVC\14.14.26428\INCLUDE\OSTREAM
C:\PROGRAM FILES (X86)\MICROSOFT VISUAL STUDIO\2017\COMMUNITY\VC\TOOLS\MSVC\14.14.26428\INCLUDE\IOS
C:\PROGRAM FILES (X86)\MICROSOFT VISUAL STUDIO\2017\COMMUNITY\VC\TOOLS\MSVC\14.14.26428\INCLUDE\XLOCNUM
C:\PROGRAM FILES (X86)\MICROSOFT VISUAL STUDIO\2017\COMMUNITY\VC\TOOLS\MSVC\14.14.26428\INCLUDE\STREAMBUF
C:\PROGRAM FILES (X86)\MICROSOFT VISUAL STUDIO\2017\COMMUNITY\VC\TOOLS\MSVC\14.14.26428\INCLUDE\XIOSBASE
C:\PROGRAM FILES (X86)\MICROSOFT VISUAL STUDIO\2017\COMMUNITY\VC\TOOLS\MSVC\14.14.26428\INCLUDE\XLOCALE
C:\PROGRAM FILES (X86)\MICROSOFT VISUAL STUDIO\2017\COMMUNITY\VC\TOOLS\MSVC\14.14.26428\INCLUDE\STDEXCEPT
C:\PROGRAM FILES (X86)\MICROSOFT VISUAL STUDIO\2017\COMMUNITY\VC\TOOLS\MSVC\14.14.26428\INCLUDE\XSTRING
C:\PROGRAM FILES (X86)\MICROSOFT VISUAL STUDIO\2017\COMMUNITY\VC\TOOLS\MSVC\14.14.26428\INCLUDE\XLOCINFO
C:\PROGRAM FILES (X86)\MICROSOFT VISUAL STUDIO\2017\COMMUNITY\VC\TOOLS\MSVC\14.14.26428\INCLUDE\XLOCINFO.H
C:\PROGRAM FILES (X86)\WINDOWS KITS\10\INCLUDE\10.0.17134.0\UCRT\CTYPE.H
C:\PROGRAM FILES (X86)\WINDOWS KITS\10\INCLUDE\10.0.17134.0\UCRT\LOCALE.H
C:\PROGRAM FILES (X86)\MICROSOFT VISUAL STUDIO\2017\COMMUNITY\VC\TOOLS\MSVC\14.14.26428\INCLUDE\MEMORY
C:\PROGRAM FILES (X86)\MICROSOFT VISUAL STUDIO\2017\COMMUNITY\VC\TOOLS\MSVC\14.14.26428\INCLUDE\XFACET
C:\PROGRAM FILES (X86)\MICROSOFT VISUAL STUDIO\2017\COMMUNITY\VC\TOOLS\MSVC\14.14.26428\INCLUDE\SYSTEM_ERROR
C:\PROGRAM FILES (X86)\MICROSOFT VISUAL STUDIO\2017\COMMUNITY\VC\TOOLS\MSVC\14.14.26428\INCLUDE\CERRNO
C:\PROGRAM FILES (X86)\MICROSOFT VISUAL STUDIO\2017\COMMUNITY\VC\TOOLS\MSVC\14.14.26428\INCLUDE\XCALL_ONCE.H
C:\PROGRAM FILES (X86)\MICROSOFT VISUAL STUDIO\2017\COMMUNITY\VC\TOOLS\MSVC\14.14.26428\INCLUDE\XERRC.H
C:\PROGRAM FILES (X86)\WINDOWS KITS\10\INCLUDE\10.0.17134.0\UCRT\SHARE.H
C:\PROGRAM FILES (X86)\MICROSOFT VISUAL STUDIO\2017\COMMUNITY\VC\TOOLS\MSVC\14.14.26428\INCLUDE\VECTOR
C:\PROGRAM FILES (X86)\MICROSOFT VISUAL STUDIO\2017\COMMUNITY\VC\TOOLS\MSVC\14.14.26428\INCLUDE\MAP
C:\PROGRAM FILES (X86)\MICROSOFT VISUAL STUDIO\2017\COMMUNITY\VC\TOOLS\MSVC\14.14.26428\INCLUDE\TUPLE
C:\PROGRAM FILES (X86)\MICROSOFT VISUAL STUDIO\2017\COMMUNITY\VC\TOOLS\MSVC\14.14.26428\INCLUDE\XTREE
C:\PROGRAM FILES (X86)\MICROSOFT VISUAL STUDIO\2017\COMMUNITY\VC\TOOLS\MSVC\14.14.26428\INCLUDE\STRING
C:\PROGRAM FILES (X86)\MICROSOFT VISUAL STUDIO\2017\COMMUNITY\VC\TOOLS\MSVC\14.14.26428\INCLUDE\ISTREAM
C:\PROGRAM FILES (X86)\MICROSOFT VISUAL STUDIO\2017\COMMUNITY\VC\TOOLS\MSVC\14.14.26428\INCLUDE\XSTRING_INSERT.H
C:\PROGRAM FILES (X86)\MICROSOFT VISUAL STUDIO\2017\COMMUNITY\VC\TOOLS\MSVC\14.14.26428\INCLUDE\MUTEX
C:\PROGRAM FILES (X86)\MICROSOFT VISUAL STUDIO\2017\COMMUNITY\VC\TOOLS\MSVC\14.14.26428\INCLUDE\CHRONO
C:\PROGRAM FILES (X86)\MICROSOFT VISUAL STUDIO\2017\COMMUNITY\VC\TOOLS\MSVC\14.14.26428\INCLUDE\RATIO
C:\PROGRAM FILES (X86)\WINDOWS KITS\10\INCLUDE\10.0.17134.0\UCRT\TIME.H
C:\PROGRAM FILES (X86)\MICROSOFT VISUAL STUDIO\2017\COMMUNITY\VC\TOOLS\MSVC\14.14.26428\INCLUDE\THR\XTIMEC.H
C:\PROGRAM FILES (X86)\MICROSOFT VISUAL STUDIO\2017\COMMUNITY\VC\TOOLS\MSVC\14.14.26428\INCLUDE\THR\XTHRCOMMON.H
C:\PROGRAM FILES (X86)\MICROSOFT VISUAL STUDIO\2017\COMMUNITY\VC\TOOLS\MSVC\14.14.26428\INCLUDE\FUNCTIONAL
C:\PROGRAM FILES (X86)\MICROSOFT VISUAL STUDIO\2017\COMMUNITY\VC\TOOLS\MSVC\14.14.26428\INCLUDE\THREAD
C:\PROGRAM FILES (X86)\MICROSOFT VISUAL STUDIO\2017\COMMUNITY\VC\TOOLS\MSVC\14.14.26428\INCLUDE\THR\XTHREAD
C:\PROGRAM FILES (X86)\MICROSOFT VISUAL STUDIO\2017\COMMUNITY\VC\TOOLS\MSVC\14.14.26428\INCLUDE\THR\XTIME
C:\PROGRAM FILES (X86)\MICROSOFT VISUAL STUDIO\2017\COMMUNITY\VC\TOOLS\MSVC\14.14.26428\INCLUDE\THR\XTHREADS.H
D:\LIB\OPENMESH 7.1\INCLUDE\OPENMESH\CORE\UTILS\GENPROG.HH
D:\LIB\OPENMESH 7.1\INCLUDE\OPENMESH\CORE\IO\SR_BINARY.HH
C:\PROGRAM FILES (X86)\MICROSOFT VISUAL STUDIO\2017\COMMUNITY\VC\TOOLS\MSVC\14.14.26428\INCLUDE\SSTREAM
C:\PROGRAM FILES (X86)\MICROSOFT VISUAL STUDIO\2017\COMMUNITY\VC\TOOLS\MSVC\14.14.26428\INCLUDE\NUMERIC
D:\LIB\OPENMESH 7.1\INCLUDE\OPENMESH\CORE\IO\SR_BINARY_SPEC.HH
C:\PROGRAM FILES (X86)\MICROSOFT VISUAL STUDIO\2017\COMMUNITY\VC\TOOLS\MSVC\14.14.26428\INCLUDE\ITERATOR
D:\LIB\OPENMESH 7.1\INCLUDE\OPENMESH\CORE\GEOMETRY\VECTORT.HH
D:\LIB\OPENMESH 7.1\INCLUDE\OPENMESH\CORE\GEOMETRY\VECTOR11T.HH
C:\PROGRAM FILES (X86)\MICROSOFT VISUAL STUDIO\2017\COMMUNITY\VC\TOOLS\MSVC\14.14.26428\INCLUDE\ARRAY
C:\PROGRAM FILES (X86)\MICROSOFT VISUAL STUDIO\2017\COMMUNITY\VC\TOOLS\MSVC\14.14.26428\INCLUDE\CASSERT
D:\LIB\OPENMESH 7.1\INCLUDE\OPENMESH\CORE\MESH\STATUS.HH
D:\LIB\OPENMESH 7.1\INCLUDE\OPENMESH\CORE\IO\SR_BINARY_VECTOR_OF_FUNDAMENTALS.INL
D:\LIB\OPENMESH 7.1\INCLUDE\OPENMESH\CORE\IO\SR_BINARY_VECTOR_OF_STRING.INL
D:\LIB\OPENMESH 7.1\INCLUDE\OPENMESH\CORE\IO\SR_BINARY_VECTOR_OF_BOOL.INL
D:\LIB\OPENMESH 7.1\INCLUDE\OPENMESH\CORE\IO\STORERESTORE.HH
D:\LIB\OPENMESH 7.1\INCLUDE\OPENMESH\CORE\IO\IOMANAGER.HH
C:\PROGRAM FILES (X86)\MICROSOFT VISUAL STUDIO\2017\COMMUNITY\VC\TOOLS\MSVC\14.14.26428\INCLUDE\SET
D:\LIB\OPENMESH 7.1\INCLUDE\OPENMESH\CORE\IO\OPTIONS.HH
D:\LIB\OPENMESH 7.1\INCLUDE\OPENMESH\CORE\IO\READER\BASEREADER.HH
C:\PROGRAM FILES (X86)\MICROSOFT VISUAL STUDIO\2017\COMMUNITY\VC\TOOLS\MSVC\14.14.26428\INCLUDE\CCTYPE
D:\LIB\OPENMESH 7.1\INCLUDE\OPENMESH\CORE\IO\IMPORTER\BASEIMPORTER.HH
D:\LIB\OPENMESH 7.1\INCLUDE\OPENMESH\CORE\MESH\BASEKERNEL.HH
D:\LIB\OPENMESH 7.1\INCLUDE\OPENMESH\CORE\UTILS\PROPERTYCONTAINER.HH
D:\LIB\OPENMESH 7.1\INCLUDE\OPENMESH\CORE\UTILS\PROPERTY.HH
D:\LIB\OPENMESH 7.1\INCLUDE\OPENMESH\CORE\MESH\HANDLES.HH
D:\LIB\OPENMESH 7.1\INCLUDE\OPENMESH\CORE\UTILS\BASEPROPERTY.HH
D:\LIB\OPENMESH 7.1\INCLUDE\OPENMESH\CORE\UTILS\SINGLETONT.HH
D:\LIB\OPENMESH 7.1\INCLUDE\OPENMESH\CORE\UTILS\SINGLETONT.CC
D:\LIB\OPENMESH 7.1\INCLUDE\OPENMESH\CORE\IO\WRITER\BASEWRITER.HH
D:\LIB\OPENMESH 7.1\INCLUDE\OPENMESH\CORE\IO\EXPORTER\BASEEXPORTER.HH
D:\LIB\OPENMESH 7.1\INCLUDE\OPENMESH\CORE\IO\IMPORTER\IMPORTERT.HH
D:\LIB\OPENMESH 7.1\INCLUDE\OPENMESH\CORE\UTILS\VECTOR_CAST.HH
D:\LIB\OPENMESH 7.1\INCLUDE\OPENMESH\CORE\UTILS\VECTOR_TRAITS.HH
D:\LIB\OPENMESH 7.1\INCLUDE\OPENMESH\CORE\UTILS\COLOR_CAST.HH
D:\LIB\OPENMESH 7.1\INCLUDE\OPENMESH\CORE\MESH\ATTRIBUTES.HH
D:\LIB\OPENMESH 7.1\INCLUDE\OPENMESH\CORE\IO\EXPORTER\EXPORTERT.HH
D:\LIB\OPENMESH 7.1\INCLUDE\OPENMESH\CORE\IO\IOINSTANCES.HH
D:\LIB\OPENMESH 7.1\INCLUDE\OPENMESH\CORE\IO\READER\OBJREADER.HH
D:\LIB\OPENMESH 7.1\INCLUDE\OPENMESH\CORE\IO\READER\OFFREADER.HH
D:\LIB\OPENMESH 7.1\INCLUDE\OPENMESH\CORE\IO\READER\PLYREADER.HH
D:\LIB\OPENMESH 7.1\INCLUDE\OPENMESH\CORE\IO\READER\STLREADER.HH
D:\LIB\OPENMESH 7.1\INCLUDE\OPENMESH\CORE\IO\READER\OMREADER.HH
D:\LIB\OPENMESH 7.1\INCLUDE\OPENMESH\CORE\IO\OMFORMAT.HH
D:\LIB\OPENMESH 7.1\INCLUDE\OPENMESH\CORE\UTILS\ENDIAN.HH
C:\PROGRAM FILES (X86)\MICROSOFT VISUAL STUDIO\2017\COMMUNITY\VC\TOOLS\MSVC\14.14.26428\INCLUDE\IOSTREAM
D:\LIB\OPENMESH 7.1\INCLUDE\OPENMESH\CORE\IO\OMFORMATT.CC
C:\PROGRAM FILES (X86)\MICROSOFT VISUAL STUDIO\2017\COMMUNITY\VC\TOOLS\MSVC\14.14.26428\INCLUDE\IOMANIP
C:\PROGRAM FILES (X86)\MICROSOFT VISUAL STUDIO\2017\COMMUNITY\VC\TOOLS\MSVC\14.14.26428\INCLUDE\XLOCMON
C:\PROGRAM FILES (X86)\MICROSOFT VISUAL STUDIO\2017\COMMUNITY\VC\TOOLS\MSVC\14.14.26428\INCLUDE\XLOCTIME
C:\PROGRAM FILES (X86)\MICROSOFT VISUAL STUDIO\2017\COMMUNITY\VC\TOOLS\MSVC\14.14.26428\INCLUDE\CTIME
D:\LIB\OPENMESH 7.1\INCLUDE\OPENMESH\CORE\IO\WRITER\OBJWRITER.HH
C:\PROGRAM FILES (X86)\MICROSOFT VISUAL STUDIO\2017\COMMUNITY\VC\TOOLS\MSVC\14.14.26428\INCLUDE\FSTREAM
D:\LIB\OPENMESH 7.1\INCLUDE\OPENMESH\CORE\IO\WRITER\OFFWRITER.HH
D:\LIB\OPENMESH 7.1\INCLUDE\OPENMESH\CORE\IO\WRITER\STLWRITER.HH
D:\LIB\OPENMESH 7.1\INCLUDE\OPENMESH\CORE\IO\WRITER\OMWRITER.HH
D:\LIB\OPENMESH 7.1\INCLUDE\OPENMESH\CORE\IO\BINARYHELPER.HH
D:\LIB\OPENMESH 7.1\INCLUDE\OPENMESH\CORE\IO\WRITER\PLYWRITER.HH
D:\LIB\OPENMESH 7.1\INCLUDE\OPENMESH\CORE\MESH\POLYMESH_ARRAYKERNELT.HH
D:\LIB\OPENMESH 7.1\INCLUDE\OPENMESH\CORE\MESH\POLYCONNECTIVITY.HH
D:\LIB\OPENMESH 7.1\INCLUDE\OPENMESH\CORE\MESH\ARRAYKERNEL.HH
D:\LIB\OPENMESH 7.1\INCLUDE\OPENMESH\CORE\MESH\ARRAYITEMS.HH
D:\LIB\OPENMESH 7.1\INCLUDE\OPENMESH\CORE\MESH\ARRAYKERNELT.CC
D:\LIB\OPENMESH 7.1\INCLUDE\OPENMESH\CORE\MESH\ITERATORST.HH
D:\LIB\OPENMESH 7.1\INCLUDE\OPENMESH\CORE\MESH\CIRCULATORST.HH
D:\LIB\OPENMESH 7.1\INCLUDE\OPENMESH\CORE\MESH\TRAITS.HH
D:\LIB\OPENMESH 7.1\INCLUDE\OPENMESH\CORE\MESH\FINALMESHITEMST.HH
D:\LIB\OPENMESH 7.1\INCLUDE\OPENMESH\CORE\MESH\ATTRIBKERNELT.HH
D:\LIB\OPENMESH 7.1\INCLUDE\OPENMESH\CORE\MESH\POLYMESHT.HH
D:\LIB\OPENMESH 7.1\INCLUDE\OPENMESH\CORE\GEOMETRY\MATHDEFS.HH
D:\LIB\OPENMESH 7.1\INCLUDE\OPENMESH\CORE\MESH\POLYMESHT.CC
D:\LIB\OPENMESH 7.1\INCLUDE\OPENMESH\CORE\GEOMETRY\LOOPSCHEMEMASKT.HH
C:\PROGRAM FILES (X86)\WINDOWS KITS\10\INCLUDE\10.0.17134.0\UM\WINDOWS.H
C:\PROGRAM FILES (X86)\WINDOWS KITS\10\INCLUDE\10.0.17134.0\SHARED\WINAPIFAMILY.H
C:\PROGRAM FILES (X86)\WINDOWS KITS\10\INCLUDE\10.0.17134.0\SHARED\WINPACKAGEFAMILY.H
C:\PROGRAM FILES (X86)\WINDOWS KITS\10\INCLUDE\10.0.17134.0\SHARED\SDKDDKVER.H
C:\PROGRAM FILES (X86)\MICROSOFT VISUAL STUDIO\2017\COMMUNITY\VC\TOOLS\MSVC\14.14.26428\INCLUDE\EXCPT.H
C:\PROGRAM FILES (X86)\MICROSOFT VISUAL STUDIO\2017\COMMUNITY\VC\TOOLS\MSVC\14.14.26428\INCLUDE\STDARG.H
C:\PROGRAM FILES (X86)\WINDOWS KITS\10\INCLUDE\10.0.17134.0\SHARED\WINDEF.H
C:\PROGRAM FILES (X86)\WINDOWS KITS\10\INCLUDE\10.0.17134.0\SHARED\MINWINDEF.H
C:\PROGRAM FILES (X86)\WINDOWS KITS\10\INCLUDE\10.0.17134.0\SHARED\SPECSTRINGS.H
C:\PROGRAM FILES (X86)\WINDOWS KITS\10\INCLUDE\10.0.17134.0\SHARED\SPECSTRINGS_STRICT.H
C:\PROGRAM FILES (X86)\WINDOWS KITS\10\INCLUDE\10.0.17134.0\SHARED\SPECSTRINGS_UNDEF.H
C:\PROGRAM FILES (X86)\WINDOWS KITS\10\INCLUDE\10.0.17134.0\SHARED\DRIVERSPECS.H
C:\PROGRAM FILES (X86)\WINDOWS KITS\10\INCLUDE\10.0.17134.0\SHARED\SDV_DRIVERSPECS.H
C:\PROGRAM FILES (X86)\WINDOWS KITS\10\INCLUDE\10.0.17134.0\UM\WINNT.H
C:\PROGRAM FILES (X86)\WINDOWS KITS\10\INCLUDE\10.0.17134.0\SHARED\KERNELSPECS.H
C:\PROGRAM FILES (X86)\WINDOWS KITS\10\INCLUDE\10.0.17134.0\SHARED\BASETSD.H
C:\PROGRAM FILES (X86)\WINDOWS KITS\10\INCLUDE\10.0.17134.0\SHARED\GUIDDEF.H
C:\PROGRAM FILES (X86)\WINDOWS KITS\10\INCLUDE\10.0.17134.0\SHARED\PSHPACK4.H
C:\PROGRAM FILES (X86)\WINDOWS KITS\10\INCLUDE\10.0.17134.0\SHARED\POPPACK.H
C:\PROGRAM FILES (X86)\WINDOWS KITS\10\INCLUDE\10.0.17134.0\SHARED\PSHPACK2.H
C:\PROGRAM FILES (X86)\WINDOWS KITS\10\INCLUDE\10.0.17134.0\SHARED\PSHPACK8.H
C:\PROGRAM FILES (X86)\WINDOWS KITS\10\INCLUDE\10.0.17134.0\SHARED\PSHPACK1.H
C:\PROGRAM FILES (X86)\WINDOWS KITS\10\INCLUDE\10.0.17134.0\SHARED\APISET.H
C:\PROGRAM FILES (X86)\WINDOWS KITS\10\INCLUDE\10.0.17134.0\SHARED\KTMTYPES.H
C:\PROGRAM FILES (X86)\WINDOWS KITS\10\INCLUDE\10.0.17134.0\UM\WINBASE.H
C:\PROGRAM FILES (X86)\WINDOWS KITS\10\INCLUDE\10.0.17134.0\SHARED\APISETCCONV.H
C:\PROGRAM FILES (X86)\WINDOWS KITS\10\INCLUDE\10.0.17134.0\UM\MINWINBASE.H
C:\PROGRAM FILES (X86)\WINDOWS KITS\10\INCLUDE\10.0.17134.0\UM\PROCESSENV.H
C:\PROGRAM FILES (X86)\WINDOWS KITS\10\INCLUDE\10.0.17134.0\UM\FILEAPI.H
C:\PROGRAM FILES (X86)\WINDOWS KITS\10\INCLUDE\10.0.17134.0\UM\DEBUGAPI.H
C:\PROGRAM FILES (X86)\WINDOWS KITS\10\INCLUDE\10.0.17134.0\UM\UTILAPISET.H
C:\PROGRAM FILES (X86)\WINDOWS KITS\10\INCLUDE\10.0.17134.0\UM\HANDLEAPI.H
C:\PROGRAM FILES (X86)\WINDOWS KITS\10\INCLUDE\10.0.17134.0\UM\ERRHANDLINGAPI.H
C:\PROGRAM FILES (X86)\WINDOWS KITS\10\INCLUDE\10.0.17134.0\UM\FIBERSAPI.H
C:\PROGRAM FILES (X86)\WINDOWS KITS\10\INCLUDE\10.0.17134.0\UM\NAMEDPIPEAPI.H
C:\PROGRAM FILES (X86)\WINDOWS KITS\10\INCLUDE\10.0.17134.0\UM\PROFILEAPI.H
C:\PROGRAM FILES (X86)\WINDOWS KITS\10\INCLUDE\10.0.17134.0\UM\HEAPAPI.H
C:\PROGRAM FILES (X86)\WINDOWS KITS\10\INCLUDE\10.0.17134.0\UM\IOAPISET.H
C:\PROGRAM FILES (X86)\WINDOWS KITS\10\INCLUDE\10.0.17134.0\UM\SYNCHAPI.H
C:\PROGRAM FILES (X86)\WINDOWS KITS\10\INCLUDE\10.0.17134.0\UM\INTERLOCKEDAPI.H
C:\PROGRAM FILES (X86)\WINDOWS KITS\10\INCLUDE\10.0.17134.0\UM\PROCESSTHREADSAPI.H
C:\PROGRAM FILES (X86)\WINDOWS KITS\10\INCLUDE\10.0.17134.0\UM\SYSINFOAPI.H
C:\PROGRAM FILES (X86)\WINDOWS KITS\10\INCLUDE\10.0.17134.0\UM\MEMORYAPI.H
C:\PROGRAM FILES (X86)\WINDOWS KITS\10\INCLUDE\10.0.17134.0\UM\ENCLAVEAPI.H
C:\PROGRAM FILES (X86)\WINDOWS KITS\10\INCLUDE\10.0.17134.0\UM\THREADPOOLLEGACYAPISET.H
C:\PROGRAM FILES (X86)\WINDOWS KITS\10\INCLUDE\10.0.17134.0\UM\THREADPOOLAPISET.H
C:\PROGRAM FILES (X86)\WINDOWS KITS\10\INCLUDE\10.0.17134.0\UM\JOBAPI.H
C:\PROGRAM FILES (X86)\WINDOWS KITS\10\INCLUDE\10.0.17134.0\UM\JOBAPI2.H
C:\PROGRAM FILES (X86)\WINDOWS KITS\10\INCLUDE\10.0.17134.0\UM\WOW64APISET.H
C:\PROGRAM FILES (X86)\WINDOWS KITS\10\INCLUDE\10.0.17134.0\UM\LIBLOADERAPI.H
C:\PROGRAM FILES (X86)\WINDOWS KITS\10\INCLUDE\10.0.17134.0\UM\SECURITYBASEAPI.H
C:\PROGRAM FILES (X86)\WINDOWS KITS\10\INCLUDE\10.0.17134.0\UM\NAMESPACEAPI.H
C:\PROGRAM FILES (X86)\WINDOWS KITS\10\INCLUDE\10.0.17134.0\UM\SYSTEMTOPOLOGYAPI.H
C:\PROGRAM FILES (X86)\WINDOWS KITS\10\INCLUDE\10.0.17134.0\UM\PROCESSTOPOLOGYAPI.H
C:\PROGRAM FILES (X86)\WINDOWS KITS\10\INCLUDE\10.0.17134.0\UM\SECURITYAPPCONTAINER.H
C:\PROGRAM FILES (X86)\WINDOWS KITS\10\INCLUDE\10.0.17134.0\UM\REALTIMEAPISET.H
C:\PROGRAM FILES (X86)\WINDOWS KITS\10\INCLUDE\10.0.17134.0\SHARED\WINERROR.H
C:\PROGRAM FILES (X86)\WINDOWS KITS\10\INCLUDE\10.0.17134.0\UM\TIMEZONEAPI.H
C:\PROGRAM FILES (X86)\WINDOWS KITS\10\INCLUDE\10.0.17134.0\UM\WINGDI.H
C:\PROGRAM FILES (X86)\WINDOWS KITS\10\INCLUDE\10.0.17134.0\UM\WINUSER.H
C:\PROGRAM FILES (X86)\WINDOWS KITS\10\INCLUDE\10.0.17134.0\SHARED\TVOUT.H
C:\PROGRAM FILES (X86)\WINDOWS KITS\10\INCLUDE\10.0.17134.0\UM\WINNLS.H
C:\PROGRAM FILES (X86)\WINDOWS KITS\10\INCLUDE\10.0.17134.0\UM\DATETIMEAPI.H
C:\PROGRAM FILES (X86)\WINDOWS KITS\10\INCLUDE\10.0.17134.0\UM\STRINGAPISET.H
C:\PROGRAM FILES (X86)\WINDOWS KITS\10\INCLUDE\10.0.17134.0\UM\WINCON.H
C:\PROGRAM FILES (X86)\WINDOWS KITS\10\INCLUDE\10.0.17134.0\UM\WINCONTYPES.H
C:\PROGRAM FILES (X86)\WINDOWS KITS\10\INCLUDE\10.0.17134.0\UM\CONSOLEAPI.H
C:\PROGRAM FILES (X86)\WINDOWS KITS\10\INCLUDE\10.0.17134.0\UM\CONSOLEAPI2.H
C:\PROGRAM FILES (X86)\WINDOWS KITS\10\INCLUDE\10.0.17134.0\UM\CONSOLEAPI3.H
C:\PROGRAM FILES (X86)\WINDOWS KITS\10\INCLUDE\10.0.17134.0\UM\WINVER.H
C:\PROGRAM FILES (X86)\WINDOWS KITS\10\INCLUDE\10.0.17134.0\UM\VERRSRC.H
C:\PROGRAM FILES (X86)\WINDOWS KITS\10\INCLUDE\10.0.17134.0\UM\WINREG.H
C:\PROGRAM FILES (X86)\WINDOWS KITS\10\INCLUDE\10.0.17134.0\UM\REASON.H
C:\PROGRAM FILES (X86)\WINDOWS KITS\10\INCLUDE\10.0.17134.0\UM\WINNETWK.H
C:\PROGRAM FILES (X86)\WINDOWS KITS\10\INCLUDE\10.0.17134.0\SHARED\WNNC.H
C:\PROGRAM FILES (X86)\WINDOWS KITS\10\INCLUDE\10.0.17134.0\SHARED\CDERR.H
C:\PROGRAM FILES (X86)\WINDOWS KITS\10\INCLUDE\10.0.17134.0\UM\DDE.H
C:\PROGRAM FILES (X86)\WINDOWS KITS\10\INCLUDE\10.0.17134.0\UM\DDEML.H
C:\PROGRAM FILES (X86)\WINDOWS KITS\10\INCLUDE\10.0.17134.0\UM\DLGS.H
C:\PROGRAM FILES (X86)\WINDOWS KITS\10\INCLUDE\10.0.17134.0\UM\LZEXPAND.H
C:\PROGRAM FILES (X86)\WINDOWS KITS\10\INCLUDE\10.0.17134.0\UM\MMSYSTEM.H
C:\PROGRAM FILES (X86)\WINDOWS KITS\10\INCLUDE\10.0.17134.0\UM\MMSYSCOM.H
C:\PROGRAM FILES (X86)\WINDOWS KITS\10\INCLUDE\10.0.17134.0\UM\MCIAPI.H
C:\PROGRAM FILES (X86)\WINDOWS KITS\10\INCLUDE\10.0.17134.0\UM\MMISCAPI.H
C:\PROGRAM FILES (X86)\WINDOWS KITS\10\INCLUDE\10.0.17134.0\UM\MMISCAPI2.H
C:\PROGRAM FILES (X86)\WINDOWS KITS\10\INCLUDE\10.0.17134.0\UM\PLAYSOUNDAPI.H
C:\PROGRAM FILES (X86)\WINDOWS KITS\10\INCLUDE\10.0.17134.0\UM\MMEAPI.H
C:\PROGRAM FILES (X86)\WINDOWS KITS\10\INCLUDE\10.0.17134.0\UM\TIMEAPI.H
C:\PROGRAM FILES (X86)\WINDOWS KITS\10\INCLUDE\10.0.17134.0\UM\JOYSTICKAPI.H
C:\PROGRAM FILES (X86)\WINDOWS KITS\10\INCLUDE\10.0.17134.0\UM\NB30.H
C:\PROGRAM FILES (X86)\WINDOWS KITS\10\INCLUDE\10.0.17134.0\SHARED\RPC.H
C:\PROGRAM FILES (X86)\WINDOWS KITS\10\INCLUDE\10.0.17134.0\SHARED\RPCDCE.H
C:\PROGRAM FILES (X86)\WINDOWS KITS\10\INCLUDE\10.0.17134.0\SHARED\RPCDCEP.H
C:\PROGRAM FILES (X86)\WINDOWS KITS\10\INCLUDE\10.0.17134.0\UM\RPCNSI.H
C:\PROGRAM FILES (X86)\WINDOWS KITS\10\INCLUDE\10.0.17134.0\SHARED\RPCNTERR.H
C:\PROGRAM FILES (X86)\WINDOWS KITS\10\INCLUDE\10.0.17134.0\SHARED\RPCASYNC.H
C:\PROGRAM FILES (X86)\WINDOWS KITS\10\INCLUDE\10.0.17134.0\UM\SHELLAPI.H
C:\PROGRAM FILES (X86)\WINDOWS KITS\10\INCLUDE\10.0.17134.0\UM\WINPERF.H
C:\PROGRAM FILES (X86)\WINDOWS KITS\10\INCLUDE\10.0.17134.0\UM\WINSOCK.H
C:\PROGRAM FILES (X86)\WINDOWS KITS\10\INCLUDE\10.0.17134.0\SHARED\INADDR.H
C:\PROGRAM FILES (X86)\WINDOWS KITS\10\INCLUDE\10.0.17134.0\UM\WINCRYPT.H
C:\PROGRAM FILES (X86)\WINDOWS KITS\10\INCLUDE\10.0.17134.0\SHARED\BCRYPT.H
C:\PROGRAM FILES (X86)\WINDOWS KITS\10\INCLUDE\10.0.17134.0\UM\NCRYPT.H
C:\PROGRAM FILES (X86)\WINDOWS KITS\10\INCLUDE\10.0.17134.0\UM\DPAPI.H
C:\PROGRAM FILES (X86)\WINDOWS KITS\10\INCLUDE\10.0.17134.0\UM\WINEFS.H
C:\PROGRAM FILES (X86)\WINDOWS KITS\10\INCLUDE\10.0.17134.0\UM\WINSCARD.H
C:\PROGRAM FILES (X86)\WINDOWS KITS\10\INCLUDE\10.0.17134.0\SHARED\WTYPES.H
C:\PROGRAM FILES (X86)\WINDOWS KITS\10\INCLUDE\10.0.17134.0\SHARED\RPCNDR.H
C:\PROGRAM FILES (X86)\WINDOWS KITS\10\INCLUDE\10.0.17134.0\UM\RPCNSIP.H
C:\PROGRAM FILES (X86)\WINDOWS KITS\10\INCLUDE\10.0.17134.0\SHARED\RPCSAL.H
C:\PROGRAM FILES (X86)\WINDOWS KITS\10\INCLUDE\10.0.17134.0\SHARED\WTYPESBASE.H
C:\PROGRAM FILES (X86)\WINDOWS KITS\10\INCLUDE\10.0.17134.0\UM\WINIOCTL.H
C:\PROGRAM FILES (X86)\WINDOWS KITS\10\INCLUDE\10.0.17134.0\SHARED\WINSMCRD.H
C:\PROGRAM FILES (X86)\WINDOWS KITS\10\INCLUDE\10.0.17134.0\UM\WINSPOOL.H
C:\PROGRAM FILES (X86)\WINDOWS KITS\10\INCLUDE\10.0.17134.0\UM\PRSHT.H
C:\PROGRAM FILES (X86)\WINDOWS KITS\10\INCLUDE\10.0.17134.0\UM\OLE2.H
C:\PROGRAM FILES (X86)\WINDOWS KITS\10\INCLUDE\10.0.17134.0\UM\OBJBASE.H
C:\PROGRAM FILES (X86)\WINDOWS KITS\10\INCLUDE\10.0.17134.0\UM\COMBASEAPI.H
C:\PROGRAM FILES (X86)\WINDOWS KITS\10\INCLUDE\10.0.17134.0\UM\UNKNWNBASE.H
C:\PROGRAM FILES (X86)\WINDOWS KITS\10\INCLUDE\10.0.17134.0\UM\OBJIDLBASE.H
C:\PROGRAM FILES (X86)\WINDOWS KITS\10\INCLUDE\10.0.17134.0\UM\CGUID.H
C:\PROGRAM FILES (X86)\WINDOWS KITS\10\INCLUDE\10.0.17134.0\UM\COML2API.H
C:\PROGRAM FILES (X86)\WINDOWS KITS\10\INCLUDE\10.0.17134.0\UM\OBJIDL.H
C:\PROGRAM FILES (X86)\WINDOWS KITS\10\INCLUDE\10.0.17134.0\UM\UNKNWN.H
C:\PROGRAM FILES (X86)\WINDOWS KITS\10\INCLUDE\10.0.17134.0\UM\PROPIDLBASE.H
C:\PROGRAM FILES (X86)\WINDOWS KITS\10\INCLUDE\10.0.17134.0\UM\OAIDL.H
C:\PROGRAM FILES (X86)\WINDOWS KITS\10\INCLUDE\10.0.17134.0\UM\URLMON.H
C:\PROGRAM FILES (X86)\WINDOWS KITS\10\INCLUDE\10.0.17134.0\UM\OLEIDL.H
C:\PROGRAM FILES (X86)\WINDOWS KITS\10\INCLUDE\10.0.17134.0\UM\SERVPROV.H
C:\PROGRAM FILES (X86)\WINDOWS KITS\10\INCLUDE\10.0.17134.0\UM\MSXML.H
C:\PROGRAM FILES (X86)\WINDOWS KITS\10\INCLUDE\10.0.17134.0\UM\PROPIDL.H
C:\PROGRAM FILES (X86)\WINDOWS KITS\10\INCLUDE\10.0.17134.0\UM\OLEAUTO.H
C:\PROGRAM FILES (X86)\WINDOWS KITS\10\INCLUDE\10.0.17134.0\UM\COMMDLG.H
C:\PROGRAM FILES (X86)\WINDOWS KITS\10\INCLUDE\10.0.17134.0\SHARED\STRALIGN.H
C:\PROGRAM FILES (X86)\WINDOWS KITS\10\INCLUDE\10.0.17134.0\UM\WINSVC.H
C:\PROGRAM FILES (X86)\WINDOWS KITS\10\INCLUDE\10.0.17134.0\UM\MCX.H
C:\PROGRAM FILES (X86)\WINDOWS KITS\10\INCLUDE\10.0.17134.0\UM\IMM.H
C:\PROGRAM FILES (X86)\WINDOWS KITS\10\INCLUDE\10.0.17134.0\UM\IME_CMODES.H
D:\LIB\EIGEN\DENSE
D:\LIB\EIGEN\CORE
D:\LIB\EIGEN\SRC\CORE\UTIL\DISABLESTUPIDWARNINGS.H
D:\LIB\EIGEN\SRC\CORE\UTIL\MACROS.H
C:\PROGRAM FILES (X86)\MICROSOFT VISUAL STUDIO\2017\COMMUNITY\VC\TOOLS\MSVC\14.14.26428\INCLUDE\COMPLEX
D:\LIB\EIGEN\SRC\CORE\UTIL\MKL_SUPPORT.H
C:\PROGRAM FILES (X86)\MICROSOFT VISUAL STUDIO\2017\COMMUNITY\VC\TOOLS\MSVC\14.14.26428\INCLUDE\EMMINTRIN.H
C:\PROGRAM FILES (X86)\MICROSOFT VISUAL STUDIO\2017\COMMUNITY\VC\TOOLS\MSVC\14.14.26428\INCLUDE\XMMINTRIN.H
C:\PROGRAM FILES (X86)\MICROSOFT VISUAL STUDIO\2017\COMMUNITY\VC\TOOLS\MSVC\14.14.26428\INCLUDE\MMINTRIN.H
C:\PROGRAM FILES (X86)\MICROSOFT VISUAL STUDIO\2017\COMMUNITY\VC\TOOLS\MSVC\14.14.26428\INCLUDE\INTRIN.H
C:\PROGRAM FILES (X86)\MICROSOFT VISUAL STUDIO\2017\COMMUNITY\VC\TOOLS\MSVC\14.14.26428\INCLUDE\SETJMP.H
C:\PROGRAM FILES (X86)\MICROSOFT VISUAL STUDIO\2017\COMMUNITY\VC\TOOLS\MSVC\14.14.26428\INCLUDE\IMMINTRIN.H
C:\PROGRAM FILES (X86)\MICROSOFT VISUAL STUDIO\2017\COMMUNITY\VC\TOOLS\MSVC\14.14.26428\INCLUDE\WMMINTRIN.H
C:\PROGRAM FILES (X86)\MICROSOFT VISUAL STUDIO\2017\COMMUNITY\VC\TOOLS\MSVC\14.14.26428\INCLUDE\NMMINTRIN.H
C:\PROGRAM FILES (X86)\MICROSOFT VISUAL STUDIO\2017\COMMUNITY\VC\TOOLS\MSVC\14.14.26428\INCLUDE\SMMINTRIN.H
C:\PROGRAM FILES (X86)\MICROSOFT VISUAL STUDIO\2017\COMMUNITY\VC\TOOLS\MSVC\14.14.26428\INCLUDE\TMMINTRIN.H
C:\PROGRAM FILES (X86)\MICROSOFT VISUAL STUDIO\2017\COMMUNITY\VC\TOOLS\MSVC\14.14.26428\INCLUDE\PMMINTRIN.H
C:\PROGRAM FILES (X86)\MICROSOFT VISUAL STUDIO\2017\COMMUNITY\VC\TOOLS\MSVC\14.14.26428\INCLUDE\ZMMINTRIN.H
C:\PROGRAM FILES (X86)\MICROSOFT VISUAL STUDIO\2017\COMMUNITY\VC\TOOLS\MSVC\14.14.26428\INCLUDE\AMMINTRIN.H
D:\LIB\EIGEN\SRC\CORE\UTIL\CONSTANTS.H
D:\LIB\EIGEN\SRC\CORE\UTIL\FORWARDDECLARATIONS.H
D:\LIB\EIGEN\SRC\CORE\UTIL\META.H
D:\LIB\EIGEN\SRC\CORE\UTIL\STATICASSERT.H
D:\LIB\EIGEN\SRC\CORE\UTIL\XPRHELPER.H
D:\LIB\EIGEN\SRC\CORE\UTIL\MEMORY.H
D:\LIB\EIGEN\SRC\CORE\NUMTRAITS.H
D:\LIB\EIGEN\SRC\CORE\MATHFUNCTIONS.H
D:\LIB\EIGEN\SRC\CORE\GENERICPACKETMATH.H
D:\LIB\EIGEN\SRC\CORE\ARCH\SSE\PACKETMATH.H
D:\LIB\EIGEN\SRC\CORE\ARCH\SSE\MATHFUNCTIONS.H
D:\LIB\EIGEN\SRC\CORE\ARCH\SSE\COMPLEX.H
D:\LIB\EIGEN\SRC\CORE\ARCH\DEFAULT\SETTINGS.H
D:\LIB\EIGEN\SRC\CORE\FUNCTORS.H
D:\LIB\EIGEN\SRC\CORE\DENSECOEFFSBASE.H
D:\LIB\EIGEN\SRC\CORE\DENSEBASE.H
D:\LIB\EIGEN\SRC\PLUGINS\BLOCKMETHODS.H
D:\LIB\EIGEN\SRC\CORE\MATRIXBASE.H
D:\LIB\EIGEN\SRC\PLUGINS\COMMONCWISEUNARYOPS.H
D:\LIB\EIGEN\SRC\PLUGINS\COMMONCWISEBINARYOPS.H
D:\LIB\EIGEN\SRC\PLUGINS\MATRIXCWISEUNARYOPS.H
D:\LIB\EIGEN\SRC\PLUGINS\MATRIXCWISEBINARYOPS.H
D:\LIB\EIGEN\SRC\CORE\EIGENBASE.H
D:\LIB\EIGEN\SRC\CORE\ASSIGN.H
D:\LIB\EIGEN\SRC\CORE\UTIL\BLASUTIL.H
D:\LIB\EIGEN\SRC\CORE\DENSESTORAGE.H
D:\LIB\EIGEN\SRC\CORE\NESTBYVALUE.H
D:\LIB\EIGEN\SRC\CORE\FORCEALIGNEDACCESS.H
D:\LIB\EIGEN\SRC\CORE\RETURNBYVALUE.H
D:\LIB\EIGEN\SRC\CORE\NOALIAS.H
D:\LIB\EIGEN\SRC\CORE\PLAINOBJECTBASE.H
D:\LIB\EIGEN\SRC\CORE\MATRIX.H
D:\LIB\EIGEN\SRC\CORE\ARRAY.H
D:\LIB\EIGEN\SRC\CORE\CWISEBINARYOP.H
D:\LIB\EIGEN\SRC\CORE\CWISEUNARYOP.H
D:\LIB\EIGEN\SRC\CORE\CWISENULLARYOP.H
D:\LIB\EIGEN\SRC\CORE\CWISEUNARYVIEW.H
D:\LIB\EIGEN\SRC\CORE\SELFCWISEBINARYOP.H
D:\LIB\EIGEN\SRC\CORE\DOT.H
D:\LIB\EIGEN\SRC\CORE\STABLENORM.H
D:\LIB\EIGEN\SRC\CORE\MAPBASE.H
D:\LIB\EIGEN\SRC\CORE\STRIDE.H
D:\LIB\EIGEN\SRC\CORE\MAP.H
D:\LIB\EIGEN\SRC\CORE\BLOCK.H
D:\LIB\EIGEN\SRC\CORE\VECTORBLOCK.H
D:\LIB\EIGEN\SRC\CORE\REF.H
D:\LIB\EIGEN\SRC\CORE\TRANSPOSE.H
D:\LIB\EIGEN\SRC\CORE\DIAGONALMATRIX.H
D:\LIB\EIGEN\SRC\CORE\DIAGONAL.H
D:\LIB\EIGEN\SRC\CORE\DIAGONALPRODUCT.H
D:\LIB\EIGEN\SRC\CORE\PERMUTATIONMATRIX.H
D:\LIB\EIGEN\SRC\CORE\TRANSPOSITIONS.H
D:\LIB\EIGEN\SRC\CORE\REDUX.H
D:\LIB\EIGEN\SRC\CORE\VISITOR.H
D:\LIB\EIGEN\SRC\CORE\FUZZY.H
D:\LIB\EIGEN\SRC\CORE\IO.H
D:\LIB\EIGEN\SRC\CORE\SWAP.H
D:\LIB\EIGEN\SRC\CORE\COMMAINITIALIZER.H
D:\LIB\EIGEN\SRC\CORE\FLAGGED.H
D:\LIB\EIGEN\SRC\CORE\PRODUCTBASE.H
D:\LIB\EIGEN\SRC\CORE\GENERALPRODUCT.H
D:\LIB\EIGEN\SRC\CORE\TRIANGULARMATRIX.H
D:\LIB\EIGEN\SRC\CORE\SELFADJOINTVIEW.H
D:\LIB\EIGEN\SRC\CORE\PRODUCTS\GENERALBLOCKPANELKERNEL.H
D:\LIB\EIGEN\SRC\CORE\PRODUCTS\PARALLELIZER.H
D:\LIB\EIGEN\SRC\CORE\PRODUCTS\COEFFBASEDPRODUCT.H
D:\LIB\EIGEN\SRC\CORE\PRODUCTS\GENERALMATRIXVECTOR.H
D:\LIB\EIGEN\SRC\CORE\PRODUCTS\GENERALMATRIXMATRIX.H
D:\LIB\EIGEN\SRC\CORE\SOLVETRIANGULAR.H
D:\LIB\EIGEN\SRC\CORE\PRODUCTS\GENERALMATRIXMATRIXTRIANGULAR.H
D:\LIB\EIGEN\SRC\CORE\PRODUCTS\SELFADJOINTMATRIXVECTOR.H
D:\LIB\EIGEN\SRC\CORE\PRODUCTS\SELFADJOINTMATRIXMATRIX.H
D:\LIB\EIGEN\SRC\CORE\PRODUCTS\SELFADJOINTPRODUCT.H
D:\LIB\EIGEN\SRC\CORE\PRODUCTS\SELFADJOINTRANK2UPDATE.H
D:\LIB\EIGEN\SRC\CORE\PRODUCTS\TRIANGULARMATRIXVECTOR.H
D:\LIB\EIGEN\SRC\CORE\PRODUCTS\TRIANGULARMATRIXMATRIX.H
D:\LIB\EIGEN\SRC\CORE\PRODUCTS\TRIANGULARSOLVERMATRIX.H
D:\LIB\EIGEN\SRC\CORE\PRODUCTS\TRIANGULARSOLVERVECTOR.H
D:\LIB\EIGEN\SRC\CORE\BANDMATRIX.H
D:\LIB\EIGEN\SRC\CORE\COREITERATORS.H
D:\LIB\EIGEN\SRC\CORE\BOOLEANREDUX.H
D:\LIB\EIGEN\SRC\CORE\SELECT.H
D:\LIB\EIGEN\SRC\CORE\VECTORWISEOP.H
D:\LIB\EIGEN\SRC\CORE\RANDOM.H
D:\LIB\EIGEN\SRC\CORE\REPLICATE.H
D:\LIB\EIGEN\SRC\CORE\REVERSE.H
D:\LIB\EIGEN\SRC\CORE\ARRAYBASE.H
D:\LIB\EIGEN\SRC\PLUGINS\ARRAYCWISEUNARYOPS.H
D:\LIB\EIGEN\SRC\PLUGINS\ARRAYCWISEBINARYOPS.H
D:\LIB\EIGEN\SRC\CORE\ARRAYWRAPPER.H
D:\LIB\EIGEN\SRC\CORE\GLOBALFUNCTIONS.H
D:\LIB\EIGEN\SRC\CORE\UTIL\REENABLESTUPIDWARNINGS.H
D:\LIB\EIGEN\LU
D:\LIB\EIGEN\SRC\MISC\SOLVE.H
D:\LIB\EIGEN\SRC\MISC\KERNEL.H
D:\LIB\EIGEN\SRC\MISC\IMAGE.H
D:\LIB\EIGEN\SRC\LU\FULLPIVLU.H
D:\LIB\EIGEN\SRC\LU\PARTIALPIVLU.H
D:\LIB\EIGEN\SRC\LU\DETERMINANT.H
D:\LIB\EIGEN\SRC\LU\INVERSE.H
D:\LIB\EIGEN\SRC\LU\ARCH\INVERSE_SSE.H
D:\LIB\EIGEN\CHOLESKY
D:\LIB\EIGEN\SRC\CHOLESKY\LLT.H
D:\LIB\EIGEN\SRC\CHOLESKY\LDLT.H
D:\LIB\EIGEN\QR
D:\LIB\EIGEN\JACOBI
D:\LIB\EIGEN\SRC\JACOBI\JACOBI.H
D:\LIB\EIGEN\HOUSEHOLDER
D:\LIB\EIGEN\SRC\HOUSEHOLDER\HOUSEHOLDER.H
D:\LIB\EIGEN\SRC\HOUSEHOLDER\HOUSEHOLDERSEQUENCE.H
D:\LIB\EIGEN\SRC\HOUSEHOLDER\BLOCKHOUSEHOLDER.H
D:\LIB\EIGEN\SRC\QR\HOUSEHOLDERQR.H
D:\LIB\EIGEN\SRC\QR\FULLPIVHOUSEHOLDERQR.H
D:\LIB\EIGEN\SRC\QR\COLPIVHOUSEHOLDERQR.H
D:\LIB\EIGEN\SVD
D:\LIB\EIGEN\SRC\SVD\JACOBISVD.H
D:\LIB\EIGEN\SRC\SVD\UPPERBIDIAGONALIZATION.H
D:\LIB\EIGEN\GEOMETRY
D:\LIB\EIGEN\SRC\GEOMETRY\ORTHOMETHODS.H
D:\LIB\EIGEN\SRC\GEOMETRY\EULERANGLES.H
D:\LIB\EIGEN\SRC\GEOMETRY\HOMOGENEOUS.H
D:\LIB\EIGEN\SRC\GEOMETRY\ROTATIONBASE.H
D:\LIB\EIGEN\SRC\GEOMETRY\ROTATION2D.H
D:\LIB\EIGEN\SRC\GEOMETRY\QUATERNION.H
D:\LIB\EIGEN\SRC\GEOMETRY\ANGLEAXIS.H
D:\LIB\EIGEN\SRC\GEOMETRY\TRANSFORM.H
D:\LIB\EIGEN\SRC\GEOMETRY\TRANSLATION.H
D:\LIB\EIGEN\SRC\GEOMETRY\SCALING.H
D:\LIB\EIGEN\SRC\GEOMETRY\HYPERPLANE.H
D:\LIB\EIGEN\SRC\GEOMETRY\PARAMETRIZEDLINE.H
D:\LIB\EIGEN\SRC\GEOMETRY\ALIGNEDBOX.H
D:\LIB\EIGEN\SRC\GEOMETRY\UMEYAMA.H
D:\LIB\EIGEN\SRC\GEOMETRY\ARCH\GEOMETRY_SSE.H
D:\LIB\EIGEN\EIGENVALUES
D:\LIB\EIGEN\SRC\EIGENVALUES\TRIDIAGONALIZATION.H
D:\LIB\EIGEN\SRC\EIGENVALUES\REALSCHUR.H
D:\LIB\EIGEN\SRC\EIGENVALUES\HESSENBERGDECOMPOSITION.H
D:\LIB\EIGEN\SRC\EIGENVALUES\EIGENSOLVER.H
D:\LIB\EIGEN\SRC\EIGENVALUES\SELFADJOINTEIGENSOLVER.H
D:\LIB\EIGEN\SRC\EIGENVALUES\GENERALIZEDSELFADJOINTEIGENSOLVER.H
D:\LIB\EIGEN\SRC\EIGENVALUES\COMPLEXSCHUR.H
D:\LIB\EIGEN\SRC\EIGENVALUES\COMPLEXEIGENSOLVER.H
D:\LIB\EIGEN\SRC\EIGENVALUES\REALQZ.H
D:\LIB\EIGEN\SRC\EIGENVALUES\GENERALIZEDEIGENSOLVER.H
D:\LIB\EIGEN\SRC\EIGENVALUES\MATRIXBASEEIGENVALUES.H
