^D:\LIB\OPENCV_420\OPENCV\SOURCES\APPS\VERSION\OPENCV_VERSION.CPP
D:\LIB\OPENCV_420\BUILDR001\APPS\VERSION\OPENCV_VERSION_WIN32.DIR\DEBUG\VC141.PDB
D:\LIB\OPENCV_420\BUILDR001\APPS\VERSION\OPENCV_VERSION_WIN32.DIR\DEBUG\OPENCV_VERSION.OBJ
