^D:\LIB\OPENCV_420\BUILDR001\APPS\VERSION\OPENCV_VERSION_WIN32.DIR\DEBUG\OPENCV_VERSION.OBJ
D:\LIB\OPENCV_420\BUILDR001\BIN\DEBUG\OPENCV_VERSION_WIN32D.ILK
D:\LIB\OPENCV_420\BUILDR001\BIN\DEBUG\OPENCV_VERSION_WIN32D.EXE
D:\LIB\OPENCV_420\BUILDR001\BIN\DEBUG\OPENCV_VERSION_WIN32D.PDB
