^D:\WORK\OBJ_CONTROL\OBJ_CONTROL\OFFSET_FITTING\OFFSET_FITTING.CPP
D:\WORK\OBJ_CONTROL\OBJ_CONTROL\OFFSET_FITTING\X64\DEBUG\VC141.PDB
D:\WORK\OBJ_CONTROL\OBJ_CONTROL\OFFSET_FITTING\X64\DEBUG\VC141.IDB
D:\WORK\OBJ_CONTROL\OBJ_CONTROL\OFFSET_FITTING\X64\DEBUG\OFFSET_FITTING.OBJ
