^D:\WORK\OBJ_CONTROL\OBJ_CONTROL\OBJ_CONTROL\OBJ_CONTROL.CPP
D:\WORK\OBJ_CONTROL\OBJ_CONTROL\OBJ_CONTROL\X64\DEBUG\VC141.PDB
D:\WORK\OBJ_CONTROL\OBJ_CONTROL\OBJ_CONTROL\X64\DEBUG\VC141.IDB
D:\WORK\OBJ_CONTROL\OBJ_CONTROL\OBJ_CONTROL\X64\DEBUG\OBJ_CONTROL.OBJ
