^D:\LIB\OPENCV_420\OPENCV_CONTRIB-4.2.0\MODULES\IMG_HASH\CMAKELISTS.TXT
D:\LIB\OPENCV_420\OPENCV\SOURCES\CMAKE\TEMPLATES\DLLMAIN.CPP.IN
D:\LIB\OPENCV_420\OPENCV\SOURCES\CMAKE\TEMPLATES\VS_VERSION.RC.IN
