^D:\LIB\OPENCV_420\OPENCV\SOURCES\MODULES\WORLD\CMAKELISTS.TXT
D:\LIB\OPENCV_420\OPENCV\SOURCES\CMAKE\TEMPLATES\VS_VERSION.RC.IN
D:\LIB\OPENCV_420\OPENCV\SOURCES\MODULES\CALIB3D\CMAKELISTS.TXT
D:\LIB\OPENCV_420\OPENCV\SOURCES\MODULES\CORE\CMAKELISTS.TXT
D:\LIB\OPENCV_420\OPENCV\SOURCES\MODULES\DNN\CMAKELISTS.TXT
D:\LIB\OPENCV_420\OPENCV\SOURCES\MODULES\DNN\CMAKE\HOOKS\INIT_MODULE_SOURCES_OPENCV_DNN.CMAKE
D:\LIB\OPENCV_420\OPENCV\SOURCES\MODULES\FEATURES2D\CMAKELISTS.TXT
D:\LIB\OPENCV_420\OPENCV\SOURCES\MODULES\FLANN\CMAKELISTS.TXT
D:\LIB\OPENCV_420\OPENCV\SOURCES\MODULES\GAPI\CMAKELISTS.TXT
D:\LIB\OPENCV_420\OPENCV\SOURCES\MODULES\HIGHGUI\CMAKELISTS.TXT
D:\LIB\OPENCV_420\OPENCV\SOURCES\MODULES\IMGCODECS\CMAKELISTS.TXT
D:\LIB\OPENCV_420\OPENCV\SOURCES\MODULES\IMGPROC\CMAKELISTS.TXT
D:\LIB\OPENCV_420\OPENCV\SOURCES\MODULES\ML\CMAKELISTS.TXT
D:\LIB\OPENCV_420\OPENCV\SOURCES\MODULES\OBJDETECT\CMAKELISTS.TXT
D:\LIB\OPENCV_420\OPENCV\SOURCES\MODULES\PHOTO\CMAKELISTS.TXT
D:\LIB\OPENCV_420\OPENCV\SOURCES\MODULES\STITCHING\CMAKELISTS.TXT
D:\LIB\OPENCV_420\OPENCV\SOURCES\MODULES\VIDEO\CMAKELISTS.TXT
D:\LIB\OPENCV_420\OPENCV\SOURCES\MODULES\VIDEOIO\CMAKELISTS.TXT
D:\LIB\OPENCV_420\OPENCV\SOURCES\MODULES\VIDEOIO\CMAKE\PLUGIN.CMAKE
D:\LIB\OPENCV_420\OPENCV_CONTRIB-4.2.0\MODULES\ARUCO\CMAKELISTS.TXT
D:\LIB\OPENCV_420\OPENCV_CONTRIB-4.2.0\MODULES\BGSEGM\CMAKELISTS.TXT
D:\LIB\OPENCV_420\OPENCV_CONTRIB-4.2.0\MODULES\BIOINSPIRED\CMAKELISTS.TXT
D:\LIB\OPENCV_420\OPENCV_CONTRIB-4.2.0\MODULES\CCALIB\CMAKELISTS.TXT
D:\LIB\OPENCV_420\OPENCV_CONTRIB-4.2.0\MODULES\DATASETS\CMAKELISTS.TXT
D:\LIB\OPENCV_420\OPENCV_CONTRIB-4.2.0\MODULES\DNN_OBJDETECT\CMAKELISTS.TXT
D:\LIB\OPENCV_420\OPENCV_CONTRIB-4.2.0\MODULES\DNN_SUPERRES\CMAKELISTS.TXT
D:\LIB\OPENCV_420\OPENCV_CONTRIB-4.2.0\MODULES\DPM\CMAKELISTS.TXT
D:\LIB\OPENCV_420\OPENCV_CONTRIB-4.2.0\MODULES\FACE\CMAKELISTS.TXT
D:\LIB\OPENCV_420\OPENCV_CONTRIB-4.2.0\MODULES\FUZZY\CMAKELISTS.TXT
D:\LIB\OPENCV_420\OPENCV_CONTRIB-4.2.0\MODULES\HFS\CMAKELISTS.TXT
D:\LIB\OPENCV_420\OPENCV_CONTRIB-4.2.0\MODULES\LINE_DESCRIPTOR\CMAKELISTS.TXT
D:\LIB\OPENCV_420\OPENCV_CONTRIB-4.2.0\MODULES\OPTFLOW\CMAKELISTS.TXT
D:\LIB\OPENCV_420\OPENCV_CONTRIB-4.2.0\MODULES\PHASE_UNWRAPPING\CMAKELISTS.TXT
D:\LIB\OPENCV_420\OPENCV_CONTRIB-4.2.0\MODULES\PLOT\CMAKELISTS.TXT
D:\LIB\OPENCV_420\OPENCV_CONTRIB-4.2.0\MODULES\QUALITY\CMAKELISTS.TXT
D:\LIB\OPENCV_420\OPENCV_CONTRIB-4.2.0\MODULES\REG\CMAKELISTS.TXT
D:\LIB\OPENCV_420\OPENCV_CONTRIB-4.2.0\MODULES\RGBD\CMAKELISTS.TXT
D:\LIB\OPENCV_420\OPENCV_CONTRIB-4.2.0\MODULES\SALIENCY\CMAKELISTS.TXT
D:\LIB\OPENCV_420\OPENCV_CONTRIB-4.2.0\MODULES\SHAPE\CMAKELISTS.TXT
D:\LIB\OPENCV_420\OPENCV_CONTRIB-4.2.0\MODULES\STEREO\CMAKELISTS.TXT
D:\LIB\OPENCV_420\OPENCV_CONTRIB-4.2.0\MODULES\STRUCTURED_LIGHT\CMAKELISTS.TXT
D:\LIB\OPENCV_420\OPENCV_CONTRIB-4.2.0\MODULES\SUPERRES\CMAKELISTS.TXT
D:\LIB\OPENCV_420\OPENCV_CONTRIB-4.2.0\MODULES\SURFACE_MATCHING\CMAKELISTS.TXT
D:\LIB\OPENCV_420\OPENCV_CONTRIB-4.2.0\MODULES\TEXT\CMAKELISTS.TXT
D:\LIB\OPENCV_420\OPENCV_CONTRIB-4.2.0\MODULES\TEXT\TEXT_CONFIG.HPP.IN
D:\LIB\OPENCV_420\OPENCV_CONTRIB-4.2.0\MODULES\TRACKING\CMAKELISTS.TXT
D:\LIB\OPENCV_420\OPENCV_CONTRIB-4.2.0\MODULES\VIDEOSTAB\CMAKELISTS.TXT
D:\LIB\OPENCV_420\OPENCV_CONTRIB-4.2.0\MODULES\XFEATURES2D\CMAKELISTS.TXT
D:\LIB\OPENCV_420\OPENCV_CONTRIB-4.2.0\MODULES\XFEATURES2D\CMAKE\DOWNLOAD_BOOSTDESC.CMAKE
D:\LIB\OPENCV_420\OPENCV_CONTRIB-4.2.0\MODULES\XFEATURES2D\CMAKE\DOWNLOAD_VGG.CMAKE
D:\LIB\OPENCV_420\OPENCV_CONTRIB-4.2.0\MODULES\XIMGPROC\CMAKELISTS.TXT
D:\LIB\OPENCV_420\OPENCV_CONTRIB-4.2.0\MODULES\XOBJDETECT\CMAKELISTS.TXT
D:\LIB\OPENCV_420\OPENCV_CONTRIB-4.2.0\MODULES\XPHOTO\CMAKELISTS.TXT
