^D:\LIB\OPENCV_420\BUILDR001\MODULES\WORLD\ACCUM.AVX2.CPP|D:\LIB\OPENCV_420\BUILDR001\MODULES\WORLD\ARITHM.AVX2.CPP|D:\LIB\OPENCV_420\BUILDR001\MODULES\WORLD\BACKENDS\FLUID\GFLUIDIMGPROC_FUNC.AVX2.CPP|D:\LIB\OPENCV_420\BUILDR001\MODULES\WORLD\BILATERAL_FILTER.AVX2.CPP|D:\LIB\OPENCV_420\BUILDR001\MODULES\WORLD\BOX_FILTER.AVX2.CPP|D:\LIB\OPENCV_420\BUILDR001\MODULES\WORLD\COLOR_HSV.AVX2.CPP|D:\LIB\OPENCV_420\BUILDR001\MODULES\WORLD\COLOR_RGB.AVX2.CPP|D:\LIB\OPENCV_420\BUILDR001\MODULES\WORLD\COLOR_YUV.AVX2.CPP|D:\LIB\OPENCV_420\BUILDR001\MODULES\WORLD\CONVERT.AVX2.CPP|D:\LIB\OPENCV_420\BUILDR001\MODULES\WORLD\CONVERT_SCALE.AVX2.CPP|D:\LIB\OPENCV_420\BUILDR001\MODULES\WORLD\COUNT_NON_ZERO.AVX2.CPP|D:\LIB\OPENCV_420\BUILDR001\MODULES\WORLD\FILTER.AVX2.CPP|D:\LIB\OPENCV_420\BUILDR001\MODULES\WORLD\LAYERS\LAYERS_COMMON.AVX2.CPP|D:\LIB\OPENCV_420\BUILDR001\MODULES\WORLD\MATHFUNCS_CORE.AVX2.CPP|D:\LIB\OPENCV_420\BUILDR001\MODULES\WORLD\MATMUL.AVX2.CPP|D:\LIB\OPENCV_420\BUILDR001\MODULES\WORLD\MEAN.AVX2.CPP|D:\LIB\OPENCV_420\BUILDR001\MODULES\WORLD\MEDIAN_BLUR.AVX2.CPP|D:\LIB\OPENCV_420\BUILDR001\MODULES\WORLD\MERGE.AVX2.CPP|D:\LIB\OPENCV_420\BUILDR001\MODULES\WORLD\MORPH.AVX2.CPP|D:\LIB\OPENCV_420\BUILDR001\MODULES\WORLD\SMOOTH.AVX2.CPP|D:\LIB\OPENCV_420\BUILDR001\MODULES\WORLD\SPLIT.AVX2.CPP|D:\LIB\OPENCV_420\BUILDR001\MODULES\WORLD\STAT.AVX2.CPP|D:\LIB\OPENCV_420\BUILDR001\MODULES\WORLD\SUM.AVX2.CPP|D:\LIB\OPENCV_420\BUILDR001\MODULES\WORLD\UNDISTORT.AVX2.CPP|D:\LIB\OPENCV_420\OPENCV\SOURCES\MODULES\FEATURES2D\SRC\FAST.AVX2.CPP|D:\LIB\OPENCV_420\OPENCV\SOURCES\MODULES\IMGPROC\SRC\IMGWARP.AVX2.CPP|D:\LIB\OPENCV_420\OPENCV\SOURCES\MODULES\IMGPROC\SRC\RESIZE.AVX2.CPP
D:\LIB\OPENCV_420\BUILDR001\MODULES\WORLD\OPENCV_WORLD_AVX2.DIR\DEBUG\CONVERT_SCALE.AVX2.OBJ
D:\LIB\OPENCV_420\BUILDR001\MODULES\WORLD\OPENCV_WORLD_AVX2.DIR\DEBUG\SPLIT.AVX2.OBJ
D:\LIB\OPENCV_420\BUILDR001\MODULES\WORLD\OPENCV_WORLD_AVX2.DIR\DEBUG\BOX_FILTER.AVX2.OBJ
D:\LIB\OPENCV_420\BUILDR001\MODULES\WORLD\OPENCV_WORLD_AVX2.DIR\DEBUG\MORPH.AVX2.OBJ
D:\LIB\OPENCV_420\BUILDR001\MODULES\WORLD\OPENCV_WORLD_AVX2.DIR\DEBUG\CONVERT.AVX2.OBJ
D:\LIB\OPENCV_420\BUILDR001\MODULES\WORLD\OPENCV_WORLD_AVX2.DIR\DEBUG\MERGE.AVX2.OBJ
D:\LIB\OPENCV_420\BUILDR001\MODULES\WORLD\OPENCV_WORLD_AVX2.DIR\DEBUG\BILATERAL_FILTER.AVX2.OBJ
D:\LIB\OPENCV_420\BUILDR001\MODULES\WORLD\OPENCV_WORLD_AVX2.DIR\DEBUG\MEDIAN_BLUR.AVX2.OBJ
D:\LIB\OPENCV_420\BUILDR001\MODULES\WORLD\OPENCV_WORLD_AVX2.DIR\DEBUG\UNDISTORT.AVX2.OBJ
D:\LIB\OPENCV_420\BUILDR001\MODULES\WORLD\OPENCV_WORLD_AVX2.DIR\DEBUG\ARITHM.AVX2.OBJ
D:\LIB\OPENCV_420\BUILDR001\MODULES\WORLD\OPENCV_WORLD_AVX2.DIR\DEBUG\IMGWARP.AVX2.OBJ
D:\LIB\OPENCV_420\BUILDR001\MODULES\WORLD\OPENCV_WORLD_AVX2.DIR\DEBUG\COLOR_HSV.AVX2.OBJ
D:\LIB\OPENCV_420\BUILDR001\MODULES\WORLD\OPENCV_WORLD_AVX2.DIR\DEBUG\SMOOTH.AVX2.OBJ
D:\LIB\OPENCV_420\BUILDR001\MODULES\WORLD\OPENCV_WORLD_AVX2.DIR\DEBUG\STAT.AVX2.OBJ
D:\LIB\OPENCV_420\BUILDR001\MODULES\WORLD\OPENCV_WORLD_AVX2.DIR\DEBUG\MEAN.AVX2.OBJ
D:\LIB\OPENCV_420\BUILDR001\MODULES\WORLD\OPENCV_WORLD_AVX2.DIR\DEBUG\ACCUM.AVX2.OBJ
D:\LIB\OPENCV_420\BUILDR001\MODULES\WORLD\OPENCV_WORLD_AVX2.DIR\DEBUG\COLOR_YUV.AVX2.OBJ
D:\LIB\OPENCV_420\BUILDR001\MODULES\WORLD\OPENCV_WORLD_AVX2.DIR\DEBUG\GFLUIDIMGPROC_FUNC.AVX2.OBJ
D:\LIB\OPENCV_420\BUILDR001\MODULES\WORLD\OPENCV_WORLD_AVX2.DIR\DEBUG\MATHFUNCS_CORE.AVX2.OBJ
D:\LIB\OPENCV_420\BUILDR001\MODULES\WORLD\OPENCV_WORLD_AVX2.DIR\DEBUG\MATMUL.AVX2.OBJ
D:\LIB\OPENCV_420\BUILDR001\MODULES\WORLD\OPENCV_WORLD_AVX2.DIR\DEBUG\RESIZE.AVX2.OBJ
D:\LIB\OPENCV_420\BUILDR001\MODULES\WORLD\OPENCV_WORLD_AVX2.DIR\DEBUG\COLOR_RGB.AVX2.OBJ
D:\LIB\OPENCV_420\BUILDR001\MODULES\WORLD\OPENCV_WORLD_AVX2.DIR\DEBUG\FAST.AVX2.OBJ
D:\LIB\OPENCV_420\BUILDR001\MODULES\WORLD\OPENCV_WORLD_AVX2.DIR\DEBUG\COUNT_NON_ZERO.AVX2.OBJ
D:\LIB\OPENCV_420\BUILDR001\MODULES\WORLD\OPENCV_WORLD_AVX2.DIR\DEBUG\SUM.AVX2.OBJ
D:\LIB\OPENCV_420\BUILDR001\MODULES\WORLD\OPENCV_WORLD_AVX2.DIR\DEBUG\FILTER.AVX2.OBJ
D:\LIB\OPENCV_420\BUILDR001\MODULES\WORLD\OPENCV_WORLD_AVX2.DIR\DEBUG\LAYERS_COMMON.AVX2.OBJ
^D:\LIB\OPENCV_420\BUILDR001\MODULES\WORLD\MATHFUNCS_CORE.AVX2.CPP
D:\LIB\OPENCV_420\BUILDR001\MODULES\WORLD\OPENCV_WORLD_AVX2.DIR\DEBUG\OPENCV_WORLD_AVX2.PDB
^D:\LIB\OPENCV_420\BUILDR001\MODULES\WORLD\STAT.AVX2.CPP
D:\LIB\OPENCV_420\BUILDR001\MODULES\WORLD\OPENCV_WORLD_AVX2.DIR\DEBUG\OPENCV_WORLD_AVX2.PDB
^D:\LIB\OPENCV_420\BUILDR001\MODULES\WORLD\ARITHM.AVX2.CPP
D:\LIB\OPENCV_420\BUILDR001\MODULES\WORLD\OPENCV_WORLD_AVX2.DIR\DEBUG\OPENCV_WORLD_AVX2.PDB
^D:\LIB\OPENCV_420\BUILDR001\MODULES\WORLD\CONVERT.AVX2.CPP
D:\LIB\OPENCV_420\BUILDR001\MODULES\WORLD\OPENCV_WORLD_AVX2.DIR\DEBUG\OPENCV_WORLD_AVX2.PDB
^D:\LIB\OPENCV_420\BUILDR001\MODULES\WORLD\CONVERT_SCALE.AVX2.CPP
D:\LIB\OPENCV_420\BUILDR001\MODULES\WORLD\OPENCV_WORLD_AVX2.DIR\DEBUG\OPENCV_WORLD_AVX2.PDB
^D:\LIB\OPENCV_420\BUILDR001\MODULES\WORLD\COUNT_NON_ZERO.AVX2.CPP
D:\LIB\OPENCV_420\BUILDR001\MODULES\WORLD\OPENCV_WORLD_AVX2.DIR\DEBUG\OPENCV_WORLD_AVX2.PDB
^D:\LIB\OPENCV_420\BUILDR001\MODULES\WORLD\MATMUL.AVX2.CPP
D:\LIB\OPENCV_420\BUILDR001\MODULES\WORLD\OPENCV_WORLD_AVX2.DIR\DEBUG\OPENCV_WORLD_AVX2.PDB
^D:\LIB\OPENCV_420\BUILDR001\MODULES\WORLD\MEAN.AVX2.CPP
D:\LIB\OPENCV_420\BUILDR001\MODULES\WORLD\OPENCV_WORLD_AVX2.DIR\DEBUG\OPENCV_WORLD_AVX2.PDB
^D:\LIB\OPENCV_420\BUILDR001\MODULES\WORLD\MERGE.AVX2.CPP
D:\LIB\OPENCV_420\BUILDR001\MODULES\WORLD\OPENCV_WORLD_AVX2.DIR\DEBUG\OPENCV_WORLD_AVX2.PDB
^D:\LIB\OPENCV_420\BUILDR001\MODULES\WORLD\SPLIT.AVX2.CPP
D:\LIB\OPENCV_420\BUILDR001\MODULES\WORLD\OPENCV_WORLD_AVX2.DIR\DEBUG\OPENCV_WORLD_AVX2.PDB
^D:\LIB\OPENCV_420\BUILDR001\MODULES\WORLD\SUM.AVX2.CPP
D:\LIB\OPENCV_420\BUILDR001\MODULES\WORLD\OPENCV_WORLD_AVX2.DIR\DEBUG\OPENCV_WORLD_AVX2.PDB
^D:\LIB\OPENCV_420\OPENCV\SOURCES\MODULES\IMGPROC\SRC\IMGWARP.AVX2.CPP
D:\LIB\OPENCV_420\BUILDR001\MODULES\WORLD\OPENCV_WORLD_AVX2.DIR\DEBUG\OPENCV_WORLD_AVX2.PDB
^D:\LIB\OPENCV_420\OPENCV\SOURCES\MODULES\IMGPROC\SRC\RESIZE.AVX2.CPP
D:\LIB\OPENCV_420\BUILDR001\MODULES\WORLD\OPENCV_WORLD_AVX2.DIR\DEBUG\OPENCV_WORLD_AVX2.PDB
^D:\LIB\OPENCV_420\BUILDR001\MODULES\WORLD\ACCUM.AVX2.CPP
D:\LIB\OPENCV_420\BUILDR001\MODULES\WORLD\OPENCV_WORLD_AVX2.DIR\DEBUG\OPENCV_WORLD_AVX2.PDB
^D:\LIB\OPENCV_420\BUILDR001\MODULES\WORLD\BILATERAL_FILTER.AVX2.CPP
D:\LIB\OPENCV_420\BUILDR001\MODULES\WORLD\OPENCV_WORLD_AVX2.DIR\DEBUG\OPENCV_WORLD_AVX2.PDB
^D:\LIB\OPENCV_420\BUILDR001\MODULES\WORLD\BOX_FILTER.AVX2.CPP
D:\LIB\OPENCV_420\BUILDR001\MODULES\WORLD\OPENCV_WORLD_AVX2.DIR\DEBUG\OPENCV_WORLD_AVX2.PDB
^D:\LIB\OPENCV_420\BUILDR001\MODULES\WORLD\FILTER.AVX2.CPP
D:\LIB\OPENCV_420\BUILDR001\MODULES\WORLD\OPENCV_WORLD_AVX2.DIR\DEBUG\OPENCV_WORLD_AVX2.PDB
^D:\LIB\OPENCV_420\BUILDR001\MODULES\WORLD\COLOR_HSV.AVX2.CPP
D:\LIB\OPENCV_420\BUILDR001\MODULES\WORLD\OPENCV_WORLD_AVX2.DIR\DEBUG\OPENCV_WORLD_AVX2.PDB
^D:\LIB\OPENCV_420\BUILDR001\MODULES\WORLD\COLOR_RGB.AVX2.CPP
D:\LIB\OPENCV_420\BUILDR001\MODULES\WORLD\OPENCV_WORLD_AVX2.DIR\DEBUG\OPENCV_WORLD_AVX2.PDB
^D:\LIB\OPENCV_420\BUILDR001\MODULES\WORLD\COLOR_YUV.AVX2.CPP
D:\LIB\OPENCV_420\BUILDR001\MODULES\WORLD\OPENCV_WORLD_AVX2.DIR\DEBUG\OPENCV_WORLD_AVX2.PDB
^D:\LIB\OPENCV_420\BUILDR001\MODULES\WORLD\MEDIAN_BLUR.AVX2.CPP
D:\LIB\OPENCV_420\BUILDR001\MODULES\WORLD\OPENCV_WORLD_AVX2.DIR\DEBUG\OPENCV_WORLD_AVX2.PDB
^D:\LIB\OPENCV_420\BUILDR001\MODULES\WORLD\MORPH.AVX2.CPP
D:\LIB\OPENCV_420\BUILDR001\MODULES\WORLD\OPENCV_WORLD_AVX2.DIR\DEBUG\OPENCV_WORLD_AVX2.PDB
^D:\LIB\OPENCV_420\BUILDR001\MODULES\WORLD\SMOOTH.AVX2.CPP
D:\LIB\OPENCV_420\BUILDR001\MODULES\WORLD\OPENCV_WORLD_AVX2.DIR\DEBUG\OPENCV_WORLD_AVX2.PDB
^D:\LIB\OPENCV_420\BUILDR001\MODULES\WORLD\LAYERS\LAYERS_COMMON.AVX2.CPP
D:\LIB\OPENCV_420\BUILDR001\MODULES\WORLD\OPENCV_WORLD_AVX2.DIR\DEBUG\OPENCV_WORLD_AVX2.PDB
^D:\LIB\OPENCV_420\OPENCV\SOURCES\MODULES\FEATURES2D\SRC\FAST.AVX2.CPP
D:\LIB\OPENCV_420\BUILDR001\MODULES\WORLD\OPENCV_WORLD_AVX2.DIR\DEBUG\OPENCV_WORLD_AVX2.PDB
^D:\LIB\OPENCV_420\BUILDR001\MODULES\WORLD\BACKENDS\FLUID\GFLUIDIMGPROC_FUNC.AVX2.CPP
D:\LIB\OPENCV_420\BUILDR001\MODULES\WORLD\OPENCV_WORLD_AVX2.DIR\DEBUG\OPENCV_WORLD_AVX2.PDB
^D:\LIB\OPENCV_420\BUILDR001\MODULES\WORLD\UNDISTORT.AVX2.CPP
D:\LIB\OPENCV_420\BUILDR001\MODULES\WORLD\OPENCV_WORLD_AVX2.DIR\DEBUG\OPENCV_WORLD_AVX2.PDB
